n, towers, inverse_flag, ave_time_usec, sd_time_usec, th, bal, nvalid
8192,8,0,396.24,216.248,4,4,50
8192,8,0,238.98,2.66872,4,8,50
8192,8,0,227.8,2.7701,4,16,50
8192,8,0,330.22,3.11867,4,32,50
8192,8,0,540.82,3.54959,4,64,50
8192,8,0,974.82,7.49609,4,128,50
8192,8,0,1828.66,8.40459,4,256,50
8192,8,0,3548.4,23.3194,4,512,50
8192,8,0,6979.7,35.9042,4,1024,50
8192,8,0,350.58,3.55189,8,4,50
8192,8,0,227.38,2.415,8,8,50
8192,8,0,225.9,2.46816,8,16,50
8192,8,0,329.06,3.43695,8,32,50
8192,8,0,538.44,3.65424,8,64,50
8192,8,0,962.32,6.31306,8,128,50
8192,8,0,1814.1,9.01756,8,256,50
8192,8,0,3549.4,20.0357,8,512,50
8192,8,0,6962.12,47.9939,8,1024,50
8192,8,0,345.36,3.24358,16,4,50
8192,8,0,225.32,3.06021,16,8,50
8192,8,0,226.56,2.74167,16,16,50
8192,8,0,328.52,4.39963,16,32,50
8192,8,0,539.18,4.88517,16,64,50
8192,8,0,963.5,5.83183,16,128,50
8192,8,0,1822.28,11.789,16,256,50
8192,8,0,3543.28,18.4624,16,512,50
8192,8,0,6990.2,41.1126,16,1024,50
8192,8,0,345.86,3.13642,32,4,50
8192,8,0,226.7,2.27901,32,8,50
8192,8,0,226.06,2.58259,32,16,50
8192,8,0,328.96,2.97582,32,32,50
8192,8,0,539.82,9.97485,32,64,50
8192,8,0,966.14,14.0029,32,128,50
8192,8,0,1827.64,9.97499,32,256,50
8192,8,0,3547.14,23.0333,32,512,50
8192,8,0,7077.12,295.062,32,1024,50
8192,8,0,348.36,3.75124,64,4,50
8192,8,0,228.12,2.60799,64,8,50
8192,8,0,225.88,2.47963,64,16,50
8192,8,0,342.96,27.4627,64,32,50
8192,8,0,537.58,3.29558,64,64,50
8192,8,0,961.28,6.03067,64,128,50
8192,8,0,1833.16,48.6354,64,256,50
8192,8,0,3547.14,26.1362,64,512,50
8192,8,0,6960.98,46.771,64,1024,50
8192,8,0,348.12,3.27414,128,4,50
8192,8,0,228.24,3.12044,128,8,50
8192,8,0,225.68,3.09338,128,16,50
8192,8,0,330.96,4.34699,128,32,50
8192,8,0,536.56,4.59441,128,64,50
8192,8,0,958.26,7.59111,128,128,50
8192,8,0,1818.66,13.7182,128,256,50
8192,8,0,3552.6,28.7651,128,512,50
8192,8,0,6988.02,36.9652,128,1024,50
8192,8,0,350.34,4.68436,256,4,50
8192,8,0,229.3,2.22463,256,8,50
8192,8,0,226,2.43277,256,16,50
8192,8,0,329.56,2.92882,256,32,50
8192,8,0,538.82,2.93946,256,64,50
8192,8,0,963.62,4.4853,256,128,50
8192,8,0,1822.04,10.7551,256,256,50
8192,8,0,3539.22,17.5898,256,512,50
8192,8,0,6971.72,41.6536,256,1024,50
8192,8,0,352.24,3.75016,512,4,50
8192,8,0,232.26,2.7465,512,8,50
8192,8,0,225.96,2.67231,512,16,50
8192,8,0,328.72,2.79971,512,32,50
8192,8,0,537.76,3.25489,512,64,50
8192,8,0,965.92,7.16237,512,128,50
8192,8,0,1822.42,9.45039,512,256,50
8192,8,0,3549.94,18.3719,512,512,50
8192,8,0,7000.7,39.8534,512,1024,50
8192,8,0,360.1,3.79715,1024,4,50
8192,8,0,236.34,2.63113,1024,8,50
8192,8,0,225.98,2.51923,1024,16,50
8192,8,0,329.46,2.79365,1024,32,50
8192,8,0,537.84,3.71626,1024,64,50
8192,8,0,962.52,4.97438,1024,128,50
8192,8,0,1825.02,16.7594,1024,256,50
8192,8,0,3541.34,19.1478,1024,512,50
8192,8,0,6981.74,33.1218,1024,1024,50
8192,8,1,451.66,6.17305,4,4,50
8192,8,1,294.08,2.15558,4,8,50
8192,8,1,263.2,2.6264,4,16,50
8192,8,1,349.28,2.07059,4,32,50
8192,8,1,563.22,3.02567,4,64,50
8192,8,1,996.98,4.88851,4,128,50
8192,8,1,1867.72,8.96487,4,256,50
8192,8,1,3612.28,18.1862,4,512,50
8192,8,1,7077.4,56.8439,4,1024,50
8192,8,1,425.78,2.27937,8,4,50
8192,8,1,277.36,2.76095,8,8,50
8192,8,1,254.94,2.97205,8,16,50
8192,8,1,345.22,2.83772,8,32,50
8192,8,1,556.6,3.51092,8,64,50
8192,8,1,988.32,6.79868,8,128,50
8192,8,1,1852.84,10.1486,8,256,50
8192,8,1,3588.88,19.7077,8,512,50
8192,8,1,7058.2,37.532,8,1024,50
8192,8,1,422.34,2.5202,16,4,50
8192,8,1,275.6,2.64189,16,8,50
8192,8,1,252.16,2.31552,16,16,50
8192,8,1,347.24,2.91765,16,32,50
8192,8,1,559.64,2.67841,16,64,50
8192,8,1,989.74,4.38834,16,128,50
8192,8,1,1852.76,9.9991,16,256,50
8192,8,1,3585.08,23.6676,16,512,50
8192,8,1,7059.02,47.0898,16,1024,50
8192,8,1,422.3,2.67452,32,4,50
8192,8,1,274.86,2.90678,32,8,50
8192,8,1,252.88,2.53659,32,16,50
8192,8,1,347.34,3.19189,32,32,50
8192,8,1,559.14,5.53287,32,64,50
8192,8,1,992.22,13.9727,32,128,50
8192,8,1,1851.74,9.38477,32,256,50
8192,8,1,3588.26,15.9307,32,512,50
8192,8,1,7053.26,40.0499,32,1024,50
8192,8,1,424.86,3.14292,64,4,50
8192,8,1,277.24,2.42908,64,8,50
8192,8,1,253.78,3.08578,64,16,50
8192,8,1,348.18,2.63175,64,32,50
8192,8,1,558.34,4.29337,64,64,50
8192,8,1,983.48,5.5558,64,128,50
8192,8,1,1848.88,18.9076,64,256,50
8192,8,1,3574.62,21.2275,64,512,50
8192,8,1,7040.16,42.4838,64,1024,50
8192,8,1,425.7,2.80851,128,4,50
8192,8,1,277.8,3.0034,128,8,50
8192,8,1,253.68,2.8388,128,16,50
8192,8,1,347.66,2.76723,128,32,50
8192,8,1,557.26,3.99392,128,64,50
8192,8,1,982.54,5.61416,128,128,50
8192,8,1,1852.46,20.6053,128,256,50
8192,8,1,3585.64,24.1591,128,512,50
8192,8,1,7032.6,42.0262,128,1024,50
8192,8,1,426.84,2.04401,256,4,50
8192,8,1,279.26,3.19317,256,8,50
8192,8,1,255.72,3.31995,256,16,50
8192,8,1,346.42,4.03601,256,32,50
8192,8,1,558.72,10.414,256,64,50
8192,8,1,984.82,13.4933,256,128,50
8192,8,1,1847.12,9.90081,256,256,50
8192,8,1,3574.82,16.0124,256,512,50
8192,8,1,7003.72,62.8776,256,1024,50
8192,8,1,427.5,2.88734,512,4,50
8192,8,1,278.34,2.52829,512,8,50
8192,8,1,253.9,2.65922,512,16,50
8192,8,1,344.48,2.32326,512,32,50
8192,8,1,551.82,4.30325,512,64,50
8192,8,1,983.06,5.49735,512,128,50
8192,8,1,1848.82,10.0238,512,256,50
8192,8,1,3581.24,17.3294,512,512,50
8192,8,1,7028.72,44.1995,512,1024,50
8192,8,1,434.36,2.96069,1024,4,50
8192,8,1,283.7,2.75718,1024,8,50
8192,8,1,257.34,2.61557,1024,16,50
8192,8,1,345.7,2.34955,1024,32,50
8192,8,1,558.2,4.04566,1024,64,50
8192,8,1,985.34,6.48266,1024,128,50
8192,8,1,1848.74,10.7149,1024,256,50
8192,8,1,3578.92,18.9574,1024,512,50
8192,8,1,7037.24,37.2836,1024,1024,50
