modulus: 1073702657
n: 128
answer:
[401184681 193399242 762295854 733395646 612324969 810990076 1008931022 942678945 1067094738 682993128 997947897 105767225 813659557 66230789 366231946 219303913 2951759 251240822 239246948 645653002 490724857 117803810 910556261 38563998 44945644 409805130 1053810461 1000561819 124870785 207904137 608876152 395198610 378815755 127115783 825637889 726879778 453959574 178567536 859920267 739912850 701088501 668867905 3612366 871540673 598075239 99306703 1023003260 397118881 183940852 139975387 718901284 855752155 938774565 4414097 434273881 442517695 790329265 570579949 152382187 290325458 863703092 66888689 559893175 13015341 822894080 958540702 269156535 641791894 890853991 386300596 103589753 318204110 1053992934 378325407 1005459896 2024452 719000906 130282603 463571991 345078561 156627878 301827476 435468971 751463803 653763644 178425925 178879751 429942327 329022606 103288544 761718381 437485449 189969169 272831039 946764405 926590880 32051084 197746176 616558493 204813991 765730059 780360649 232740500 1020676871 311487379 1067919625 747310633 294945886 536110198 141983293 387030298 128112341 96419265 1050600638 811798354 408959333 893855034 598489031 838988829 702930068 586499616 935883073 484081994 795918639 1021787918 253637619 24613339 151696021] modulus: 1073702657
