modulus: 1073741953
n: 16
answer:
[74239459 685556786 155818371 654286980 400383584 99583324 606919093 631682465 563335519 233479294 984839401 314692652 198851558 194851567 274694826 1050073789] modulus: 1073741953
