modulus: 1073736641
n: 32
answer:
[883911482 475755091 230865753 705055039 624171486 283717139 991205552 951768534 245877750 203208625 710328305 307006457 927446517 408641836 36949576 822489192 385318257 1019640111 539653711 667192907 571871871 171321293 864486685 162342549 873589751 204692761 176974685 435637065 930636510 942971716 40093252 106348464] modulus: 1073736641
