modulus: 1073651713
n: 4096
answer:
[729626702 811224099 759740469 437324860 615049647 38654159 556160645 634155676 809606047 1035494797 668553673 836174204 221959447 426890318 924094662 420618204 616290553 946263914 530139392 886633421 804738398 466262655 114277306 305871040 265288625 749468863 398640550 230401995 594413733 466973380 179817802 123009405 479246508 1012376064 806100179 89743544 7313478 509149099 412904694 592570184 868568981 194418383 603264046 639774107 316048668 166116808 877450505 710440036 98429308 783330518 2423832 811337918 121857524 987340183 480115767 702736369 729044552 561931317 41032615 412005498 131423248 625507429 640434149 682908539 108871484 451734517 969766721 872629609 118396333 678253690 844808135 654407081 444379264 174579996 154387279 892588985 938728600 993759233 450393217 654957270 551794080 631455483 861566136 601639091 871464889 712628031 525981297 679120781 145931897 921757397 367991361 773913861 164003800 15025790 596429962 1027063648 56046216 460195823 633870840 14790168 517055046 718161629 82921000 372366346 503069324 673195935 199691817 1069392528 19823358 655939592 224200125 609750975 576759506 325223447 343417377 898078896 171881111 685876815 669025772 648304800 357383529 912423128 605670357 357473634 33134690 1065555916 315046678 972309987 105600920 120174013 554227552 80199295 1038656752 177039512 109377337 547126258 545233992 391583617 852798966 978748121 604942813 456899774 969235317 31529373 465388303 646172607 1028604603 1033078 397430929 249544767 450153505 847048421 320078533 1012847047 360011267 965536428 353988502 674846308 857506290 234291463 271214391 460144992 262825093 1055194841 714194819 1057961083 877405756 971493787 1057555752 561065151 456105135 43714939 315220714 815736855 911439446 623348074 685303904 673871420 262277628 1068819825 472602616 67150684 353414817 817814349 300068577 1019483761 931511109 855017181 877568154 844352691 443587800 71513555 226363002 670011681 203247133 506768968 554146525 727544105 889206482 539504549 175284357 97333198 682570801 757320511 373054314 241043109 462057401 1026166045 595592971 173810831 315327854 799423113 865738105 622757102 92699471 726577929 355982577 818931872 320543591 612411131 816293723 670625908 509393821 242984851 556763790 785189660 903144880 925560179 231014401 611700675 754650592 401629319 1049313570 954797410 1045095247 186469460 714277200 753995141 1047700130 88504005 529860387 437319053 760592143 124037876 642686027 1071208198 336572393 330087295 1000441592 457929055 159155996 195310874 847403133 757798763 606932080 137245950 829139804 720216168 942185877 530446736 1064261014 682691032 424182499 278143821 50139212 269835180 814080485 272040692 919917118 871282135 679269676 75998129 229541844 799780387 446233756 150338567 801248373 277900413 2862452 701005933 247354045 257248483 794968059 802585472 653262350 534576535 403756233 90633347 555495059 688896786 298174935 99078009 321689020 671468809 572919185 242544007 934643396 21928867 368952451 648432948 129803675 113729574 44712147 902035743 446326362 205721260 83329623 587278168 774783162 912184556 27609859 37026531 580595917 387363556 820594390 217017262 555516681 313473014 894956409 912165883 514740427 588850633 506514874 860913013 709625287 890378373 175053845 190895053 113286193 634154595 564914676 7215472 741615045 942855231 490689246 697487939 576346727 762609645 1058063621 798043317 409841233 229018339 296123400 964044466 264559794 969350995 487383400 69686711 381290911 113412259 687853675 314496431 368247180 207790372 298448428 85658504 113252000 419948270 557840232 892758519 936729259 467592323 495736691 352903789 94394475 420866075 421488483 139422886 279447693 403480241 686290293 1028173133 536604384 749835270 31260157 406682392 449020936 790107462 397441451 1019781977 568015783 501964737 761829247 940188030 624204237 685195931 434007143 626815070 501007239 866774285 542203153 300786661 775293848 822270351 28879755 376447378 991283035 1058969949 774636098 964399669 837599540 952200741 406749783 152896018 194911851 442264739 284382024 540574385 2009079 895607697 1034146756 195740426 917724334 708868811 718262572 705632881 556096521 13761829 951335611 272333739 833637413 949496817 546438157 358431735 654743131 863304377 73855493 898123152 612769489 371709175 140387675 562303808 1032273881 444671190 875239245 883152259 313207260 895750580 22308859 313949068 401277474 717868360 850302410 727234633 999006926 418148191 975925668 796055464 223605684 249501787 607537901 537335021 485329073 1038446328 522751264 945464545 383308217 819565738 84004796 400923193 402370994 339772234 479536399 1034953108 780326637 872232063 373444893 595522793 225199420 1055819153 1008832520 282947768 126908749 570326280 272498355 318448126 1039952003 1067326761 596686265 1038495697 730315510 436726093 199618586 811674443 287226785 556893165 824492638 909291479 435794313 1013986714 987141629 18639765 805213591 630212002 751124167 527270951 561277305 576063789 878310015 397887660 469318451 381220588 611001883 238557843 222361777 592235266 904705358 998542255 685640184 1014334509 266907848 1019014562 469718991 824698766 613646910 863048363 287352110 635040651 884624711 757897615 993797114 498480494 555890997 584200293 273479353 445472281 503391867 26841610 659680688 759373055 155310083 80818752 407670261 72918547 927235535 218930138 798953438 384939269 540532620 33771268 758608760 909148381 318987192 920623470 49109137 552919538 777713229 944584372 199042853 421850329 825152782 978348490 435449989 1062897353 574175826 252884752 345512777 518339438 1467238 126456256 705157455 171209147 45436612 211142362 827207873 786728222 433835461 351239296 517312952 770230518 1030096797 625234355 543250905 562515192 696054980 202320382 699108802 81129552 713995102 147852933 435644537 672327329 720643503 801574355 23277041 839636420 775290695 701537285 369519518 664741215 987602099 920134426 537843540 20201 916984268 678374992 559499966 1034108356 63946781 812822909 855863744 442926691 252405220 459950032 945749637 867002304 424425706 781777670 726566138 355264533 291879916 919151397 510500846 496102004 499300708 124024607 537520072 26620186 133516180 766632581 648580856 938838364 515824862 638992565 308206160 915682539 181113058 540671322 592445799 191106360 232508410 170688557 384202904 377212104 702922648 586973990 559281234 331971547 462928141 151446014 27413634 243093559 109044253 610948419 561895493 116630069 350802882 423211662 965470608 483890428 163857837 595229491 896914713 610300965 791455814 680841741 63444717 1065648441 999032872 719272639 851537320 196553035 4887314 359071369 749240855 932330490 355244756 1033929295 395080398 518579083 3119993 732855694 840846516 140651924 579263296 864479257 390146752 458791667 563993355 286146588 197570036 337774083 372341310 100512080 955118069 308704241 641480762 668141709 156812215 154011795 188630860 664535540 900090657 184391039 607925703 184434245 54763594 672002989 759142123 266439232 384439674 962685219 953317381 2732700 248995508 449787015 224570761 421145306 1028725440 932045392 734505820 166781195 1036009500 834132665 664742365 14849535 781374609 54836237 791092723 772429285 619270254 495762100 1059765972 86399732 354123713 10724659 95909900 154386195 830992534 891606261 347034415 314099254 143545548 354754659 298211208 130772674 421379800 778956638 1061268150 854876921 1069113122 410701738 758634103 741980092 230167516 979281018 797957413 744643979 461201734 482762941 701265462 335039905 203101077 549096545 220797094 511727670 632187847 36782138 240958788 847165009 318415780 922272573 819670862 677522738 343806329 534916673 798938178 283857158 160549857 252591797 688036843 615817498 1035513930 541851168 440562192 939529827 822844320 371781393 681598153 504683216 303766985 1040235843 1057493005 950666322 985881492 371742608 879095933 721276044 785544343 609304145 333101860 473371055 602570162 400754318 207982832 603098139 503528810 679773290 196497862 533622570 111801638 619515074 686892326 231943679 982064950 479495046 282603892 53597472 1038219364 872752256 1000298821 881934796 297580759 676466818 1039752997 234917139 779146566 504293654 97285080 171669659 120961719 7547390 976974900 221591003 184018499 248791148 958235079 1056302100 450731493 604781331 175953695 86688283 929672401 42905581 31724170 1009382000 880707041 346389708 354497502 17094979 332208363 853603382 298743954 383026521 386497034 433657350 163190027 1052087225 821395573 688750440 880508520 864755303 25739777 1029300657 301900134 5096222 133943364 476420504 516422062 1023343229 887503255 340228524 837932224 685408582 25581369 168727613 1008128771 871822385 1040036818 177458366 402896262 577924629 747894449 1064581133 176485042 623079995 822469245 363561941 70645679 923175618 584044676 651328599 514004451 540104584 635316490 692881668 986680739 293729974 49142090 487879929 819946262 721771273 645281892 669092352 327448579 918221451 422806769 758515605 591192985 476430638 417999669 118980435 492854182 42130356 425464147 778493521 323603852 1025352773 925821317 112390789 208415564 385085229 640231435 622871905 578342322 645596387 996521554 469901856 704505539 168346572 394534218 506042115 341853868 422740860 54034596 250785048 1055651330 9570077 343699214 1001633942 727560334 782715708 496800951 893190247 1017767036 659393985 853762911 957434522 417596127 183894615 917302725 926771838 817835741 799632907 316441237 740004843 191743710 228239225 784287133 243124766 859635347 142712440 388836541 1068109411 1035493139 428009696 737712713 133915501 165913671 995507867 370067920 1004967953 348897584 993718935 193668209 694604158 979971617 367951852 411057636 389022953 442870151 25600192 212748385 324644886 710686130 985645862 925540041 410655052 1050927077 732861361 256880333 965022636 694513344 943677841 764888614 1033947896 762902376 437653621 999872826 779221636 36489702 175037902 428774788 853217159 259858253 522932313 484872103 214092390 49740840 1039881835 314791320 252660246 912519744 868193728 286813469 328890650 761822747 126705542 209733953 690157947 416218852 636480597 240207486 373477532 617308687 149248433 987094947 763904664 629405355 723486239 803270656 763888351 423344830 467688399 286526955 698183098 678552894 229023830 492400706 543850578 297784154 1063128151 914462276 965024323 360353660 878176417 778259372 494627875 622403943 102285306 31136204 143529423 782978555 169148021 824573429 27783746 667833055 688451524 220089406 939664575 743474425 691614573 375028876 271958354 466164501 898848482 222789841 59617019 507300577 814457240 447492779 317789707 561860092 1780410 84886517 1072652357 36605297 1006579029 705684825 178991072 29139197 494144499 833378308 689889617 48873526 943311519 962401334 237645593 734246523 405041148 88022443 627216956 899718766 661260669 463671735 1000933115 581953202 833099885 23097291 1067558751 801992789 789363244 99833188 708841501 38290920 610247527 383004632 818303345 29285641 344811720 933348191 635583653 410903503 424950154 325622891 57143215 627885824 944053022 316976578 482546058 375342362 149278087 297938507 412416619 218315973 199603925 756881285 817715776 810329672 223450915 571933278 578578663 58360818 342397768 513006221 682809854 891231744 946208608 322279202 1036932157 1037279899 365353552 209822890 137238191 426831151 1061674716 717554337 236903038 619738861 234826726 406813464 128738609 159656575 792151972 136217052 420981755 930245736 93344921 382560313 49075963 173690233 742064547 1050650509 162572000 1004436062 265936512 640534874 205247230 770428612 25090904 521578499 272264735 1031304147 1039016416 192848458 569063830 982145116 935081315 854746301 377899904 427774890 164371689 796191092 197657874 849765816 869041293 488909970 485642885 754547902 435827728 607151926 1027115559 234349825 356261708 605204661 42384748 700134032 601433888 691346378 1020759067 936337394 1051155552 324043758 93428880 351336753 937330277 887172169 651674467 457304572 518125147 252229904 608699077 828410287 75548092 648990551 146297858 313545769 152855395 123161972 614909525 542184170 971474473 857721054 699757180 716042041 699733225 883743616 439161205 513302899 303113948 889625655 890845112 693237044 415997382 423050559 1005515503 477624093 919647925 815031632 540729431 509636926 237129101 856046652 853783078 692204703 922628262 615975778 461264799 1043111308 624225634 709076404 180698076 220349170 1051872112 46364657 378928435 50014755 328864607 163873702 863535114 403264437 894071363 204305293 1012830744 289418847 179870243 759133636 938303965 964026486 796089680 776007173 358026784 86229995 313583005 669405379 63323568 440190549 760175514 506422376 648314887 339355019 18518636 957405785 1042485495 675129182 606774916 915547690 167381582 93157646 323379077 926961530 679856824 390558920 801118249 550407831 440271162 223222768 138879295 854722307 515083032 527448049 166538559 511028583 28354800 346243947 195525517 731228004 812986281 102978087 601467786 83949957 639870344 976719335 263563424 742894055 244359215 439091012 105118092 221492507 205015689 986096944 880003960 319738738 622606263 117887073 784444673 752989270 1057371811 1020775001 500138951 134069053 608200888 962858893 365919885 308914791 79941820 537714464 730491453 573977365 594391301 719178600 678248291 969657469 253419487 717826222 1044036156 465956728 474609139 374751328 824972079 974008270 11354814 63666261 385358619 463281452 546851644 784002639 609214771 75055800 187667129 438202631 924563688 375249089 278289469 140272645 112225146 660587509 120772696 1062640419 946505019 575734545 781590189 221904988 485980218 1036553260 850187280 816278807 540237376 199628457 437423912 702303279 825592118 444018734 488046004 133207259 201744196 553215078 687417256 334024195 344374498 212268247 688848107 279122506 565682715 114506194 231749468 725454258 15713174 609430626 275624703 551385141 670111019 739243810 906674131 849645198 361963785 689134247 77670664 579711834 572221855 628537222 869017758 499999368 712295343 995785460 279463423 521991136 1068908777 245071874 155335636 813370905 913997362 417767473 3651943 537835844 967759983 556366868 1063778880 667981432 429795716 457283854 128541667 167103016 818239918 494008690 766439698 639542950 1033984267 455893030 549991462 481782924 613577005 616930690 570192704 610125978 983710710 271378385 234299197 76689647 918277872 814322319 607564024 223937301 563098535 706279232 1020878902 632193582 662142968 64132100 335473947 257566973 198397331 595164718 78830951 188341168 380632149 382248099 18342399 750749142 299558980 30068143 223269942 950187412 665296530 489325711 68595988 848641204 407032898 803729024 942340500 993799266 958300995 436499845 98035967 783150270 906793228 501625430 1019577461 491399973 664429466 65097615 859686310 571813308 370871681 157553392 127712220 64821557 238992726 363523639 229536524 875170026 1044192589 654767160 672066303 919209956 1062486641 1051568423 959216139 958439232 944969465 403137103 242216286 134543280 417109500 770614964 32657241 526389184 935863941 820978048 325177812 79981485 543887961 428442676 555094037 485766265 441780708 461325257 174006824 20011805 441953073 675514199 432658151 973099648 578581132 706917106 865907860 1005664385 276351586 881070040 1037524216 618683837 332653276 789250000 50691228 342479632 511880659 826460511 722807090 18504842 410047383 501472859 652598872 767003633 530646481 484899059 818943396 435915021 535801024 435183634 812693914 801029263 36689221 40765289 691221408 1011560802 640921512 923778471 729507064 32740469 1063108231 161094552 633146078 208158357 530092996 770608084 707570644 447609074 44382159 962028269 982988912 139980280 822668206 542536166 819490550 996890505 460231130 235623585 113442417 951589586 894403779 255737988 832452803 778360779 497377324 377422387 244887254 3101499 938633311 118539104 10585089 491118810 633293767 104701426 168276509 245850627 575220220 794476476 4808733 450954715 53770967 1058590892 253628807 116994017 491130159 638847493 780583959 1059328472 156191319 723503039 368350820 688363873 1041834696 528675790 757134361 543424394 781867074 629492320 383927038 87283115 645884348 211601556 17345594 9885864 708499164 191338755 953160440 104230373 653272346 653006320 210829335 376058467 784126714 1060294820 489168618 606948556 207346921 1045542163 917342452 650689953 810189876 721634062 385208183 184747741 276625965 580107459 940634120 34636441 543135164 414910500 465669759 565083993 961027739 506409211 190351932 200569312 813186622 1058208456 76035590 30370786 819805369 1030850758 983958741 171155841 1072824511 709730156 155208399 297050481 717023845 455239643 810462407 833533473 631482771 303298182 272892515 183839705 829790065 366012523 479473648 813017477 87758573 906457817 456893579 253626043 866599969 560329153 84724226 858367323 295382070 521126542 156207777 978504668 399418552 960753431 729976472 754371335 509166055 459411210 577603486 196821472 708071127 468052696 332219631 917196560 780444913 31582272 354816923 244952258 90736028 1015625073 597402158 312415107 701173635 253084394 233527147 509916657 720321823 475739674 125708223 138445790 331025183 606015669 119405421 464442013 801140452 74116973 411124478 919128645 692034996 98302219 118373021 579058366 348350410 921827337 633856517 621368330 631913677 617713690 808166713 395471645 1064056703 103811854 1047900422 540594113 205484375 367233905 477723096 311083266 34974654 345466806 560490600 1042114423 944138643 856862601 357486502 134499506 423987676 952925273 71470496 910168012 427128463 678339318 577331661 795503511 93174113 925790731 424696582 811352825 1022858278 133234989 843781003 997195829 1006585216 152233023 40414154 182466719 496265969 35674264 649545715 468473495 275257019 157144421 855831698 12876949 947768925 738779042 196969219 517029356 679465521 1051222309 418050551 835480371 81010705 423121066 680115847 272180298 499568324 1021840103 236402666 167976354 243986879 74962020 1063949554 772703988 25554141 66927877 322837333 910611143 14370219 655185642 721434967 359460735 1023253158 94145939 407121240 860561516 417309654 963719724 757977508 493334034 843229380 432540899 365458171 407328696 706601765 1048815082 232437020 225005964 907446972 368494623 455398878 183928446 885305236 19782821 248462089 49246111 65340 775073361 696323539 598637735 657738043 833466478 39402217 653711244 342392793 991785988 299160879 11731265 763108294 1052913506 226465851 415803681 698999443 441958171 163749513 874968951 263441647 11552973 832615295 951841994 933714215 501474538 826244374 1018098503 657428911 314815012 912588490 77614049 252996540 108220087 687441179 597705346 592640255 192896996 524390436 105089572 327730197 517804934 676395703 59157468 141832282 167972686 798764466 377393139 250625093 712413149 562490949 446583076 97841607 740644393 513854561 954907038 174792729 730791486 97079959 883020628 823999489 984331275 233133560 615534954 59531582 771794422 744821688 705952492 1032246835 884558979 1063773931 720316953 432739440 868471046 874537093 230269582 184279600 261845902 387704156 667945731 381996251 846339846 646983133 169062065 481651611 274845519 15203461 466926570 529170939 857396532 100090604 339394537 412523670 1039290849 944882275 471207554 844255283 688526732 982577411 308368194 820962416 260661338 237706582 707012995 966463659 544247407 898748756 102548703 1044261646 59307027 266784149 479606180 125025419 113969862 875118651 964390484 906226522 24019608 727684141 298656634 921935329 967921413 438952037 604432382 840174494 874071756 715927585 949353348 875011843 928866817 391279904 121611183 810153346 830523821 780874136 928842605 470766212 759617200 248880010 393077404 1041712697 1023118581 609479696 1031040108 1040003893 390743415 685492654 266127871 870587228 47285303 405718294 719778514 702481970 106512840 966383739 793273957 920664796 387061201 190962549 799585754 531306637 209759943 907624285 102467807 304860671 694993792 75901514 9770960 280969838 1068168458 159220773 916919398 240169846 423597626 191191015 406913088 305490260 300614994 304116899 91031126 238245228 24337478 523674920 272223000 463610573 131445183 252358492 1062892032 784791303 277935427 997294216 938081658 552817635 46164938 216621769 234281773 152404650 107994863 449126030 67374101 898401519 201508758 585106075 776670405 932880312 450547037 284796562 252556 559770106 728860265 813413401 450844400 960100782 218700903 632772993 907942678 981128403 668528935 658603750 574774583 758913790 335657504 779111944 54231226 175257216 901644476 589339783 985606083 484437517 1033260084 753574941 980118970 111580154 352084756 224648922 138152999 1069340648 1064515756 319547897 207044822 468984450 709094292 443355885 524704367 954099335 831046977 985348506 613948848 68654338 709797269 496837583 606020552 796748506 289183169 491102046 103753662 819606691 794217254 573725422 436630459 1072776085 917945011 220449597 568156521 8855602 875682810 781397176 318574720 25261275 425573689 852616858 513368978 899706942 647615323 315407934 503331600 916911868 914040226 353514588 295908068 636318790 60381948 518971716 444643258 73739166 980549342 916599998 783704880 515575369 880230128 605235232 778327107 203969192 617780907 845642296 315073745 856706617 694126101 341186130 94886895 828907370 849456676 459948178 1073220016 854709635 931108435 1029713738 357983121 36483656 369587467 309048836 702219508 114055331 92738712 362501282 217341390 618126727 663354453 914848864 831516728 343102213 26587481 612592434 488612123 441729551 453508053 994658533 307275889 834598200 681001664 720813676 612334587 615828066 750836577 83278580 206348789 958393495 162667145 343241261 881237770 233977255 1071522229 472290165 723250428 988177056 837677080 685221192 391326644 180132069 1036690807 741504552 563588940 483730500 969923113 729253481 1058079638 736291604 97032295 100847482 737049752 178698994 1060266104 418064955 822254459 609400756 609958923 152005568 673153616 677271962 266408245 823606049 190850386 22809120 452630482 637074411 543658103 315597812 525614116 899571289 433288294 120211677 423491352 246302944 746850567 510174108 1044005489 621857818 71039298 527546430 271500492 460594856 1068089767 785160056 873074143 906460371 399577173 855896211 918432324 431099202 763626085 229011545 96169850 994325740 110474963 137752013 853120089 870094328 746894243 219401509 73737217 640076677 339692093 9601212 247588858 91616551 818127584 21267324 654493638 404738817 29098552 1004376189 211406792 217183547 850382636 681624931 438736164 142408785 1051504149 333549243 19738529 450065205 184550306 527135655 543397877 886679483 203023483 547014636 322400850 687323612 698586842 784468800 834486474 139384841 47958926 826602158 751324934 629958547 803561005 993226516 172543007 932593122 320309881 250346794 1044914967 371125505 489827495 719305963 730561688 437144690 291043066 1036861527 961859667 999375509 682470415 514132296 842547905 51780462 867839061 967159438 15310813 302377064 156068755 340477879 1054410356 553637526 795103743 113938168 42461640 262802757 364719072 470286094 973134349 866346174 603146880 127109996 463367109 20560827 5827770 721584021 185648869 596380221 570587796 571908046 578338159 701637919 603346366 258561856 286674208 190909100 612443716 985157061 448900097 219690740 939248819 894396721 402208550 255032207 627018174 523881542 1016056223 716529520 770153948 974176645 971918427 537532805 45052339 886308071 125996257 350541878 513265127 974282336 652205936 233021524 897882694 764020772 560173121 466829015 216739344 133135409 1067346468 974327401 757132466 582214287 771931297 305008532 51182856 701574997 53843547 525452881 268460125 620309049 804188706 1889571 1022085095 1066141003 382204391 550594634 331743403 546305962 1051139101 954095749 637410609 254126969 524873602 480635861 435395234 143378013 630946564 379210324 242033018 290326027 700432094 634981225 127396711 203642677 668097730 370278348 37346418 662433628 699623972 283095875 376346475 834526293 540660001 324031927 511872885 176232885 956963544 1006810534 990637571 609749690 678473752 594247417 812869800 126999770 941278232 551465422 1055584085 429139034 224461749 214765663 100904781 453677716 229643568 820558436 138385701 529464225 424525876 978571239 882403422 570403437 254630411 3433933 523909885 815675635 528291272 208028260 830975276 766476218 1048974234 789608452 650103944 891340342 1006362075 137523853 1011059416 40560171 555203912 318093448 818311794 693438237 60758448 439228564 510807928 192391109 39027143 194154302 925172410 505997839 43367524 653545561 893974552 596873441 587229061 567558274 177813942 930355065 416515449 689389039 173237969 1009577640 328311157 440834797 94103180 580846969 425276625 594588622 412428369 26133630 383630566 550835314 702312443 133162227 609109942 975176929 923240596 466710275 1045974468 309141828 992140213 1006479087 57936507 871747423 45181562 137157376 445638774 748547470 914333065 1052470145 217516069 21069234 793004668 721452739 18023195 1027758869 98382770 1021131915 567665256 110088788 50759500 354593941 566966496 305047410 310223191 172300321 301542641 238022287 883346914 693626041 270094778 211777628 981611147 653336145 302724940 248619814 91655822 29063022 1032496658 456883380 525332770 1022809485 101689643 230527521 560505873 62395086 251348886 716252459 958485544 346610640 1034711008 885132855 1018298148 552985242 349038881 1027622281 753086239 508103386 1044527362 54123321 722867920 286502439 940352252 382262869 621103549 369180374 831269490 213569876 490542191 714748546 323374859 551814197 707636906 537015550 509351453 15438245 422890507 1049512357 544945366 771979361 190046368 687963376 698922786 419449592 488300255 1026789775 714865327 949212656 1050928271 197056198 886202927 90556005 666731063 259481779 953700378 452144224 656907597 702197343 167082306 71795492 993870781 648648048 351008383 753455044 371836635 165278990 64841105 611025079 930965218 962590145 856886827 298751344 794037551 623115452 335255263 113159965 16672249 167782112 958248720 321939194 907510817 473662528 511491461 608036991 198514498 701474502 734465403 1052400590 247406534 1025102992 124550707 860453235 191923032 872567960 82777311 1071137105 454392444 464926832 693316034 361812384 307427931 662465604 966907421 585969119 501167452 838431824 337117783 414551493 82039500 674099867 1004351845 105375496 726558858 406284109 219406397 786544406 1056457297 1038086133 692152112 799782027 52380643 446316492 944074615 948278249 527098628 848662689 374447490 499020774 981140397 1028062095 835343039 73556267 742348735 547246504 153790477 192217821 492504323 25717406 249801807 788206418 190885117 493266566 150764911 680169699 461238090 166166069 385954174 725535930 639541116 931343772 721569366 798580954 213658640 471678130 975235448 551616924 619235901 799229446 804873570 1052618589 421755059 859116665 573970414 489713173 181689622 952871803 305995783 863654525 660233595 144465998 526080003 722399264 503104056 963825317 718899274 203578097 657053672 630540349 253270303 478779309 880161116 952826317 559946203 235586889 508972111 693132546 489466625 699275554 110067352 500649434 305508960 317486976 789626768 528667090 372489414 786838199 847887128 807380244 645511610 98771891 1033482684 678139762 974649342 1062506448 617902718 530048400 734435021 1069072583 401149527 572772210 43077953 995521691 613952497 697892630 746515307 729563147 765436112 429659188 672205657 113249092 430601133 219200601 544697384 223191615 385338179 685273001 644297788 567745278 436160562 55130604 147258788 61466094 2434545 689911318 64796363 552143845 346837469 882744661 206902803 745298721 345260539 995378894 54236103 617784234 204431536 29580546 968084067 403872510 712074270 518412203 460206986 66322843 107412561 502569980 264018618 619316088 726025506 924791340 1000590805 877898152 1049208872 945035837 881178235 140369928 237465261 768048681 566667778 429651196 558245226 768841689 363007258 331234981 762428668 145536334 344865357 426691024 516556664 747770626 643040790 1043324927 267016582 249072648 5107804 199148961 1066955636 205713381 333236643 723804275 573163985 636395292 633720302 441281158 423731379 730246898 60463741 313537713 897106255 372628847 699546524 884450020 660712246 766915764 466374382 3214121 952578886 818085080 760170724 747880475 165509510 394121958 386460011 539227046 705158553 493917371 774829288 142208445 680511137 557695717 229948915 414345389 630344352 1059472465 456268663 702987069 896112134 339398004 917069954 660293723 10240930 19713877 308492271 769188588 686180785 488719039 388101953 71603964 538230854 183827022 331288325 705445708 751534167 17504647 786861398 41300057 896170715 886630686 244748838 499802621 574662500 346589448 97806017 172127969 383685526 926227991 818896281 986993939 410232538 890292015 150183586 621550179 478683502 749289357 808867520 619352161 399338153 1020078181 420362201 940140865 458468492 178467455 119406456 807670481 991882393 692891438 363131081 678227630 140084445 253834480 328250682 244481030 707482326 256209468 283906271 389299705 760255315 250711957 368133587 884751809 1858589 390494617 918079981 791327591 571907092 971513382 860695807 959933963 762334988 336406116 568954179 49462579 721666347 219299078 518470912 602701354 973466857 254703039 149736273 412044512 89034087 775287107 754296181 493436053 483633175 555695729 37779221 383336852 938376650 364912594 759383162 475128632 861353698 897763365 111244621 830871484 812008610 62501533 846548322 547763435 533385958 70959793 568631140 472822221 1027478327 343709779 104987787 320739226 1013531666 330463148 95192849 665252329 916729932 493003054 490896675 292226885 781121063 339800986 878005940 353865902 292274078 600829867 640925969 337700278 168089863 410192205 152456439 849090398 565129377 208052742 298373982 824596219 592472517 29787129 154209858 536321795 253278857 823364303 223358269 176341770 652364079 88614544 50383191 439017143 635803027 270199571 278458377 352329092 252873032 941537102 105783694 820331264 940778618 402551174 553907788 791453470 219109303 119282828 301014860 819908695 974386266 408025260 1056941286 707381796 607484897 449811875 567173635 1061940428 169423231 745783145 510324655 78958473 703371570 278123520 324862071 742030885 46450648 374929101 527890597 401549210 813107176 624215567 61437861 376659669 835955054 369025119 902195385 211433086 906399201 533461524 356466222 121815882 611492489 813618231 696650155 909959212 275472028 862352675 685710092 1043862747 1004293651 465461521 705484759 1009697635 452931264 284008128 492113508 692142076 837426399 162291284 1067107104 249680017 211397475 1028840115 266867675 1047515228 526900323 473369543 555309410 348530842 556666764 900618260 401214325 244051811 75948409 323884094 574482112 317587753 989537008 762109550 758853339 676325518 844161362 192466539 492339473 604103106 1013693858 758815195 604197339 38696722 703989976 942685169 889127463 411586405 827671776 471229889 346598888 732377409 277405120 1006802918 306450721 484440241 121637394 1028771561 909459390 353390407 496781825 694368866 312353019 50111783 1040269540 904125660 388603646 809708459 610140661 676193203 900382068 190403801 663910212 1022504145 851212654 1029359190 687656259 26886488 992159694 223401919 394808151 828421205 1006761722 74937708 177538412 307810294 497088089 239673240 669715811 171625874 400381826 229506273 646881314 297158987 446060706 875720156 1034909634 656759433 855296589 85638659 823335165 1064323047 409216925 763604020 312022307 387828404 232255645 903710263 975267069 940216894 451864989 177850218 141337984 872117827 387926146 122262026 141045228 699656912 334290860 624018321 16142607 679552445 778563977 862114635 514856675 87141877 126399883 326820240 235446821 400187831 442033082 897958219 933030250 351563080 203520351 412131423 345620348 526597576 322651005 1281035 918513675 406396857 818020374 1041656026 514694492 891675080 409188315 348349442 350210870 355414773 262498680 687797598 361956181 1033036971 273480327 148266969 508149715 432670379 797304057 803164764 37140018 842437699 796089448 669021324 475633093 565206036 456828753 51450581 403085560 1043916510 507435413 720634725 465640547 615086025 260623138 779812512 748788055 737901182 624851602 180253328 622293580 245731093 447744555 960787447 882205401 243553178 286719165 153205743 74074853 664900432 595497615 444786159 677455468 214692789 714464844 187002086 423978753 1014125776 188700260 700650166 942193923 545021537 248626715 381999388 565716672 292150416 411735696 296680472 1026115502 566023271 111007251 806150773 54412635 327115127 878936431 237318370 529509262 597531463 228872654 1000675125 116439616 6886149 105898519 615209891 981316281 88863741 760737879 958778797 293237677 1056616479 96195116 568768378 839680147 46837315 973975039 899835489 649329242 555766460 382707766 990269671 628403692 965247870 816224138 460731140 184878609 1036722222 1073341028 87827832 989105002 341668948 919786721 707070635 164346418 974827753 481439020 70736629 464526598 309566676 291555212 67291933 272530071 668183200 352245130 749129912 971951212 12658546 587853085 436980951 363138489 373830065 478764498 507565825 126835928 85101976 775160542 308554237 777625073 42072371 946788152 22557560 68308750 359198667 349665306 992444327 634763418 868599561 639812240 498311344 35343099 359340618 239882822 254006920 580786824 511772964 680978647 603402218 136216783 1057028396 397589054 464385169 686725155 500222020 294783700 312938157 15574991 109981804 995189687 596613608 443437736 685049437 290960320 1050670525 120446459 756606237 1055893270 198326683 193017182 223455306 674000088 263251630 71627180 39726205 682003247 386396111 979546829 856040053 555711540 488792055 770734932 241593172 104123259 749267670 1051150508 1068629292 25609137 402583820 1022016410 822792968 740613200 594827529 423459387 962953308 356171732 1033701830 698478854 166269081 200879335 891562031 907917145 711576895 1069292339 31043779 767632418 509199120 387222207 830447745 619889219 860520822 254687391 983512955 900125133 571365379 108609782 1003554540 392289388 323032917 776262708 678203808 300486601 902729681 780555903 514979427 549593403 876641720 223528072 566322187 327775663 514549621 260867665 167874412 344608713 737168809 389238830 743223688 953202485 369491770 264853599 48669278 54204950 646063488 704214011 1071147667 847993044 611029640 162989143 556421129 336353158 744519553 49025456 327816637 657979070 1060313728 773898630 967104105 474550108 339312747 55995053 490393029 23135777 737998156 710436215 488947216 914228175 706389141 299235572 1018823605 674586004 606383843 688147215 885948836 276099038 1041702097 120758969 213346826 214723805 478832276 663959328 241056019 382975017 1058024166 598359679 527360283 106728784 757673979 633629837 68758337 385685433 994849124 560728223 897976032 775548206 864023524 840691819 658453774 438390318 317699927 298250659 949012140 540911579 486169107 607759476 573313461 653150930 987002663 1007476546 252718427 844343399 118362561 29671772 712709127 640744953 365746444 646516472 127729970 824386622 258403840 724577296 594291417 507672145 630150368 600768344 856953582 39292615 153673777 945325372 515851728 536938674 143102524 96903798 868578919 543623787 26599126 608702590 918055638 685645159 1010880724 723358891 135924843 656674532 796766986 571100607 231210939 1049198296 570413340 659541408 378536583 161095982 794046768 456177601 573710962 861811154 372001067 417623621 492697459 634771059 337340569 155720269 319252566 147130045 1001789081 267785668 819837204 980549855 1069332833 983289749 433119606 604628716 13385340 77033937 213660844 494570287 18422851 569990706 216429959 1016327974 177324159 890355356 1950256 945167770 1018559946 265514311 66671633 536888471 259431236 435756097 176341183 253673558 644543534 203451386 100355076 52976850 907080305 680248271 295207195 370369352 859869042 704273041 22532484 143434541 56420324 989608149 473253800 553204454 1016152267 913798797 917972525 118891290 812153512 930395054 12954896 685326776 352361613 1062388722 136675814 822827045 75630165 1015540726 320866952 346806964 783509496 525506418 121764936 878092199 672011095 1001074083 867619766 922376961 812217347 452936435 307538025 905559057 229251185 416612595 956335887 711723334 794562013 685941993 370241705 149757917 1053939927 780564232 988342314 276176867 794699296 897069388 977843909 744769862 347698817 80849923 105663657 457597145 436770604 388950715 342925500 701399561 638867820 413233195 915148579 932701543 922069473 699144713 640152507 962218723 143242190 689568234 602719 839098516 574422041 74902992 811794854 988257144 477346463 825777777 935589462 256299620 78489218 970461131 246714997 405097438 737900906 824724607 108678792 610087851 999642198 968306273 976702567 875370948 849705075 70133556 582743241 70620299 93415953 387192163 101649963 891581613 638082760 637024364 809782165 378857020 30908036 14543299 415216463 584658798 950121641 464771806 984096562 266611186 430311429 56365578 169896452 855062013 517381898 576751473 911585991 362803991 378412266 269865881 880803132 954968206 523319349 785226580 516153289 954491362 238997182 679583532 698866372 231376097 450897556 261543264 667697762 513486838 144762093 190508012 764705806 571857440 480390909 777268428 32555321 303333553 346150430 93579656 863948489 176650058 64637759 717629285 684890909 41617918 424730138 316516535 452471376 411972706 977439834 21620829 7997798 188931860 114232123 593094691 637003485 631342879 169611700 291452590 875133092 653227386 680286379 616250109 539836786 219395725 467290795 191875760 560757197 404454973 365928520 907318019 239723935 391273954 854934383 929550540 298863934 764418719 602098536 491224052 152233801 528854089 1043880072 943121800 124066741 338144122 369285331 1047164213 1004787538 434533099 1073277124 947825147 29152546 800096073 97414441 242014710 707309585 223527609 760723135 483699422 994878140 853563618 467428380 1005351116 497238047 317665604 348156753 585790375 158010154 984148963 991909466 1051826698 813121110 627109514 934358143 1069652169 783031563 490981543 595406366 570791530 16982322 888238877 508372292 874578851 902317146 443553749 216112967 400752708 188035005 308282023 220277389 853756841 873658016 1029169814 250808873 400446320 218741486 96660591 47068417 173344617 626037683 756206553 489359499 153994876 574221238 383476302 99820602 566988501 28939226 860903493 461962027 750205909 127051631 567459913 970170409 597204241 1067113082 1068624217 424943328 83437020 638865537 1053016556 604223226 229554599 174490358 374494892 821722150 957109328 386506983 776758773 1056417218 837697759 591040442 431397227 76400513 30363272 29963644 926641150 447428540 796365066 35768064 699068468 300834057 552150782 352972654 616712002 883651745 964725694 117270650 928197738 995523820 908602158 186159433 310541302 98605230 324001446 383232448 740190542 1000306071 829229292 825935181 840244740 716048431 497154994 819853056 232475730 661574246 143577947 767960985 982454235 837653157 102649629 428580576 101157799 327626224 785029028 179426871 582900027 389814459 9881773 502964193 318696644 702247775 767032849 1005139011 268931188 540700402 1068337855 381530923 122386365 237849367 825220076 201177820 956503719 371472207 637984397 335903673 245570004 339415792 174890030 414361782 883901812 409354516 282518011 893800745 254962923 372885364 420173215 425716936 540125810 418332791 427724146 228448180 834707061 784487890 34485457 216261010 287544025 975276968 105113635 255791109 807857200 1060493453 694791871 1016496721 1550948 789861904 124654912 967489499 690560986 515812223 535454906 735771191 328307938 178657720 752821408 462099741 1060064843 602156223 401289250 173926392 446185484 258403899 211056682 547400376 1040447077 551974491 338630215 1039086347 843470619 1090392 900489752 458669396 843308372 497725318 336510955 647101741 16929251 68995214 380796553 35714443 641312807 373639431 73264341 499917581 4220363 657704479 661327559 508040575 791402607 1049630064 758883216 66738681 876946578 673116959 67626082 934242081 323781831 582154901 195731869 722342748 124772863 731189739 866483393 191079924 275704465 310182713 179816483 622269639 723747489 231563263 456268183 880731011 460905476 454241779 350669164 709155630 650405480 688537287 721711628 377446726 839825116 1042882296 1051692240 925285632 364943816 476486205 472132265 881307653 95057740 119902952 934894292 573111834 1038739007 284048298 865576051 753613181 360919959 837266067 419464634 939823777 351897071 240617566 514857221 637531481 100899508 313540595 630996814 438375785 533148930 344308836 503235095 283921981 923107536 511008635 186720238 566992139 684686689 759871553 24932361 814726856 739312791 706174576 915617682 946852434 21373309 258773739] modulus: 1073651713
