modulus: 1073184769
n: 8192
answer:
[501379633 539555554 50764007 997043218 524199578 598599802 776749253 37286618 674194364 255702613 469783412 706389727 656831458 756930794 724074457 995521742 34965547 907837865 372282773 737849983 984897797 656942494 336628885 766385939 496374636 584220465 342993146 319801142 1009311882 861404418 154218756 422705778 168846943 864147710 507874919 949088869 764975182 147741735 436138018 347525430 730172155 218333202 671374722 126382591 51736053 270773785 1008455662 538792447 16286611 491687237 319075027 251798427 249373924 286172890 282278277 884066475 933736682 949935168 492999043 309417247 551397674 186996151 1019453371 285192248 822480105 161320162 943013505 129961820 673144431 941959988 848961423 914447408 762374723 501396153 731677081 691419605 225347855 425765904 263951174 304685110 526813552 653838737 860964449 643771842 687230461 441777066 597576013 938139855 483271420 418357032 899288857 1005194422 312180251 343399667 720354858 227136771 485870471 25024240 928624437 121359094 622588544 523553753 477251447 629916359 1029318025 153553549 494011856 981083708 634735929 414278271 822821439 87269214 220249017 259666556 978380009 113354850 84172774 660828528 494188017 236484115 448917986 223180199 607986734 395233622 695003839 436518195 926001639 712815591 558833034 1008963950 300187014 178510147 1006006903 246791136 30866617 766847505 485369029 360334600 896625384 876232578 1056799577 460534604 206983612 137058891 335540133 210344432 506727116 222276003 1016374109 268478137 705851307 985180403 689072939 115964638 935045009 591719896 87108687 389328935 891006756 894725644 375195161 1070054240 104007416 419839922 1658864 857351374 736722962 1000756284 957077308 956608221 977878878 886503439 957005254 995377535 131616766 722367077 502520392 1006174534 704927292 579246302 395192031 521419774 10827555 111281438 566758462 994679338 621815053 257122815 482053439 73734417 1039615819 448628941 779589335 613969572 253749678 224230344 837327638 450681854 166241166 1011506189 335175875 968396174 902763662 282005798 130714849 949330189 276611405 256110115 196947898 99856641 1069413162 43236913 543085095 42351717 1011884342 1069086523 306486052 652493125 834690678 558137505 252971463 211771772 112509344 971954922 386692973 489022789 150400376 814461485 340577173 1008440467 4713014 793224984 567636829 379988188 426476431 816321654 1059836005 769116795 804205089 835962422 744529690 442055139 900393048 1017461052 482977196 631664586 264053899 35136582 249009764 870362789 901857273 595771742 987927311 720598117 707445272 948112692 1027601673 456752757 717064940 763406081 852876072 166657157 509020226 597681167 435176462 436781737 1029719676 27589925 206875018 138133252 726849715 155439222 321509658 579834492 939115295 52538501 235313744 114724785 68325671 684967277 966639499 497934362 56061001 477971966 808824234 400069979 950772887 785786608 514175072 3473061 267188706 860962190 448768891 665953092 795345280 501838208 895846834 84440478 883536647 452608776 803632472 295935408 321674704 167603771 997774988 295998744 137213812 459325940 233087925 862185427 844438092 512827849 450985812 456697723 167250648 90209239 654815321 98957275 473786613 715116100 218165476 527793765 243461212 498073675 584849321 114051365 1019660960 105820820 1002754990 307171243 400856379 240571980 545038072 50170734 81689840 639082674 715322012 450180661 278652232 967154713 596666284 364594893 747911027 386139668 1069346214 119627000 894757291 458169463 957462464 949581793 105985289 242358989 303688665 716630560 166681839 222994853 357845143 762501679 618062623 376264946 1764894 317179564 101540448 332441758 1031053084 350525618 150330895 540416663 142357671 701002512 500750519 218033910 788326835 296894852 656589110 43427794 20082634 950010691 116738388 1011210399 389394776 705889104 269587372 813878231 367110272 342672767 812133626 134264121 392559706 458328565 658701093 99129574 569871740 6308773 439125748 159454587 516598814 390617261 155848216 50052570 653648528 6217041 355575779 79378650 305711261 626258187 38661439 458323853 176220668 249332124 8174543 187976572 742965810 439376613 884300389 48089607 997167512 1024168327 418352176 461831410 108632812 576331005 130307179 670574678 550763539 693810302 1449582 1067432625 695529028 902035931 560157670 576149102 748911733 580360066 448925678 25121500 796606617 918865685 525109320 659603200 110317671 415718626 637192030 920560827 371856660 747066342 243442270 629658516 995653135 102755577 618215448 625839483 954915452 340880637 855220026 1045039351 916152111 851835200 950385685 292707072 541797945 323418326 544327170 87489152 772213496 353537211 190637157 963699875 290604847 692739800 970109408 373104205 163144141 774614615 483676352 780147721 350647355 1021433385 814315656 640557027 697107656 1034112193 990079684 462740882 979014707 319337614 500992435 543662914 509598618 299887316 258771060 544669588 855452724 1053306774 510435437 544868500 1042272937 377196112 422865212 594418832 104885664 278297013 243030803 16142189 290735745 133648702 1005847220 81553166 572708217 990332313 575722319 1032641932 68833471 1039791403 495844980 560428983 765444617 869740214 799507496 346072646 88294694 234940462 638806380 854267701 332049562 623727310 525269741 322611015 532402848 625912106 753783240 56919052 328791665 339114116 528359774 909114048 720527464 827229694 576369302 655570034 667978254 183101452 128499081 1029351849 110090527 519398597 453096427 413015904 903863149 21925536 286881818 724461254 666485917 632577589 128540375 418133484 871762618 237811003 24892835 512477386 1011776440 110018495 57320322 407166003 155166343 573564434 853015492 5948000 437912929 932426153 690314382 898839889 657458194 380034261 747926336 718213291 72844263 471651639 850145912 613025707 127393735 840530869 972333234 57467508 720323749 1033005237 954576803 741343772 439545291 201960042 482836535 549239790 932479862 700862296 290400273 711888174 579431701 1036676403 554114422 1054266503 885601583 659092347 1028329772 109726033 986963642 583452346 230345875 98926348 371191235 304184106 823421222 903696938 326892625 461220040 194124919 94382896 46212356 227707203 558147529 323300042 932385842 1073095171 1007088108 647382178 956807710 735136060 934476640 37692358 903772032 851487482 1000133458 408328013 635480924 310671790 1024361256 509146285 617611937 877958694 1052032887 838216533 564239247 865516854 680317110 394372101 412919257 1035545714 32123499 478092550 270737567 887318183 261186624 1033246093 675193780 6268418 217164182 995527964 524238236 40765960 103840908 557593608 445956239 610450662 889044633 443680219 655909994 316187086 560105229 855016362 47437423 138578456 556353656 412101593 574698393 423045359 207295243 573388698 714633949 24849216 342728550 468055907 221930693 270683682 677061585 4347627 654106591 900837192 527453188 668119050 1060199071 318915763 973502271 972487534 420455839 550997347 1063119575 772350871 770221209 559384593 376534447 498156204 487103600 913282213 1009116485 671067578 53491800 387217119 1004507843 751176277 672927279 82977616 722434385 550602889 646099831 155633975 891613427 1010289552 910600009 303000374 753691824 957091026 601887920 549775271 984594264 621039061 468794230 620891412 243639755 38544290 506107178 731925250 615649200 360321752 439183128 889118773 793806012 89415525 167655364 834038241 477407874 329251193 1034978584 648106129 1019277677 320225653 89210848 1008680963 690157986 795595857 656662635 415454443 540874825 545630321 412138814 443922100 672571649 458722245 561545608 377202392 735607058 804941538 65704630 959719982 687136049 139443409 511974240 1007838182 312500720 271411114 997909800 850589459 464829481 71966747 209015071 805472455 836403247 518478732 438804380 987255961 785151882 159236541 486856397 979882894 138661940 573249274 540475266 393245461 249955046 288838751 560526474 956741238 1000305642 797924383 1021449882 425047555 269414813 659186455 986889473 870091996 916539241 671648238 679200582 1022328182 141080029 980258596 803232479 767489502 4955819 497398046 781601233 220998545 181359398 924998707 630145446 931226087 438010453 597268920 966766225 888234073 964742362 373330326 744046024 454985419 585758770 883729993 1064590003 60727322 783040751 862058814 221381410 927557562 1059446217 326293188 135794704 965280700 881474208 757459592 427660333 496823347 217229568 394826546 769973351 1028217320 345577892 637079791 681240005 401630490 502058661 297832338 411569075 401373105 401015619 1040025666 645810966 875560004 891411030 343160167 435197404 274909525 229786074 208658874 97737426 783584594 321267608 204665128 971261341 707398333 868509859 212925715 31572920 249130830 233943065 420518680 990485750 331418922 649495255 911685381 360303313 513760153 156220754 810803314 395074284 624372720 1019963485 930917126 316632712 986833544 715074592 475913448 265542936 123566681 879638055 322712346 391761709 560304402 112319367 483851667 738481737 391638918 439319708 984225343 276007254 555664007 392771521 451067362 571844902 800537172 442070729 899498147 619075648 260633514 745175443 306388803 709773256 711674980 958896353 621517156 405974741 644903552 842021096 647914843 469623159 886072943 838593227 124064898 963636392 26041364 736586500 964381435 407342962 713521018 704273154 781497950 101329577 828713736 491666990 64035997 252359148 952824662 652882757 988358599 604874754 246181953 511011481 644894647 237839175 355089286 303662290 896430918 944145126 1054510695 32397814 1004685571 67461850 250198510 24688787 125385162 85569244 784659158 599177964 888392032 896762541 638615172 520316750 641422925 1003898762 259404978 859689124 628810919 315341759 1029271557 972314897 337576500 509617372 465076839 523376576 513931816 841025641 1004102996 847592232 158118270 884069291 293341493 721568713 229168797 979016353 824926614 898687035 583934579 1036397947 1058469165 1020692821 412500022 397015068 132208745 683253683 587948074 783109703 887346886 520942286 395611406 590117259 130132662 116801082 236501311 972947653 351583322 195409492 235520716 2879914 445200298 4875976 338598113 785253660 1057700308 162707524 934103766 637658807 346199850 12524123 902177166 830593894 743015752 745314434 151643650 3701656 501000338 992604044 968724461 237665268 522202787 1053797606 376405122 861293293 473974075 743074161 625194494 1842681 868701818 194585876 622015294 937022667 413722172 403260967 584359358 126820102 641962167 758088130 1008221556 233626457 132617641 121256770 1050591871 2279514 629723926 21850038 162967046 828512973 647619027 216992187 772351333 110499596 402165087 454220655 910571821 78998776 527763390 9836486 151180606 1009752308 314701149 858462795 774566948 99659205 256257836 7720299 603824564 876489758 113672081 681119048 655088685 2978750 713950264 174681535 758329573 37605316 272172872 634392667 332831182 63404511 152520193 839710176 288435419 450411585 1018541973 393100465 437270295 631528543 453782023 647606387 625938664 151681516 592028580 303594602 313568117 1057945113 544782727 779467166 617929019 795182427 47327533 368225543 389637843 817021050 448620048 51155167 429123667 338837454 1041031684 868913744 668129612 31752698 422585462 123694680 609126551 212396337 715214712 678094700 439422865 444686547 811493476 167727773 621447939 630079714 269181818 1067392475 995808166 977499853 610123894 444937192 54759183 648912778 184394604 1015402036 463696530 369809654 200153891 238743431 195858508 877380627 850647343 781293463 705856400 653765917 92488789 848973530 621848694 802997865 909361258 785355200 499813005 222992032 693271076 346082005 324409184 144584869 893584700 255174267 1030183552 223471913 982172737 171631243 883955340 480273003 453886776 938417060 267174160 149122813 975120169 123589152 201785755 458749030 218862189 878988813 353830774 350725496 733818772 826566680 882884792 1067283314 713157259 302484587 161076983 165168133 660778376 527961309 133474325 210161884 277929856 28357190 609742016 1017801566 196262404 1063623678 91986612 564407252 258015478 1070096910 741796463 997794662 669257529 694070279 455935017 410286708 562350192 47001236 210587049 533611189 51336701 994321872 158030573 501262354 597221297 1066651163 916332904 641595991 906531264 719311851 790747855 824861769 339823724 591253649 597859763 370175687 948921529 365834404 881566061 14483274 219073263 471927274 796040954 175188245 944605430 3376516 151616543 243294143 122232841 842245706 402258646 911350831 26154484 581580417 175299900 466950367 590921224 676920419 196989097 849451877 687107039 1030308268 136041719 905986584 64057241 676780567 848133511 170709344 690296671 358168524 287924400 221582050 26666076 313311104 924317711 820127744 327860607 874424095 403611273 745199035 696023595 777310767 7690521 885069994 1055960675 326324539 726067935 1006967105 579749606 335237469 754707889 707639344 478287211 902495608 226784044 721876819 663728226 941902288 116786451 873090162 209432459 599218414 146982970 887036308 998944000 109263551 248887901 226561837 81280500 621090530 262944450 216471884 935002640 499665066 209135794 966853628 722507780 1038399421 1008225166 1028615678 295355427 498761483 1022543040 682460338 964001189 766800856 336365825 844579000 153770497 763552794 25773301 943193237 98260967 999673636 22647144 903329660 1030312153 479790460 201090553 954413787 345853216 529809516 855227119 948996804 842616498 399273851 218222950 648814137 730906558 375129072 112886713 869113051 804644580 1028126244 607788502 74107370 177943442 406386268 629886860 732485576 812062124 446865151 1002068364 1060788428 1032716471 88989349 120830403 234540517 193029141 962787417 1024572212 855743125 595108104 105135097 924788259 1061999925 494525917 571467798 202325423 438555803 186416353 389269290 976270879 764189745 461178218 223396557 120449560 1025297569 135785454 344939238 927661447 332582700 701238830 1020825359 352863878 1060434515 773627084 910385582 601710819 655158713 534303528 592415060 86007147 1005461170 959814806 698931258 300583096 691572549 276319396 729948285 238777889 252550631 365217811 669060704 364097917 586064002 997678819 240729533 253203215 667658183 200942006 885708289 441982740 711243822 599688360 684640448 984475676 269784052 164737404 962526433 517750535 1015455269 712602574 409985955 832305347 423970797 82464971 164448018 612427512 648651802 752994009 391700720 449525187 683936254 265209639 253888434 701378739 246589457 1033626499 833999870 393417968 428491660 670017392 927058683 863911059 306742143 556560298 367857183 412225217 546545143 939472378 994816201 20781842 119058182 135038911 1064843871 939054230 73677801 1016758793 1007571142 481181235 187570101 268895747 850324608 598542262 978288511 535646854 663100638 891942509 770558093 599228504 299059585 449352079 31979365 497774463 400859960 220707554 449326423 503526286 683999808 1051838807 421148149 336729993 932145187 537850588 525025927 689353076 944899465 437475095 96011678 392769570 248978146 583769709 198029903 303369909 1057604587 872652783 416433094 680991467 229799938 328845709 191486288 439422631 62367870 397248542 1002235269 940231503 198881931 964424198 365274383 767190551 249527815 1068003654 668600015 731051397 81867189 176757358 151169312 496470511 1039342493 593997480 241132856 518218888 764221361 265879808 394526663 83823639 848834148 260731380 826675255 201784811 58242614 109786142 111019740 1010080967 467797662 138935486 282689987 173837743 649259877 314346618 396892106 674427983 488541394 416962087 206054321 801994824 380500588 302269863 627907776 1044199000 954701739 403946307 488585621 301624451 39884434 1044218758 1046363384 713942924 593500105 388015730 785706 93610503 693901203 283593890 420210521 219133889 568277268 345378759 1050923904 905080328 276115021 443121445 1043405367 1012600348 892354122 911876889 117347358 339196967 9427788 458083361 511241149 557416681 581735110 596651052 694044029 895129350 701612153 993709779 569308461 740231956 154454636 831866003 324808644 210636934 429877135 519364945 826369368 292104065 966432562 420552386 447868009 981003231 380701677 419855486 212149605 796941955 1011092174 203929800 930090227 272215567 899447086 672408644 788301025 508766103 703321110 562304060 294252376 1061206778 352315884 811645892 84166710 907588667 221215965 598757011 246510498 718706567 59075339 781998056 577336928 697024781 908011029 215062896 992681014 748334091 486303008 875542132 93706651 180400255 800280294 732943771 220851689 825786280 1046306198 553180897 413272553 192300616 896640377 919084789 856626784 146218237 1041882081 324941183 255333308 358551705 1048169251 317220806 966268119 756170031 739161195 1048694638 620027234 673408439 126274070 972306097 463285789 652323373 715624482 816622577 885823675 227399747 453511462 660687753 1011295925 894245360 578511989 978851584 765616542 789401944 314699286 913916423 421992772 61051509 371201595 229133087 954329713 1041714267 469858861 175023593 587056031 969752852 790878418 22389418 178834308 1059308919 179153514 168847295 217902502 576684335 742175842 166899735 280917663 597514006 59145904 164244225 876841516 255744274 893657041 31517344 1061713359 274985428 843741141 349400448 961546246 789927807 449445803 97363486 382924319 210185942 435724085 306595034 855227946 1027206449 1036621143 629540570 1018783580 648178989 483918257 147127262 417063037 403569939 988739722 462494287 474732450 891155690 558964524 215957783 638481145 730707688 1025584016 513432828 273849137 475596407 393929246 620692502 930576524 835929926 794463002 882044029 649932993 554341777 432456086 208739000 104674486 490409470 440059413 267973414 558765548 83160802 622521572 216547911 514974626 202580999 48471148 771876323 1064774872 449923155 978497268 886427448 273314746 855720737 572720075 789281450 436934883 528826159 537331423 356669244 917464195 492514838 1057064080 449628450 428745971 801233503 893139618 79522662 304947707 843972185 210818164 381099274 307733108 858526342 784903 395460119 453513871 413971644 276595589 945333988 920839028 437911404 522354390 143162830 147103449 91276816 159183131 967474190 629987905 648267708 400365942 566083781 899986269 1002181356 963316224 1067860439 841304165 339506716 896790376 771330950 50386993 1011618434 466927997 184847339 68743974 731019273 530065324 573336231 936175551 658815068 116268856 140095234 488473254 733919514 463490431 788110979 688360144 1069135452 40754837 735444028 105177818 764786656 226718985 869518793 1039177887 828471510 892515312 582962685 271335828 322755037 84154220 984218573 82419580 600100295 854507289 566166880 910186524 510174006 653801220 207885680 576812927 964784604 770899897 674794445 370925901 598782083 687415829 588252127 641037546 404143384 274847198 287376928 554350552 902666237 385408799 201647402 141805869 976944409 483342579 207418613 852816186 184949105 752183975 72049866 799196386 121965745 896998820 377212783 720711956 673235261 694585122 263128710 170764845 392118522 922219608 345817408 858787373 591438406 138236939 288194303 752063164 467866814 1056751689 373799026 214498211 1004595188 723949925 31108623 991098803 401127321 112670098 677944215 1022660097 215183271 267475020 728323860 639226946 31554944 682627704 119031955 821195145 372256691 957476533 848130959 238501809 194178599 131037662 65089314 514293566 1047253960 898636434 841635579 267133850 246397448 825225676 523055317 652503055 934233620 749089466 927800931 989623764 888111482 359804425 93382594 100081765 545635754 412103673 617086756 77046516 1013675037 863806023 46133423 371772373 290176112 994174500 723145595 1004192399 390013009 960138967 927525641 413424688 860899406 776219900 671962704 98291259 839318290 567566851 283669349 425597236 397251124 585496041 441134847 546540456 888271733 561521801 817455217 73133514 199478799 349391619 717404335 939964073 833432254 926116275 149044145 180340313 729433516 67668122 696953855 915100494 105455026 240415755 219796569 994870204 495664883 1047510375 1006536776 1051359504 850973880 717401966 801725160 989759995 627294090 784237776 314651516 133114286 404923369 750257827 437566901 778377444 35724490 960775222 434368827 909295902 755735345 238265797 671111087 853244415 714989639 110456653 376481133 848561306 744283341 564511572 648174616 88263444 574398668 991194031 86844315 693811088 577104443 1000166482 859537685 722516390 730384958 769080109 35787647 240656715 10912858 398082705 228770027 246686243 843296519 807972162 850015115 855733098 423099066 22056670 205772211 58713440 734282689 610368841 777078256 1040193112 404388819 655417155 387268836 38925796 245035558 314464756 771441414 649368103 530268005 63144533 532091129 749254462 731256459 1038773909 181724853 227061850 141777812 684444229 734206749 344654730 977239483 654608520 678598513 761846465 989684943 140231037 650754600 585141034 64365518 458090818 99620283 784215386 440416620 33505050 751047926 941987672 338525978 645104225 165540125 203868439 95396402 423945703 967649559 849169382 787508102 326851900 244397609 574329123 75337214 681904272 695486920 794849392 760271447 871629685 157179058 310242644 337600305 946530898 852025161 46034508 963071825 154679746 714685764 418333365 632511625 798876961 453521545 90229355 304455546 293980624 811640953 1036821390 659897727 424250930 244576835 409381494 126800023 776735206 991585238 1018493944 879135512 794680660 288429525 921180394 733900577 381695086 479360151 415159885 1391513 223955230 243962824 483781730 38032217 717162680 333857383 51179932 951152268 433429178 360128594 1060210643 635285908 562202453 298181356 818193931 428802982 675628626 537792600 912888164 723705294 806555160 871039771 749016070 296175056 1016186076 511165810 301540621 26868160 205870965 851529485 318670470 1063177402 209369625 408410135 162910434 620544181 214765718 905337389 761724558 916859109 197192536 848093507 805133389 223551739 633251821 924585089 640495388 585580348 233859897 668487790 115640673 942256155 151240670 182900924 585569584 163506266 1032212854 226956900 379608571 925312599 763894015 799359201 52762281 606767743 208615390 66552014 889924352 776720201 833061876 943554601 586479319 839726494 685393794 369050069 256460985 992723724 468495819 600774422 725838604 445440786 604511175 15326024 968860919 387344632 765986477 36026155 91492088 460535062 804068055 358846304 726721297 273161370 38254117 34351598 837201819 60863682 734244157 756443161 726099600 838904056 1052141005 1060937012 228888923 178238481 859407054 900151648 360843534 842645634 899430331 834570845 426930987 282584576 377710567 52587288 296718764 357663461 636910411 602190763 219682794 413962152 996634103 42315577 639404881 651621283 107709779 209281361 52436355 157838550 1001296294 119094193 594025690 478145275 191499110 44885291 167663381 121266811 1012119367 928531251 688626103 813556821 1049490468 228064469 328655918 591112955 249113447 258348675 717828364 695367500 212833954 728051587 801736292 400891778 677661038 378392553 590997653 889927989 42806167 168821690 865965700 424798064 138229098 465663282 675232623 180449496 427653685 973259960 876604230 741278764 938715877 961473530 804939502 655396049 698456981 23895761 500029664 16374528 974149067 378706416 455739522 648023351 21480520 404453986 750137619 382535420 810554389 436906175 303985743 522068495 1050045605 415621558 549501607 12813131 748896937 239548930 266764741 777476070 459181496 1061949729 435294964 411107120 432560046 328185094 1026846219 606587751 372996371 279166526 275776373 758430890 238658665 288110628 1038420202 394329774 281369393 334259515 156057630 722533793 364628160 783530346 259073437 204534380 474133097 34601517 831683005 415413990 657674951 867646407 642540 690557933 386827088 588850259 773383785 881930293 544915610 103440750 433106789 124061938 65017083 1033514871 707196063 964590016 518104831 141895877 507516745 94245122 545766623 297590842 386960188 889593139 329862844 74379462 482364196 799138154 185363152 720185419 459489996 762236606 929700640 88164221 1007488940 75885020 1062192753 451013116 850241793 1024753563 260965547 352408752 620343966 650945668 488919949 239449406 1011531291 895691234 1061160678 336138372 832669198 812586994 872714666 121400239 16028510 476343710 23116915 56591060 635860118 186315846 224016291 218904939 199223628 870329185 808364209 346835472 427875691 525945985 768467690 426620486 661863258 979658226 915572668 929058679 612250981 490429498 1049934174 762634094 898840856 929560266 873402037 473843556 307427426 307662045 974575671 720112072 461192559 337163359 98403952 707628804 60232363 899159769 258740146 290188873 1045832493 1027353479 727715819 1012157346 513960089 357818010 793913330 105158333 834548718 464159968 363070656 37591897 244827321 32034004 557009444 11081393 682175021 368434856 38873882 906571159 763731969 13621443 731937449 348778614 795433815 774320600 806871146 376068862 1022321162 1012799264 965269277 1068274006 688922660 73091627 765388709 77619178 854440888 336164777 393872444 17799147 744643945 928146023 181919033 536409581 960975875 870490337 120297873 974571454 253788141 340690901 620551147 873228549 621860859 397327574 722702200 927227040 508099092 59590561 764083541 100709214 334500091 63498807 827481185 258329225 216009219 322883450 1065277485 464202188 867161419 706941096 415650508 1008748470 182022811 86711777 736914159 221253844 586942778 953896192 1071973487 886030255 468013341 377083394 202309571 960330052 936108508 445233591 249912356 930381013 552050767 439653917 896155151 760543436 709713530 743670999 56809216 224526537 32752670 267271150 1002683239 674715839 459651659 409574744 266248137 211736268 273425300 624773626 496047243 1009556151 298104620 1040930533 213640392 858597454 506836843 407599582 960302848 909947724 183767509 390271594 354416252 542710300 127783120 334355983 851070228 224960502 498470635 270682142 334495273 937797483 610896470 25031134 1037566634 558906461 956809832 102782344 913070129 377450059 500455775 951619943 828818017 738847722 511403129 736877132 327027698 425336702 818072064 134138281 525681045 409657356 953001128 948247328 777977739 708351728 783266539 338779729 369766384 80861968 218993802 450343642 109866216 77901621 7725300 925670319 312533130 975001753 902119164 700683098 11842317 48717891 48573201 83613459 851523912 117727412 32017092 1064846533 226447694 98942242 926844983 442338375 483171023 241585931 320610301 442655669 66879410 688903619 258435429 771620915 782367306 1034638866 30772959 148338773 759744865 740555774 907421280 74788742 192723965 603996263 136953106 895193331 306574986 150577288 637538599 81750116 91502165 213495034 566338161 923902179 352287038 649173261 988974732 534756163 482095545 489718943 818836238 478200653 970743373 228709441 221357673 250148050 659142065 414401091 842721415 906626558 853164185 9112537 236706187 548175397 431680477 839264097 103418137 301978157 853429160 390209054 800219471 338350344 1011087975 52418267 281913348 736760214 898243829 441473412 766512863 147076685 761488595 349007133 434337716 321061213 255492703 573506807 857489846 161730052 999864640 767040355 535810434 163728930 888500899 415701661 116701505 211690720 597559278 881261403 455187443 295189460 1028190229 11140513 118431419 730757245 439128025 879966920 267135239 733518748 783545943 417000818 557583920 456621557 572538942 455539803 972069483 870631044 696542196 608963106 184408725 320000776 831243992 386576373 603848420 228189563 627805937 126199757 541988262 488223413 658039003 448370471 257517670 874455928 356923463 992703043 403969638 323143960 873263735 600743420 869150451 678202454 989560375 1038645768 215788416 120061741 521539969 727840086 544009350 500363777 92477363 643225547 832090606 427784168 553091370 419409109 683728041 98255305 115268100 341950300 121115837 919929164 952881264 702855987 727764025 62290429 347342353 31070009 1012842507 992264617 1060864572 348509152 563451398 684511428 856974864 423191376 806684587 396134223 89179705 703321942 86579398 456879802 95956176 586880861 721623210 629823638 556839015 147745664 322129570 144117845 994647105 401546174 437745579 199577545 1016394683 61432951 34723569 526049617 700326435 112572167 731597534 1046866651 910726342 275425047 153343382 1013441576 465235238 275697594 440172965 177395962 645786455 427792304 847506989 201281822 864322513 636090999 496326575 396654176 100070056 540683863 821610476 179136537 226717724 668275389 126211077 985651528 973705087 822764478 1025056516 315638998 602913675 577289571 262622226 252002265 1071029258 171179388 95898081 192477238 1003830282 12034900 758781820 824471310 809119182 441217982 157250781 1413490 283547434 663022837 462626127 492707218 695612911 207601441 491610923 544631192 859834121 448831684 5033702 427820959 192770638 117369649 986536383 239967837 640567485 1005752776 7545842 620399057 459615825 533389182 342088978 172413483 267362905 713313802 1053989265 610692383 673936232 919021776 996489163 865015067 254059690 404063302 635174534 1012175578 904711321 53116005 179369349 848307226 651017052 42716583 428142235 356933309 136351556 34252886 800397578 407419356 692472705 123262221 956173292 699156149 93869804 890040822 465444431 478179010 234282984 347251439 1062897989 1067164498 96776891 486693613 139495567 657011989 870036129 971257553 801528858 151689657 644538208 306513509 267465830 159699130 861006304 327657939 885116678 470869747 383361613 141437515 580171748 45247492 531612010 773359592 318410779 905658232 842736304 267283665 225117430 807214417 782354994 715919293 608936397 386030436 111705886 65621443 339376515 1034792309 878423227 684363355 812819057 942661735 15379144 1072902611 602312364 485740868 163906260 1063896765 619535974 1011396604 290220409 408414995 18408856 350979571 57763181 133702700 115489919 8826064 462016453 653823122 868218467 400266588 513308931 278605272 668044660 75973428 1066258518 701932615 946890918 351736049 714113099 678465422 118680282 649979531 976853607 910694742 861275769 419217293 923841105 291153412 568315130 688890161 296050112 964849574 616596619 756398099 36111578 854556346 264976710 45118357 345041024 1027165594 210776934 138301321 199089275 785949870 225189638 358831278 677332904 556149268 338837954 434303998 58568419 479446831 803576027 1042126094 844769962 845832256 546204076 177255198 710069852 368984797 814868410 39079741 274123868 581735319 131255696 417377531 1049751401 503480229 147950365 115354686 730270725 525036633 1059994091 862516723 1054285481 902118861 702724541 259576990 791634294 818858068 484986022 485189745 814883506 432662325 503199893 777426191 420324672 128512027 928510238 16787981 842871041 958980573 628026262 607360625 734786621 747798265 951348666 414895893 672402750 1034188807 856032993 235533393 69183646 794463812 273976913 810762305 765571510 107706868 150853892 638255864 398574448 862251948 742070117 946860468 480506105 130534082 425442849 933139814 638815374 941653832 522062176 488436507 2389044 1034547859 262856363 201273270 962799397 128676786 712652220 684619171 215884395 162253040 621606937 653880531 716029176 86848981 628738022 542178649 422577927 340388172 843581495 905873928 314235293 682911328 215240056 1025908547 282808125 807714390 222216983 443143667 37456969 558816488 471789140 324581055 219636323 785455327 780520073 417455061 815924592 637125357 999563864 105268782 519543615 677262036 297988601 380246544 397386358 928043327 997298385 416311981 891937105 238263359 371973656 171288433 773652318 820015995 485599504 248491208 944311601 156416241 579010560 855557935 485496015 1056584617 562501914 325551711 613706020 421617809 869423156 59101789 171522135 673705059 1018659655 1055168578 557203643 99905698 455665931 929337686 173542049 875529190 1039840865 747715214 781500856 42100992 698630924 338824933 156586387 818149249 308148024 406832403 303571871 348671698 35411046 136007531 217705176 428177294 197770749 339661471 732151966 984891580 126019854 836674250 799453786 635020720 205169646 237565432 257685059 976658591 36479394 908170169 125869653 1062131753 690789166 276809264 31128389 790503409 497298220 285871126 823542577 425525505 974611278 16281059 132287801 77764165 910483953 577046687 349642349 384264767 358663830 485254158 454892844 991768019 747940440 33489135 207856639 835279857 772130495 588908919 690652311 129835351 652158634 655393224 583439183 992929582 719995241 368942255 78045192 375712151 80892617 590341795 49644603 635202117 672820525 615742130 153241964 64015771 881466138 378134373 583613940 460655394 78105593 687688048 620311114 395877647 243701283 293467469 1009020679 123580148 370083103 555256688 775378479 630558060 330571286 466692941 989191038 937443681 419285705 468196553 128062866 678783100 254804657 423691856 282103998 321581230 989100502 906444803 665871657 485504104 810705897 885912383 388070465 99507967 416600262 849325430 846535776 435753603 334396960 604450519 420554325 193485504 620096013 713123203 505637400 659599424 929188969 335519469 769010063 783197559 337205762 200849700 728623729 394783946 654901209 23093596 483715359 1045855753 48925683 764278056 760454347 398643116 385456679 346077263 968139268 970431791 479458760 464310411 1006418293 265017744 478930550 129882094 461472285 44377979 58526368 141344423 883677913 1031353988 389157185 586719773 886554237 71990840 805302607 848104341 516295138 910360147 129730505 548082743 370918412 365863310 1022055115 495052877 600530629 920213737 146547489 800154384 392874336 328533242 504030789 511314092 804906226 979089223 781707369 606515791 931283862 869615336 28996729 824529585 532974586 579668578 798851876 522603041 931585526 873214172 1044145410 333153775 365443332 297259697 164069739 992179184 430447313 365999825 769203709 118025366 206854864 500347753 619009946 1006201265 104439000 722137521 283928029 120825249 230033789 666748974 182160574 426029719 95016364 911685272 896847511 734102982 1049636767 385798928 113798926 562028874 712946655 358904188 460051702 442076339 771260584 910941587 426528659 883848811 984288970 491812994 276756242 513938379 469815087 127039022 234954346 267699731 579420657 5854038 777256357 497292716 911981571 272491084 727668332 52364966 280194013 743957513 624612681 204963469 75952851 910387968 970112034 605125844 159333290 919682094 553526562 156967215 1029861520 585368659 67433055 150606212 53665979 416418541 547868588 225868045 687798249 992226914 680200669 119477725 807598424 720111587 1984996 479020062 944227246 808760098 853979276 614327095 22576933 34117370 431730027 355305374 1022896462 278693470 583974543 292308294 72118530 241400503 658111364 635380371 8562096 401130554 960378988 354115566 500072833 907789268 112320061 534304504 354928025 165687237 118914407 370246469 859029038 258446508 1039851076 1048249871 688655439 381601601 671050584 29014062 122699028 697649910 14158725 131636232 852599843 1017394140 712980566 1010113004 840014661 21535643 843153511 973553393 1540185 163820074 854024192 1043914734 694021300 774488953 954682396 784633774 710330518 595969039 890663149 379279815 400623118 705690388 846144829 970057514 686980150 609561445 379701003 761847228 881281192 903230129 455352750 831790294 505593062 379556398 1007852860 820894973 88490405 756207532 658004035 208045394 471767697 880764509 6192755 385791728 519861859 225828443 729403127 130898290 872350510 672453452 245710585 151975438 1039165914 963870824 572692509 801376677 1045307982 176313305 322309626 840714089 115635699 441756645 991974605 97916946 213473321 841238207 449867794 262204376 781948814 215217186 555447788 230056444 300254453 343011939 348904136 198575615 1018505371 640515239 955987764 739833076 103076970 202473881 630109023 873396478 415963321 570121733 474421661 268014324 398155926 869803456 620405516 1007244119 485368432 516444641 861063932 800019453 771487433 306135537 273769490 262050283 756459736 235097335 33779 168628973 809036363 371028898 1007759120 46792511 498032809 823520084 629792277 301723051 403291268 168596339 556517797 786470807 336554065 346090037 742851511 55945472 418844117 809128542 835645606 663458620 48868213 37927764 463564863 69940388 122668914 39551427 1008385595 404548554 846454822 352565254 462223639 97097596 583928820 683419433 31112780 853283722 455317240 23594865 529417189 672820067 1023207337 109597511 549544603 572193234 485879850 450876165 201529311 982453032 187074311 554831350 1063377736 1036231888 261212525 1020324930 879057616 629090465 410732147 523120096 369771162 108904122 961830775 189704025 852774063 746097043 1002108900 871779791 604607834 680349874 689057536 776195083 76129336 457922869 259676026 792198131 750194279 919045222 438771482 561525423 418098104 328958819 349376293 770509893 1045875596 241586078 274203993 1043870972 588167165 762538821 286748665 948311652 103373415 628588457 281682911 97446263 722957257 1001963554 608041772 263011247 622196359 765857844 980810548 33916622 678145724 889099162 886764854 50144288 987227522 764481206 178407134 657733114 654747335 761361825 25581029 909008457 150577319 875469104 647771809 147046501 823305181 424779152 255537564 211441969 120905985 511180195 284094445 605096343 298200798 641194110 723531806 398819988 793237061 919956111 1045075949 668980229 409966936 412766578 53788394 7691032 848342572 531031519 502194169 962939938 737540827 448345523 424826318 940348002 756214592 200161369 139473190 371545988 674138236 246652250 319104898 369775187 377381909 817482275 821765327 86205786 369914609 404626236 402765081 464614207 409017560 157976189 424805753 844778288 694724463 1039019348 832475622 31453812 391144866 350684335 96468665 538460949 88321714 472924236 51695301 410142039 122106707 900681581 243333769 256687373 761375545 56808697 948086063 483505259 631298102 447552412 110879359 660860641 948756274 691515138 481034236 1007549458 937282905 263719021 834695660 175083262 793123489 996481318 519722336 471831363 968278888 894027825 555798959 872131737 675766415 969145689 635669027 6042368 85045001 148715177 183338726 1071794727 724548414 611652222 613895775 505980221 774244905 869253301 368832730 669474867 563397463 533770529 722545479 193499639 212582608 420667270 618557721 955135971 195414107 246868992 379089006 634291144 1012566693 123446351 31270304 998698219 760748759 1029509464 900453908 959566556 997159356 664094935 638263496 12930716 368710271 676667754 524852983 430496640 756103549 82282028 542430816 967789268 668461256 949042291 916603055 399961535 377875064 137835417 990043322 1059432851 196449497 973422205 429155115 472294844 1071808762 292761837 827986323 949886177 6491848 363101238 942857788 268176128 633486049 512418072 865559269 357339668 7789199 518411037 38426737 667295878 207383209 575897832 593977568 600875809 758324429 140095467 946406480 606793731 308877035 973264345 961490524 646305101 133433516 1008209034 875583105 901059277 324803317 912837183 648109951 399120202 681003549 237326163 183502910 718887050 404628797 393565001 898942356 694061492 922955672 565349587 753286162 161579083 588408289 392580215 701877181 55949012 1049203892 99449040 143256294 798546129 105146241 778825298 28938883 127840730 229176800 962705798 150360322 246202238 514586860 247687228 946391564 24561001 753996015 263191878 906385904 382605036 12296195 389928273 110564894 409354993 115811771 130581669 281463060 428703354 643248102 388615842 360416483 307384782 856155715 697675343 840906701 628741176 491943424 964953836 454107477 196428126 634832352 192770587 718904969 308707808 568314265 962678692 446411226 616112715 564632276 288555900 412260366 944073515 1036351997 184482620 187335653 280164199 805774874 155547587 897566463 559709300 834609610 830642267 254042078 648678174 126353238 425373795 38370479 877725039 48667667 377340698 85616429 330317845 609254634 117865639 379034447 242486519 469761686 854394628 567296631 308823673 463850505 319715643 329531618 692654030 666416842 185112112 87606458 18206797 990109952 459536233 716018676 461189691 76187729 534513916 956920970 392138152 374459951 841325009 134648829 417157189 815146429 837920701 318626531 736804471 78925120 553770147 272741642 92926955 663589158 284370094 508908213 849694489 86033015 476639749 993462629 837159823 780324849 426682220 482164309 717487811 233209740 27849557 208627701 901630754 644509752 1072116598 880072624 1020863191 13289699 172504249 308779386 288092552 145070785 49668001 338647727 940170359 60594622 748510189 831747325 745299595 357338570 219786885 826161662 520085006 960783866 982974781 96301733 443049119 895449219 252092411 349007438 97121570 157658307 14907107 282744557 755080461 84868420 58559350 472151455 915031700 888722274 650361777 395433029 637901391 559198962 702136356 336065198 280281838 968343011 465136703 280199911 980633160 782167713 103133250 152118336 774419528 1049113398 1070825816 157543973 449685096 988579173 236213357 412323298 235552654 1045511451 613376142 575807020 273525397 847685498 121916380 118873872 269548530 405300006 220327998 456120664 972839843 305741940 860133410 805199059 257266731 320003534 326788656 961662533 87493526 935461165 320665797 51401887 381397951 1018879753 1016009424 133764493 277054940 737711349 842114546 893721811 131637032 783738153 734544301 74659247 723122014 748482241 1069910992 77573528 122967384 700005988 373915677 211381891 597190148 504001673 931601644 500491104 583382749 607958496 724136826 303904985 160395918 248716601 79267924 4796937 722323026 549330444 853178923 120158676 116540117 783532830 118641553 120665370 16865064 892656462 293560899 470719894 38072266 797196404 525406469 444293889 322231747 107708637 1006760525 109839228 836808768 433431730 182111619 222672610 1010840474 1048305607 1044700723 897457563 609341689 870552494 644864958 834148437 850111966 803950686 285969605 727323225 820180542 191267869 251329640 259273676 866390844 1033052935 263291598 945451699 520545306 954851937 863725159 1051121773 352610678 559243712 728858151 336182438 127644770 679646802 815795071 563681817 23973582 566047692 429907157 278739533 689567123 18484139 70974516 1030238318 398122873 792145579 102578638 900064782 567232416 818612209 169939778 105477221 817652748 1031732370 1073098264 782178007 932792375 114376479 284682499 198626833 875867961 193058476 174705371 1036883300 642577376 787216812 153772602 92258368 427538235 816933316 384770956 366663665 187762819 729848082 976675734 845300659 71192104 353347873 1021307514 924854702 1011892344 226547579 215990676 860548407 699052029 89435772 819905434 806405893 1050552918 446119176 358890975 598909807 1024819080 582151332 8213836 623527723 844523139 1023597570 312965934 119872122 955858405 805627751 209946171 929763046 306883464 794050878 664689862 192651515 973941930 991187313 119095199 312880460 81764122 422062405 51178987 680915184 497872658 86556488 709156811 543167 229911158 1014704063 900029949 686693270 381170378 917128055 986855409 979895006 789588755 874334554 1061943888 849397190 777345090 870592935 629945272 198229681 291465086 848779285 27534658 325377938 344958763 414322803 491620368 674905540 938505483 994238357 165914504 84725802 299216208 839936858 607407383 685170095 670639940 869062312 1040157365 356721877 923748678 77959269 523635302 1013589426 139768694 906469021 440423207 64532719 795991770 914468807 104808539 275677228 538312701 290600572 415132513 929503319 934670062 529511344 926582569 441714543 586601389 1029213374 865425531 342983468 687581958 413942609 951640838 434387378 138694133 961865153 289588168 229310654 259372762 193540695 236943314 827309368 292738870 858660006 407520034 563200660 932324957 210401706 172642017 951792191 1013388847 243480720 120276429 915940140 562837584 535273692 766460392 284724134 833019650 516043110 533202198 916113537 898708168 344109723 847797572 909135315 267156029 1011746027 511323793 927608888 567192102 80446741 949854065 565648119 150938418 237126689 220085824 599882757 994217226 436682834 887209818 20997918 375262683 738343861 360619819 875314532 1067815151 873787383 529896733 1043467396 840976455 939751945 651975487 632633081 167196571 265234106 75333810 403706871 181381228 840570388 969625605 961024654 150082447 499715353 907868187 844526514 283769906 664381117 439711857 897634440 74262755 268083645 1051021883 879633500 252519663 146420245 713414886 542159386 787776695 276425999 1066376296 535990375 471259139 459920193 211425121 307738427 292168907 997674546 887969753 155903988 287232878 328702410 604467286 292456380 305780824 666563269 521016489 483892646 333311822 765886889 973963175 767694225 280105196 61162404 259780657 706773747 221362969 144102771 729171137 733012569 926610673 732777992 553818989 664032738 711853655 381514330 153791732 1030957563 753390108 637501472 344561866 191239436 199387477 598121764 1015827172 479642541 992764845 578903279 969689157 849713378 936615419 929903734 1065505956 301170021 305402099 525119865 756751381 728753542 173384029 359548980 96216122 298931252 389366918 119408726 995666937 99171723 711551360 633628491 38206642 152409625 339566542 533915205 524392721 317094877 423220402 696078341 449568457 1009836284 145967312 849804539 294782902 339052803 1013716886 32284345 124927001 532450242 422785620 814371302 579941325 917616627 211694670 507000589 972600292 788836991 577769428 2248894 659709917 702645164 418506388 492582686 736440459 882873098 759738500 600439099 240854217 78023960 467427011 430674846 672353907 381783945 240055965 512506550 281150716 658299640 222169782 157997473 76671797 372989917 13838159 679856554 549165216 25767944 299369084 734032881 390102864 807588237 1037171142 101919713 106809583 1059019831 49610259 240345448 324838871 1065817742 499359586 759641607 697731633 234884350 484299020 849720465 740457585 613170328 639669070 1012998318 320554944 905484839 901358474 139116431 680483289 284401962 316227052 754198855 918441539 407504620 525254784 759377615 224417482 253122236 803345959 370736725 1050701542 814015993 620314592 280411797 1038693448 75431510 602217592 78506804 238613185 413312432 624844168 268878268 122668889 704539617 271663157 517582730 976676372 752612916 402317473 554973157 156332596 895083694 354487237 890484589 109489070 963448041 830847436 564807737 601519649 285868254 960306437 498175873 985876042 360308013 511425387 28750609 794205128 1052815766 1008183311 706652172 488302012 90484451 455341621 399798644 183353708 247916843 689723783 700156535 1011191344 152093064 130754036 151885650 1032970433 925471417 1008917626 933008412 888771664 883145261 305191448 561942192 593677092 609688473 1009960322 184970005 930485710 146411433 836785113 452646135 313531139 90824505 259187724 593960240 86764002 209272293 225360687 521522352 906749283 842559842 283882923 631410307 882410594 490369192 421559164 355840571 1034774035 401459423 57444811 602036373 552908532 33717337 628857348 822800738 666891454 624200079 412122038 557574867 315280154 1068876585 968777635 1058736654 653851637 70929900 1065822014 834933688 316922954 900993115 762650855 914441230 299092068 1006266286 984948621 875594429 55880281 908590192 710004791 973265711 261585657 485330165 931018251 314297113 24653192 533669031 1041688370 77170716 543156955 878422485 646373024 349297325 669324137 675203283 123321798 175418123 895516293 811965795 1011599259 910843992 543061939 649098817 288414051 793389524 755295844 845783945 650149801 562708717 26643206 479249402 715366104 343123143 157818235 192808878 962771589 537257373 288539013 429344710 848315680 567905598 79979123 504541394 840780889 668743026 972936371 49351356 32749214 323467786 395565776 885938950 1060779506 533628497 1031462903 409363402 508107080 990406544 568234374 627299843 737170525 461107852 7720524 98877243 940982251 411772826 844477880 134663799 713475137 924890175 1041040050 218250787 938893334 887553867 685410743 427067597 407814205 322464200 850446510 930878051 297012218 534424330 835191141 72415221 525241099 264419541 477257354 98002072 140647995 819984651 181027271 345819832 128231513 106126463 770483132 154150984 71834044 462351020 939558074 923348489 543389316 182739143 372223537 637720598 185419143 399900525 589837972 257035259 760619168 793338016 979786476 643031334 876680730 843946449 785334713 694745756 913547951 115909000 904934719 232939693 981366610 846925001 995452873 776148232 701012912 417834585 719372623 294988798 730298099 871847811 17454456 351923011 205525013 375807903 620737438 809188939 1022067623 321828388 71683586 382116582 714111685 731433189 642917560 91623997 865418536 363439670 1005022661 507821594 742873078 247273898 929598924 678228323 595649458 333337280 249199429 141950876 366776671 830185243 779593937 387860722 781550598 369347619 353199735 933039169 232474149 539894100 336903197 776276568 414442899 531146945 1054027127 781141580 539925842 202760547 143210208 359298942 475225900 406076982 817285554 530160769 379372067 838765458 529646304 21146057 955971381 347841373 254903073 390253337 102772911 681859751 414074157 256387015 781627646 421902190 976862080 753982653 862825296 648974206 204792752 648649465 73712925 120221770 304974689 1052882549 114235667 229183263 265671462 340418279 127107505 1000278174 480088949 82789549 128561557 55852614 138698489 587365935 327770620 7728871 587700770 433103990 590927 514565143 921768174 115891610 397758608 61190300 231449074 852941592 776389889 761319685 892325209 1021557855 300239233 951078341 698489320 489328200 591874121 467009747 17215118 206110576 236217189 927885606 238770999 384130564 138295690 1044460978 548468986 795496518 590941482 672455546 102990183 14971015 743149552 788505198 720964351 1041648604 997140723 709923418 559031808 298941832 507730040 916140310 473052460 508133721 467083190 473507498 149372954 564059763 198269647 541518155 1045655980 196072218 434552785 738849889 218253999 973744836 719215643 637071580 62948832 947696523 270357952 190953502 91483447 611193244 689128845 661938594 20016666 514922421 56506226 852210235 194067621 311751494 500226732 359536942 665659095 108637722 606482966 329034344 550511257 773459245 410008830 201746787 160739882 266464915 604746243 345256323 458895367 872140488 655412587 1058124347 698735541 1063169755 811771870 1007481170 265812728 934087855 1035991789 657677726 859707656 657420207 750936140 909714673 59504563 14303376 976939069 331882611 337611697 967337705 4480216 192381933 902913015 671119245 574102129 916676602 642502135 882319340 590674711 313414009 522180188 348712163 307056354 867574790 324639081 620762622 47258212 889787746 4331045 536545435 920608797 388628939 67755169 673355746 211976377 1019327130 375864150 1009622479 407049380 930063506 1002533538 484324908 271494376 98048918 860942469 633270238 185757783 1003912256 1009568289 925022614 48794314 800717333 353180251 101061563 17925759 903749192 614810062 293342239 217649845 990012610 409151187 476002135 344085657 128569699 797130843 147187878 184979709 883785445 261209705 355074421 783395279 76132925 360633638 1050062514 1016505209 1036783694 181386302 746177144 245359861 1839346 225758959 944481263 181890466 575662430 64920527 80675302 537223988 758721417 1499110 514446914 973223428 714448457 692357249 815221825 674751693 962510992 1045523288 412931367 895423698 730732569 933467489 582825691 473295727 539896857 1020058546 1046836126 630884366 655559526 1030380269 51650352 878763793 892609198 561385303 483430748 600036306 272919118 834076018 821346151 705609435 103561672 3393299 94854503 415424858 398471968 942129820 223292626 76716253 1056294181 431363951 835166169 857428345 13475970 431042098 913804703 1045917522 676086813 484830017 50365639 920726403 58823316 72146192 504358266 132901744 315792932 381008076 60220680 875275409 732569847 972190806 608174397 626355348 924902350 479381052 613177304 91555033 815606269 554223661 160308735 107378624 721185228 1003107886 677284177 304085854 1005410695 831799603 700591917 834644424 675055148 296856770 85462420 53163374 276750929 242890101 211604972 232861464 1053401262 285571852 951855586 1030736963 905924360 744423121 632501920 762595899 188564235 631989609 632798039 487591595 903452287 1052185380 364295519 484425763 1072283932 323859030 420430871 982618813 468775866 772804791 1000057126 962382910 43689367 472592776 859857527 814366633 879945889 230389113 475387582 1025470090 708455534 809603356 314677522 641431019 570683326 395925858 439926637 575357232 239762968 624458463 517052148 263890584 792863943 156781741 85322705 491301049 741743682 221208642 747538311 305307805 394679661 238278618 531344425 977111295 456769607 764600057 709328186 325387339 909323107 189416302 3276705 644395581 476837591 940018972 645801524 83157858 856784819 77018262 782340782 216393205 6328689 671690108 723487741 963198043 742086687 741887313 586401943 763958519 588357935 133818445 299162783 1065417867 880373409 863902671 923164209 1053200786 706199197 192155518 542554574 957208183 559925095 745141768 410497952 704992763 364416182 758406636 940671522 887208584 686923412 946527807 628402051 749755122 430769901 470176699 827021430 261747140 107011334 787494921 800951084 898535735 681865290 504580881 939247213 776145565 59007627 81854948 962851822 442327314 943377830 501737110 784347812 1072034422 664926602 679847832 743825448 864254929 950485778 250351300 387859528 93418934 175545769 843325861 223876786 417219743 47195382 458017291 26587884 667198537 1033204741 856603236 528298791 878782774 388166257 563959369 843639257 411977585 813860879 496075924 307579351 178230213 242015002 356123604 325962610 818617218 716565855 80731995 871866220 117169759 343284733 313171250 951625299 542023319 445224565 776593258 698940425 75175458 338315389 591425665 320583308 328937211 741662564 496979473 221062729 262856233 437514795 839468602 1073066249 177455357 468938200 145865943 857984231 870796549 754082694 133883270 252772573 1006455072 514571990 366193856 355352810 891662456 804072450 941777062 659080464 436144455 227187746 924992673 952533847 528017129 517595369 194265632 839005050 138988712 218764520 174443555 245689489 641716068 503533503 318168780 45557627 493420629 388210698 888081054 646596822 223990770 257952109 273596254 316123563 666259963 722629825 481186898 594294412 295341516 474853855 623524300 389206156 1059800948 1044704907 222929177 419056304 688030627 833609866 886865362 801514130 646315997 52409268 276729187 423366994 886096590 511644197 994089880 849653651 180561587 775532597 177312932 304332758 801924891 510125338 184483367 889655486 990260761 1045527247 1042629407 101899353 979348383 504277706 51885595 1062232734 78821020 342963881 906584749 189532968 237069036 658431429 705850103 363920813 883352850 350597640 482720243 930266851 807498875 181262702 1040196071 920087199 1029755813 301861431 801781316 242727165 269408662 372074389 244796907 572417281 50166286 312662978 687195966 933578640 330945978 695800354 202113083 92213627 728469296 841239138 316454356 233227870 371858577 426228631 697676783 724565672 392914759 1016858688 571871784 1053605098 813473318 491141923 804607354 318951945 111415251 887662345 298046594 592695020 273325097 589293069 828942670 852006648 173396071 157815197 725111288 169336280 266915814 1039380862 983929281 345943321 933466983 731034121 825138432 693578838 723533720 715374849 173726836 586286110 212144236 843177564 68290153 54237993 692594039 838464763 152668838 983750543 1067692894 478511157 970617187 263794886 1060742087 865577227 793054175 756868844 812964022 878355595 309125284 768293021 36651886 149291850 883202125 445106028 185584598 959582202 839395919 88629067 260584757 602521221 661065212 209602486 431113008 573964306 570468501 190356812 62721449 358256004 307756779 715857040 499416357 742942470 267266892 427141711 996209217 18740313 265088438 1032155440 134911625 12338673 569996560 380685120 387152868 868568988 977521046 76411074 404642312 403823480 474931156 908271068 933900316 259368765 744688392 7819438 1003680320 945229252 861095788 680781221 794372596 97833852 428188019 423305832 282964725 43027637 43820362 997399254 517460434 993733337 141210857 1026107044 20225809 443450543 581683603 314510252 233554535 74012158 664923191 285483 780458565 781017431 591608532 759859602 718252349 918841077 908763706 920106807 430065415 732464000 429570942 120441594 619045038 388704706 410165422 15713488 629428958 310816081 296663359 982562458 925592100 690477175 292655607 326942374 325556748 361699221 327805981 308126572 293516756 542032871 802662049 870403853 624765436 1045481712 585955232 286574303 68387014 661129915 455304293 404429850 310513152 325883310 909439357 421442320 363898223 25196504 71152016 1009341127 225080970 959984172 63517743 9174656 51558485 794219234 648993401 139290785 293235183 549203307 1033845925 87557172 24591468 550801550 53195269 77186943 252291747 393079060 757028714 591831887 657712436 986236368 599408322 767114650 242294014 548286066 734493315 833245389 367011223 309463506 744332222 431381796 75668608 888065601 758915434 915574006 1013021086 902906883 192090253 447747038 307418290 169433889 827908256 56001810 659028337 385695547 298258417 297069101 228683983 685368434 57955738 896089351 649161834 281786637 662028934 451527827 337155348 1014385187 323580779 846969829 1013447818 347803708 8937462 321172059 555016726 467238190 391810251 582245592 222245891 1054915656 428906711 1039764957 42308460 814968892 384007223 3974809 273995512 900393338 558306694 178113123 909498571 769701760 385653303 232430359 608231772 282502200 1580518 1015669604 960170637 83352613 534981082 894332922 309582319 103275099 361224108 334281244 79052514 769265701 627807444 954534811 439143371 717043191 297495281 226615406 717488328 851248604 465681245 927175689 447730042 234694275 117545149 484667152 807256127 1009483434 714928902 924488817 520672240 346243962 638825831 453199395 691108793 709543740 695222229 625435809 87148500 619124542 633244558 895871842 984851658 870267962 183876608 60388083 144751232 110340701 951778512 937513955 181870525 822873310 501481501 768026522 381380596 244195823 457592679 740331658 452224304 947892568 270251722 233201694 998664721 908037637 114434569 473553799 889150669 580822906 427796200 377305814 795581698 961895670 293082906 816039361 363474738 702342368 511555349 536974257 398185529 306928596 659986031 1058682888 81440393 156392955 874275167 1009353351 147726941 125858832 178268374 620789004 1068430795 657974518 10320955 959163231 209423069 627673964 268788409 855969338 484101366 821400866 673285586 608747731 802715875 732824015 353886264 551268364 164089466 416597788 1063325750 243419169 807169692 752064919 654507468 770786424 996473945 833219236 525097184 955371966 601699699 908577128 818741848 443495489 337486790 864423233 121613175 751650377 148045559 412351727 908702301 952891083 1069112150 393444679 438266627 606232399 1026703506 6466289 1051629213 797812686 231928677 753221712 764772657 145971923 575062150 724495666 31741688 1051582910 317233351 315295638 558341140 968216254 591792416 927254860 595694945 940899241 731887827 13282882 706674537 783082393 947944426 165419465 472410723 627679296 945915333 814934322 365079404 400494256 958000000 484490823 510325688 688198867 488087889 930013378 998301986 805708068 470234005 116970233 468507796 622584870 218392658 511840779 69983691 718212694 687761184 624644675 305785729 587775600 300695984 399562245 367636211 298775725 26696880 873513756 726258768 816406251 29415483 172855370 360025146 375126174 871999871 78155862 160914944 477562934 427093407 31714133 543589233 507324119 867514422 493984492 446018405 353373023 364579736 471259560 117465530 65841106 1067718242 168041001 34596424 574046887 378466970 301647876 330791127 358046357 351061224 455069037 627229846 824749701 766469534 80700286 930129368 197655784 915106878 958710884 710612100 665349001 511567866 185023953 892312650 1044203077 878098161 617706362 884452945 72721205 1060599604 899042728 520671785 768017085 304362199 462883776 966254412 399614956 942918654 475534824 106205312 114959069 86049520 141406769 712494706 609106108 952949734 305849658 741217057 896946178 60199578 503808540 372662502 12955121 613895007 919390048 633661613 289079182 687968599 798356596 73752194 608063563 56885344 96519339 836298875 103661187 926914934 1052268416 691119538 1007311837 181022787 702998158 1020398554 767489235 674909589 768195130 364969442 723637522 400216656 910755281 962722244 836449759 356102610 603536046 725690113 36788578 882233904 1068917204 709108414 430462923 571517485 755543338 434001925 537189100 646165733 807247569 567595421 346173488 466185453 141101449 209002787 559164734 637928317 690988156 282973840 644118219 587347494 951393761 733141409 917152568 536558087 96209702 88257104 901670199 149831008 168757460 234852711 808587747 528970599 891441763 250891880 441613457 1051562246 753386506 892518234 725029843 693542099 761545583 316291367 767519192 561465194 532680020 842307042 981530379 361754309 940983273 609097957 239520997 63633326 766919412 510228217 583310916 733697521 126513633 435667284 204795747 907524040 742147660 595604720 959008460 592362872 512566427 523655725 457964211 438357100 204448279 885737411 875947242 345937806 772174069 105329405 970581276 769777140 1043156480 867321950 560140987 712652381 4441452 706347868 885957962 785355421 1045887427 195131685 767166551 1042414005 371629161 713101843 603869573 177582464 219808737 402369201 717792550 337109309 955127180 100912930 341494454 675337332 734984761 1026099203 1008764483 902704627 764577707 954099252 855919413 971869647 457277466 745993641 571499368 931114314 379093815 403952725 434575121 304591104 1016719845 147146256 213587730 930677083 124905592 223373378 192440404 826069859 228460958 657310570 535407458 644789093 874253378 219752933 530684015 599435847 436405691 501945556 557787212 772939317 869990487 523171333 243797363 131267311 827370057 506392360 393310533 498562833 702276430 1012736057 79866402 1011561733 81386130 366384794 705449118 37264003 626909445 253206120 664076681 892415303 597951498 579118378 527465766 989791806 109757699 509182254 491467186 479312288 742127151 421948311 822611224 229288335 501917762 902303310 305665184 490006213 1019143554 187231137 648594508 537368720 542517810 960363123 333831132 648510792 419931807 998956662 894546775 893190114 501182144 707042949 512751107 53004369 107421844 422583886 483066663 888897240 969295016 402478270 833481591 533481004 59529744 584783900 20166432 1018728906 819791284 1000387936 489399109 842263012 681210446 103126852 744148507 936500143 620372955 736285759 366042761 921189320 571290621 987101824 881746126 565998312 955941809 663961739 988637386 1030597621 296957151 209668309 597676961 461923646 679689807 584027832 654046667 28965875 655665570 157534275 704002195 254394688 898311708 758632739 20591143 508156854 513328709 683446194 985931869 66510020 331244180 675805558 1041173327 500286267 678255131 947891852 930631545 251431545 587745434 606006939 780319250 28237664 574980140 494785663 929496627 680529505 489783213 492115510 589423219 926654354 649822747 636678176 908010410 481316660 625397157 556215965 128883667 719872719 1042661651 108310194 40883096 561823030 475160903 30244503 1002105794 720672562 800521138 128254227 274988888 194417648 961043898 200527227 309894892 734447569 163634441 918962526 630725525 967712858 93702207 456252108 804172413 288120914 332491285 272646453 133529414 815784719 757862542 627251570 715625201 286146667 363580648 527337119 8878583 310495192 345565293 509552208 402136951 223432282 135378424 1003806716 1020279868 861176401 697407859 1033738568 31414249 132841969 896104236 814158855 641135110 561321629 271798677 539240565 131057100 405573742 650155829 691307684 322700476 1009212117 555295113 712960854 950463288 779536021 537340092 194801630 903087440 772344307 291586858 38840917 660584505 594967648 204277661 305426823 107877622 403016192 590589769 268150355 257807772 976035626 421461814 217581303 1002635446 914890253 1002225824 35946542 375048709 634695104 468677889 745549580 722069343 47695901 477436021 120278247 283797766 1023250247 265838276 511502232 600302091 685509722 637926252 760853691 264125912 192987505 265735299 915145245 442840556 16349774 25852934 98239634 169240100 707232375 959058408 910240890 589352210 385224499 959981200 735311983 297861452 85847775 439760814 317080916 199436832 601874990 996802991 998462281 564336002 681500323 746684021 328247712 615507947 990446581 793373069 1063510342 367729248 684340186 919491039 298560587 1032050655 929026823 256910089 772766088 171653298 652948646 369722801 271398883 345479315 618190140 606777031 68338477 524727509 316334763 516020514 442619352 743668383 951996053 963075452 148248804 814030410 174674764 618814768 602531403 575285897 1056046545 707492992 143051837 656747788 611041479 930108705 1025902407 127426639 94065192 256469827 465986689 339000036 721570559 129017187 477647104 41083462 755872300 274809485 978903897 956121618 359309989 901174497 431666598 585767049 996923140 1018925154 10477614 774088710 212277827 473912640 671922606 58797536 531076824 975445165 214284457 371739492 448303829 1020408224 194044844 348274700 922680778 859848575 418191844 714289485 320776256 237198256 911475558 392165522 777053634 155125872 288665472 1016214994 767412503 882282774 967956249 643419093 144151435 105357636 427176857 455555074 634805385 1037847828 531288146 750045517 586780354 26528332 768933861 297227160 369845084 43054033 457273027 572928567 583414361 145866377 741557146 260385413 358530420 587176397 338651000 261297357 239514893 17345422 266314839 929868342 699089637 1033718054 166513122 780433596 187049632 116219194 768862496 318494270 1052587971 895117407 750787132 61093224 181920193 656972034 799158917 649257349 377697771 169576977 533620462 12982267 287160536 676831071 235644791 452457972 1031115457 583298193 693738733 751111301 369978101 461664903 208918978 587044475 82769125 1001522092 923868762 543787068 6742939 563319013 505286671 987362339 719159603 333673843 429217019 629800279 826078261 566075341 624777415 866123321 403454013 479877774 134541229 493914543 152623120 275493927 297856028 1023549909 148448689 1054716132 279156239 426151148 267691316 582222369 1023209163 987125715 665235150 758450657 983731562 451146634 633030571 1007055956 642431938 131843843 156110145 116005632 246167371 1006585511 299900650 465720085 935545802 144229521 299925358 382639787 51080586 744165808 927904377 949168023 741596011 192923568 147648823 267918358 895179071 189730674 871067663 1061567173 488594382 241679370 251649159 825613477 573087595 619130002 716611982 645501645 330546905 293330191 406124617 61229669 89126409 211322440 230147687 746524589 867955601 670940588 154105470 374484352 687260749 516770367 1661473 19869631 522351989 244431308 448305068 451420058 491337690 729871630 759394671 617026214 370724061 69576722 507445611 956921697 268674064 524552921 482066095 551423181 877894306 245148626 238694573 882821951 952790425 80476665 12706972 488071143 432397315 354274699 971231244 659099569 641651409 438462503 795824113 424833968 733181561 408046407 589699303 446715499 869156611 664304966 617841902 1006376458 801096910 13424981 701302029 42412840 296021402 947709853 491356530 241021806 835187474 883384305 49535797 41380371 360743072 143389228 267657399 899736943 675432747 812039146 501341092 236203992 471245812 530278443 959160469 1029739621 436754467 798709014 1036115562 417419538 957323500 569501210 417897881 607824782 398250476 289056330 730166502 637385028 1070603967 915513696 82503684 735187694 401403086 933098182 976018490 359986061 481690378 168724796 743903866 810910385 510305377 157410507 846689551 717103139 362764114 144279246 979486131 929966955 505201050 848373130 53575187 844912348 292100871 506271242 1016486730 157074773 122127585 640347998 242734815 189754892 428250976 891243769 777250601 928767878 803340426 399270744 674284425 9028380 194698039 1041328621 815677823 518002912 629760936 369136939 196372580 393214550 190925931 332472079 888299565 505592265 329985033 859196658 1037688183 658325553 965715072 877852263 1560630 500887181 129473009 98773242 378887981 33134427 1035205852 1020922409 859558456 447224671 1063569521 1071889004 647592055 501791382 185418489 662678692 102046357 1061686765 954652060 800816025 581242595 992666320 240544534 816142905 120675151 496468816 604292454 431977997 1008547104 220680000 8820325 806930642 955262755 781547052 767868039 1050053873 1010321943 359455019 724165147 646543303 773622686 834578134 847717821 326752360 433882985 860283950 860860976 226673824 798866764 152285072 228370930 30415819 442774008 893041615 1018112458 224617451 628805594 646336599 703916253 602373409 760314266 332873399 145285046 664670921 28031630 48871066 611964431 488344727 879538304 674516461 802304981 111425209 380429074 313664895 579339803 94453226 666155284 990467509 360840550 744016666 338574337 677224541 9647571 308291246 841055598 612220924 392334701 459762223 22270974 511211584 620725924 251525049 240735676 144445337 426546097 677585088 349425141 28241725 328554752 149398892 750226810 729910140 993857255 222904627 1030145003 513495190 832606182 627073893 803563800 248177741 244518989 126220038 751857583 436954322 204472135 233902451 616752677 339624829 531880701 394547140 993647852 618020669 865250455 925916971 329121184 290445196 579145112 594118187 997056901 2838158 917236839 272267661 736926066 688764543 421450937 572301279 584149660 648299279 784739101 1062958248 343098073 353843367 525613773 666402629 192173665 952468839 448451368 185670137 477426772 190372627 271271458 791369672 935428853 405295274 475097395 762936528 215584866 685742901 134857410 374242257 860697062 733391005 968056284 155654062 713282600 613490187 517650296 375954186 746972626 1005792494 915005555 1026929060 270988714 668314318 475976842 582810997 1008145487 1072007420 486248999 719323195 970280544 165682570 135312306 538574999 217402167 438268872 523809370 442166022 579141039 115447067 776708357 901898763 889894467 764327634 963430564 350472734 854776251 117839507 712806398 250006576 223325067 742290320 922317029 770729302 404338896 204347838 194590016 463200754 43807576 824674824 444498927 114903033 351215333 1013547535 469595157 670373097 163466594 933704 175695089 981992034 278432093 993163353 714746786 920566980 455404659 932561760 555425387 351671296 894661462 499839331 67402994 628098057 817078167 765832534 881434802 330826242 101792573 200622687 492442856 212899343 541459605 88945205 666678745 826033797 86385897 1029009543 331116962 377564543 568155030 1064635178 628049897 15548413 714158228 851693634 50293675 40115877 256551504 292417847 470955215 977615127 326332346 56467174 803862448 446672300 785552444 285944049 86923640 268189298 272034056 318130881 245974482 64961866 41941627 856749454 872439247 1018055764 453309079 383414271 595434543 862360840 97793558 916016773 114517096 720911115 832704668 555065664 55074992 340047549 980206832 552809163 519314617 475849164 708452622 856065165 294524175 814597391 336150765 518346762 827646445 481179643 507207620 583395429 350848456 398444713 871536398 882817016 142847822 1041141718 659613145 915671193 140641774 51828534 569550372 1015960225 117434674 13040698 445744293 682412268 537830889 550452228 743306367 306476461 153418619 453254485 129608314 106422008 733379835 964027379 78236717 78179214 521900479 188912382 117900959 529941180 395411632 533606789 914215360 511324698 4245074 476523167 726460064 204548739 1058398728 675765540 584396136 1027787471 554968426 84032664 645229862 290826120 1011742363 775002406 23865747 210654989 380949369 774030469 786736574 571640934 166860298 125300178 927269873 326129536 426769852 598890495 101784908 238334483 1028398671 1012010747 855657843 182874981 731895238 1066059985 279739319 580557093 747357778 361024168 672504388 713259196 835230927 323288240 427911550 631951478 696279737 289173617 848441735 403384989 380482775 170174931 1021216242 66178610 1070282556 679762070 48612795 656456505 683735320 1065709264 972530749 803849371 699336043 966155657 352173860 963974425 61291748 899557296 361040790 782021488 694032367 138209684 243684428 506121129 866902578 66761583 825642739 521120372 676124985 195037578 164422587 792885239 621554587 622493463 512068594 275408133 76171901 796399986 194865326 462095968 492965094 622550407 590820987 105994352 105728798 312562139 751439083 725208165 497229855 109291781 104107224 425635494 671520713 430105295 1017519019 70042102 945351600 251536920 929627965 1048310597 724861155 226784810 343750067 91082159 152304471 891734863 253329090 924400030 224413001 866902997 296322785 478522757 500292780 799816730 482188305 18367708 8351430 216483917 48223591 62704207 247555262 495192978 1035898389 817835616 352464257 341101572 516168835 1045224397 393466308 557144875 246458000 1002135580 686946804 1041112065 260081959 967689276 414133216 93608565 242497096 636636240 480093074 217716485 441795718 700353847 465518067 1061960091 41026298 986047301 580190301 513823916 717135024 1054262377 512724908 657311808 570124228 336901583 837981125 722869634 585906799 115649919 733333498 486110281 932269272 270354069 292903310 693839244 615447527 1035866181 510309386 906827489 439202637 540245553 552618609 113076189 808164647 941733718 887833297 869479178 754809761 1062078723 49966871 89673131 615376107 723559012 459659905 852307915 171484398 616749301 752287390 869024344 891426408 63244205 951711247 532052227 157884424 294733925 237993688 301815974 421271243 411013505 720894785 36308318 703727727 76715971 864253794 913606583 830169577 4170938 305563267 126957047 875439108 150449887 132863796 906186410 147294372 280830223 576454885 848131071 477291621 547018294 649057156 851191018 591526241 317908563 606989614 368379965 301695770 912722571 114646976 779807449 827451017 427984415 11074344 397480627 645274785 623269919 314771043 445728807 306883414 575394306 292890917 70382486 595291378 173355097 1068090395 637747499 607003987 824011067 554078903 581495957 825522575 519674560 379291248 126566429 566383178 51645332 216544568 845128970 896295386 205641466 975903129 69588621 658112126 855223917 33813829 554043326 250689172 385841014 579278811 59228428 456677853 297999365 603267082 377108110 829164109 890882069 1035821483 955986861 657912926 43007568 397005908 33094303 1065731392 696137627 558272993 1057804094 1013038836 625943423 542185889 79940986 80187702 114701963 1043867714 700808236 155116880 1033958690 327223821 776077642 433656851 264397408 455588278 185825623 760063244 641291910 514700766 343213862 258751929 526563124 883924594 567212329 878385545 1008563203 183675457 203620201 745588864 395655223 307408605 797264833 667932961 20669731 108858554 826112251 449146886 992573298 694316514 99657177 771158983 605557854 899640663 5128019 1014162991 321793021 186716094 45732280 71730303 530079784 114362145 42908223 121276400 1045779431 764587897 8956148 880446523 489585580 526164292 755120424 328559955 141942639 175629980 140981770 249277341 626768461 952587955 137656718 361324636 509401356 12687340 471570172 318099271 735043970 673455483 270942382 594433043 442423449 710196661 198480750 204086379 48607613 1019717751 237330081 481498320 941397796 643826727 4340959 446833836 712983521 601166018 98723260 78354069 861950538 624582913 535690703 779775871 788752804 817110929 626259307 661925097 259382939 1004029437 987632715 512439240 5076864 413147346 266949727 703532986 1051604134 341441532 585704354 883768982 296631935 468408600 976656561 911397918 959550124 308620762 67265421 1028446031 689846179 963399660 595421223 129433435 879597172 464585099 844699410 206167064 47103024 845670953 895899111 660436067 899504035 833853201 368713207 255538491 986679907 775685545 360307162 30855130 381194789 978920272 415265471 250270260 992893949 672133708 136300816 901414701 539532717 822452463 125862456 211046276 922838292 168849306 169594506 478407011 243548011 797009140 654208778 107274118 948299997 716655503 540235011 471511394 815075220 419263647 190923177 137286827 975037880 664358277 955663657 671694104 365762172 813245644 29357560 905738787 101982641 415443200 635097367 707938157 889025765 365440548 642605107 76017960 1014306701 277918312 909123676 892937233 16395853 437449159 384905275 1035405525 687787590 407288054 907099737 317420006 126489328 1070414753 155400018 231928311 323040496 885227997 240559382 961690982 170878099 127967164 751260160 445737734 962343678 427879693 371371209 720943640 27538376 832792718 229384968 1053826267 16422258 341632077 179887366 738540564 580455078 424505395 482420603 12164276 982538885 393581886 519222700 502393070 866274205 963111644 772182405 1046285226 34205 34226519 512736945 214823979 301977250 549021521 227888297 589374490 579304396 125861072 233221209 840736444 896867356 820189218 253079800 537256248 1051690290 125608376 485216326 540824040 990251491 573743928 938698075 160510966 776229389 46864867 304805264 75134506 31919723 416275605 537615147 301017766 1061785505 478811928 591647695 937578671 315272611 110689588 447299766 545522163 1005614513 88481002 729326178 1071911947 509808892 834756238 778465863 623915095 247359385 1006690901 427406912 160790077 331607927 1028042415 131094417 480517605 752107898 97957113 1035511351 727284414 655404889 298637926 723222646 649118953 517251392 874861182 862296778 582962416 277790344 245232159 953945257 657936703 1038690451 213483745 1045880504 154836246 432018330 1061289676 847330073 842573650 811493826 921249656 68898142 792470678 685926286 435663388 815102587 912508134 728470610 80771176 345132713 739561023 934770736 637360089 730516597 216486236 570508271 85091649 581923276 687236072 1005934111 441883933 467953239 1032853902 770043731 697167970 272192835 873245564 282297442 26577909 933468866 390413187 39433853 490491605 652246368 1003940592 1004227533 12170149 519354017 387366921 14368470 921155359 183135218 976034328 745579123 642059841 912312666 541482247 452264466 100648808 133674509 1033293121 680630119 879649228 370264420 432167010 607192573 503922592 667027394 761373131 452473652 1023810297 590725859 205898803 817897733 93050973 336576060 495005638 39503954 113574410 880890969 206113945 118571644 814842099 366034072 301470428 313759820 543745435 793447838 861541248 199662499 707012436 387671076 310564835 749482713 631591722 410982902 765175428 796980320 7571134 106402878 96368556 532952122 127267632 391169728 183865240 8693145 685956072 678564423 483682068 207788813 636818109 994869631 146919865 227561691 572334613 885261348 903025579 1001107250 719844981 747220521 22409620 276941276 893709153 767079117 847231453 604513917 66640078 539464374 394632736 698770084 902022811 910015755 812411327 798690981 715533262 749875519 995553436 4006144 584398473 431533229 577897192 235186042 331451015 217800198 631682034 827280028 415673775 1050861848 558372991 565992677 316077286 562532903 595685609 1068471712 388615245 655630769 51943869 855998633 786636414 178705791 50814723 714351744 902433208 456833545 694093733 696819296 532397952 350099005 800977312 542949001 8490524 268913974 580865611 439121769 20587504 704747944 466348404 515827824 917007065 332493721 583133840 409447990 1005387678 996611532 993972052 433716003 523817566 407775406 771536463 232642354 347769661 942529150 88542075 100878490 739524013 868935744 205141448 537771318 600428971 619248493 960320852 580312520 1027789227 287250231 399067324 205007476 850549802 198395026 988320972 372291492 734909056 914683386 710327977 975990090 811186843 100962247 864716566 452369663 200456549 509242330 678573926 653351779 505610235 404935555 230523393 500410546 339705267 946376536 279173523 580194231 957068722 568572118 786589928 389560255 879252913 769441475 967610730 988445918 853180557 756958436 998088128 988060679 213749069 818523403 148468660 447844360 35322932 644077631 862693651 540033484 760843662 292467126 1073016803 834144220 563719216 687560782 446201456 215510078 750916071 973567477 842766682 232723398 279132160 434746496 757511750 259070944 827959123 100771611 405342099 385153643 253435497 272115615 896566973 622119381 117778825 200373396 675502554 319636174 332991676 741021861 619165390 845215767 913261123 1049939602 277516224 1028206598 945914940 188539745 747708145 130741548 518277313 486444571 190901712 533404404 656156730 332373123 871642135 502395279 521092881 837403333 318680170 170448722 906277811 116942465 844467793 71895475 203764315 114864164 932652354 48656720 594941857 458070187 616421747 773777308 927951188 885060402 860392706 543583237 294165308 229056889 414367885 554269702 379382795 372594668 788995112 470847308 663910410 274582272 250601982 495790862 886833232 515430385 978593836 764179302 562552681 124549456 142729769 1018261300 951236820 80036515 775177110 592315899 546154698 558263532 963507231 319027433 919512803 1016123740 765265023 954055316 436468712 933568551 421142552 6511683 977584044 997922683 507469357 848737612 1053884186 401241161 106463645 543838261 449232586 767206423 219021695 266105543 599720209 359793437 323011962 10984644 74444163 114505814 554183976 808587823 867871175 536606020 452749009 790775540 639838587 465615454 213440965 565308852 320937844 818864312 685411287 916784073 657103943 907005236 106481308 318125361 344506237 657537880 708329378 201772132 1026624933 419949579 593872497 26457537 951273799 825757235 910435289 166640027 872153173 327394030 935536812 421793037 81279804 757369177 363879907 386330658 286302289 921835805 659437611 627887233 660658843 918486306 364749834 475235957 584086236 443366210 828903661 977995640 709685983 926408420 1039807863] modulus: 1073184769
