0: COEF: [845830784 874215570 81457062 304820401 854692216 357569990 160560889 74500134] modulus: 1073741953
1: COEF: [440360978 855797139 712174690 1072513292 701236139 29350649 605014838 366138425] modulus: 1073741857
2: COEF: [468755706 369824374 1043699194 457246186 230207995 629684596 581024125 973766255] modulus: 1073741441
3: COEF: [486872459 754940260 1038962139 876945137 897837382 941509295 229938507 754043790] modulus: 1073741329
4: COEF: [471951517 707012293 180900768 380863274 568103069 323369763 851997683 182020207] modulus: 1073740609
5: COEF: [38524940 919973751 205470027 832659503 1049534926 79229616 1031648248 518200325] modulus: 1073740529
6: COEF: [597635740 975424256 693734624 774238426 292157648 196618047 1022300020 400968091] modulus: 1073740177
7: COEF: [719165217 834170882 715979635 128590939 11922115 191273827 915869400 321399838] modulus: 1073740049
8: COEF: [835721409 766746009 735431543 770132958 795408410 952633969 168118360 104201820] modulus: 1073739937
9: COEF: [771778837 575982745 103957983 120058908 759081191 780180306 2825864 747887220] modulus: 1073739649
10: COEF: [833444622 272068172 527805506 562054883 219458727 888563451 783022587 797310139] modulus: 1073739617
11: COEF: [338931046 431374110 948991910 961966981 193524274 285722182 1007761092 462980056] modulus: 1073739473
12: COEF: [1042335039 351499026 326938543 715358325 926087713 1072894797 904282942 969988310] modulus: 1073739361
13: COEF: [455924431 245693874 390503153 999681700 303264925 1030436266 1066479879 619539620] modulus: 1073739313
14: COEF: [274610573 828016812 988567894 1026788471 459921435 228947854 1004407109 328878357] modulus: 1073739169
15: COEF: [900702781 848918321 167264631 770979202 616632063 52822146 723168357 464139316] modulus: 1073739089
