modulus: 1073652737
n: 512
rootOfUnityTable
[1 3363506 93722267 227277532 4581296 152502352 686253414 444857083 509336740 369660182 1025160609 392060587 267308827 863059870 211343941 799324079 737897485 384863516 524079040 606158374 168362146 762293333 981908642 1013755048 405149468 740257665 276117218 491761201 258479668 94841099 272579339 107801598 540301159 768653248 63385907 433565641 1068339726 605430799 893724556 616513152 305158271 395413496 148498333 1044255728 1032660461 718205884 130443203 452280142 218422659 786693675 589758677 745773313 545616483 427442668 145064785 493795612 623191733 789859743 116974782 1041021094 644977678 73629926 589300451 191550552 675578141 268553436 940877461 786741179 395489888 490444542 485573339 105822241 681777654 957920737 407240194 484275671 863746875 456093447 437073787 221227235 881949849 147380129 963930215 736123300 264883152 777791783 1050134781 726590213 308550635 924445581 481712448 879285147 259263393 341111614 951587533 981541787 721756231 578138871 565505751 944959280 138237837 224322143 486639345 696910434 425291721 767719246 49963357 703696191 649792617 171961152 605958694 650097428 67224683 431859135 972701692 748081639 1031026192 946632210 34335800 139006658 802577873 77538271 527046193 1040886377 604994890 247173607 870775773 363421095 361346252 357257194 277700816 541907532 119651665 27547673 532218438 449026999 921118805 459500806 940199703 508402282 969784370 430394150 479274375 965726415 821649401 819970637 626927936 425780876 133850855 867260579 51250775 900375378 67786952 924544392 755344 341700322 185178016 1015748393 71674473 608069095 4626290 105055399 317983876 27811966 498843460 345843903 58554005 183677198 246917122 325087174 18898293 1058906647 973299649 1028462480 391068785 174384874 564215985 366337164 759171671 503156793 1071487057 456146465 537080553 323512205 3821337 393012895 654866204 575675296 768035967 279432079 162950122 95600287 659763881 887707067 183901905 198733016 676101688 431540538 875212136 471250947 379052342 453540081 323455854 503429180 347358481 942160145 91721280 624505363 37581031 739222202 419582768 949251273 1021396330 803785854 426922849 711047944 1018932788 43659031 706924985 720349626 1041393700 954750235 997376803 128105231 102076098 895841728 198633663 407691277 633335288 161287187 534509947 200298630 361509387 426259897 844752981 1012123531 227069673 891172166 564718864 799810163 511229538 46359560 850264639 745066700 915711023 103314631 936398866 353487219 856645173 464899011 220018289 507740192 781873368 688223772 97466730 804439800 63759412 546171881 356185676 472716817 628224258 508840851 900386646 389926765 512755740 302208175 428412274 737301152 198552734 910309401 66923413 636590243 185000228 1049318174 467747317 310966874 407600425 1043118221 445742850 405610667 557656394 706396468 1019181496 199027156 109933014 791480706 227152574 579471452 209517762 802608882 232180336 382864537 159657760 944241270 825953027 31990422 646342866 952555642 833220620 772788201 978708764 499938468 782934041 520178259 342306328 697100226 1042096695 225671094 434954989 538309653 845699355 766385570 1017523224 217174239 774387562 365163323 359039074 512194162 1060052827 669628162 365504742 989118235 1002350224 749836797 499089377 776541415 927635402 451984033 603764441 555880548 367896323 206202880 1060786335 574197584 413377268 521975553 886549782 713685057 445417872 318644065 263614484 301338613 281463490 100018820 920835025 441051319 960871407 157588386 9417260 107466586 1060802937 585181872 667638089 967843999 715881647 884579115 21752056 178758208 183215352 400635485 454707184 606992500 301566121 1065237794 995835373 188118624 205734060 304121331 939244369 679403119 24258833 343294709 19997523 665580799 952475224 907284836 857734335 564682339 344165531 110352919 217465744 1008255211 707059456 1006562675 358879814 592944365 772160181 504604323 832164942 563102392 763999499 1007607373 141462801 296484016 999803441 231471385 404651208 811680562 745157613 711101956 167653570 971742017 275588511 151526931 934631660 87055015 269889739 220025960 541529030 378049735 522126856 883700762 368498662 194328695 976457388 456008273 619094522 128957372 704287391 749670893 779413193 516494281 286437177 542790245 480305638 653021246 761192408 1042355505 2289247 732242955 23864554 144642730 278189096 185929602 527573274 206670839 1068778147 38234187 939847236 296154628 37260960 1052188487 497333591 269849199 217390319 697861093 634691389 538310517 530810328 144816246 906860001 954455772 477133039 631802195 347878940 381515352 497934449 644886313 905239755 34953571 497425689 830036531 756383742 570242677 617364756 174819579 382063921 4002460 840208254 389607338 844514415 612545674 98968576 736344291 601743594 720348913 790519396 697243558 1070059774 82599394 880478296 109152881 816743636 145220763 110546087 379286867 145023036 719292165 202840378 49413144 1036288001 981057856 674483437 853969122 1055851213 1006706609 264368031 1040735075 611207416 686082269 275489745 783841805 321454815 725754699 875064017 446975701 660475979 714346408 295003414 587487035 177152953 298005695] modulus: 1073652737
