modulus: 1073213441
n: 2048
rootOfUnityTable
[1 867430 112182759 281517018 540198923 445595352 662555446 721093547 405296503 940167628 77807345 178395742 245638711 736933472 79754130 713365599 242515349 229758896 803523257 636348619 940256199 708795564 507506353 521565236 694115843 554596788 600819385 213979335 903151541 686402214 1007197953 708029038 992191593 747000127 533744804 903672879 14551452 302728759 1069462049 986403993 901609125 1045652261 581457757 74141504 249362795 746660182 788949729 502077118 300828294 1004952475 795442913 660535870 364619579 594282065 406313979 274712365 653972633 613253174 933702996 2300810 687831481 161533967 662137850 158724884 173782230 359846040 340802673 454249735 605981341 402996563 1007000247 926064018 816612445 1065703120 801055281 900741734 967299272 382214576 854185314 480470061 290908408 150395992 315879482 142236109 31212187 431893303 933050451 621888308 278170436 656932568 1023119352 223391379 184619333 511571611 268945050 159770684 466718585 615478443 487811307 932580735 997246008 1021297092 383798172 799659114 408362372 944007500 716668882 129400569 688200362 322374379 713389010 158863700 387039718 794690474 486146228 65181910 640479097 381108240 637965088 423993482 859141206 76822975 584225678 273387017 418952304 261667300 935761587 931939557 744775906 815489692 560659317 674488955 1061166972 410670347 334480844 830803775 219703309 291326854 376866714 386742656 685425654 675162102 67743837 307780396 7251915 424650749 42704404 46032164 773946115 776584105 957193593 420465694 481516657 201105602 626788956 248825275 260319976 955941516 423315876 131120853 74254051 213583874 223503990 204355932 728831349 530025349 616425875 237255261 775176188 1004646141 155861220 634834625 196479122 224298455 344101760 994252439 413053201 284438698 1036147122 1037602190 35017373 1033054208 111600229 461049829 830448025 716951817 863043071 829600452 657911512 203468000 4013786 173987376 156209614 196051683 782737271 234321439 479027339 197436154 788576322 708102290 140367493 763144658 422078525 29183923 51681582 956030249 121614314 389209925 880972970 752703050 979493125 104447870 537184880 322218138 410151946 334333193 466296324 299402594 651885507 688621961 64211568 336055781 777695292 15249544 556291595 424841225 1065644611 489625138 973100559 294772137 19266219 16643918 566582408 1068573018 381494301 676264726 283704226 348670675 830953276 42529378 619537606 314272476 281281388 58221813 69144012 1057178875 1055823421 463078096 140048595 1030520296 61441237 192730850 697443725 315123758 337979240 396834907 804672347 376200630 1067543235 30409523 692582992 625107257 1062941465 671058943 713516264 1816497 206661322 23425025 419357297 623950083 750065980 523705796 820823713 827351196 687815170 1037871411 678072706 614958325 71499787 55482020 658273837 43504537 809517468 475674704 429683214 594754807 509372577 934380528 666131343 974583767 90971818 446197892 668881879 45333463 1065331850 714351481 75026132 254618520 709499564 519778424 479991487 495065255 974289792 513036526 295449356 411591162 606236190 384695787 264880398 938053450 298155474 661732435 503600082 239744943 21376715 895272293 213501862 989135377 530754517 995907366 1060010194 441297142 609749180 804652488 321323316 148022329 825976671 723727371 191832934 971126011 361252333 1031070687 980338563 457952007 1013166829 35284893 200611111 975837226 213696455 217217689 275773223 56895195 878914465 970876724 911345005 50259991 947592828 565183904 695436628 51174350 985287299 286256487 217101122 44123867 355005427 932062716 255243176 582065939 681654233 386012240 296604964 439284708 9179626 512462401 253237230 243315020 592491540 191062356 87411773 1064646740 989630495 725584857 537538973 534065002 690742800 255747464 145521851 800709392 292796503 216930876 471090945 595412749 278451025 428797731 921059873 146270499 906312227 299917439 787092401 293425019 218136728 80186330 1065120690 1067331092 603918885 413594630 941922451 447262897 449396328 831476374 897355416 958664549 321047425 158489542 1014838401 95626062 248105770 750320488 209611390 460066921 358033739 554237308 8980875 897246472 900153437 437217037 862197448 315621765 892387968 997211524 85603879 807991621 182384247 1027610518 230723929 795614467 294953791 902233053 286729596 638506530 19540384 655419407 1001911465 890776591 564360596 220316453 910173479 166590438 573444013 988854382 406712774 626731213 601846512 407596915 209548528 665567752 410958292 47880441 643983371 753039148 606925313 370773040 127301761 289172858 400717215 691322929 139942105 954255522 731460539 589744924 227784496 998383093 6572922 639931868 58597692 934192359 571138705 692176525 57446095 92906779 383596398 708629177 1062245478 97009375 322674322 102079337 131130764 85645253 207783447 1056936229 927238077 751055306 124005176 846266573 92986831 64229093 512778357 653522855 38801717 726654109 782388309 180404141 565768538 194549655 759706605 611917274 131268835 725880832 777120824 748722369 545012992 439969091 176492443 942472840 291211922 490251967 584165442 610332146 1003319157 648152293 271753438 45262454 643161117 118976752 579860477 64103435 981030399 650939968 434796115 87317584 926503986 394069689 803663242 790418336 511492661 471006774 561476207 948510595 339439492 671366887 603233375 341901644 721128657 810787455 983507648 917731156 734652920 866117974 84095416 569116110 936571710 702129592 717434501 1004383201 668279953 571609050 862432295 118401185 360027732 183518406 694426491 643417737 563681065 1042133673 671695121 921690130 584458540 500744769 432211181 854109654 316736162 588467337 639977639 52838905 324939363 885996937 372613959 54069723 126023308 1023385062 1040540305 835402889 494800132 666322276 247512602 287840487 513016642 218886292 980355045 803158534 862641824 497070126 380553461 205638686 505795252 515413709 692278885 844078733 809512760 684668028 294266814 631233698 768698263 130527026 113351121 640278374 128533792 69235952 317685000 484304430 449156419 930620058 217286442 887448758 846337696 614044584 569877056 977694275 180335584 124109283 1001872539 394813082 643775191 471319836 597846294 197551928 332353688 525779774 72619696 239981785 481465544 939120534 808843452 715301169 708178725 976359642 476935233 245857305 393147835 703861567 585691351 957403263 921442265 221609790 208228103 408051549 703386301 439666315 476799808 827628065 452481056 22763560 813963282 852219211 359902520 1038644228 284322391 1030029566 453253414 304076316 178179869 803274496 569496030 1014050923 650546439 357809883 626460049 419801571 716920584 600937906 1067373470 874610431 159011902 156287658 281311820 698728989 122910079 720171148 905958919 769003125 566465200 280901032 675756561 576862527 1021715919 940759724 683615827 888191675 273552965 556624850 805810246 67564480 344086831 922951261 922825491 220711932 532221329 521499500 553049736 158304275 217487300 183912815 461537682 89466620 893054449 660780655 202210811 938629013 514518499 93586428 737349359 232898364 256537239 509874743 803576862 986755806 208929030 974351553 425708706 148852859 53182219 845679226 386963096 869702356 185235099 185179373 141380038 113245829 529981299 1041818251 734617116 931844043 530501843 754441510 33752879 997160490 892145781 193563109 351222302 149433103 37131310 603655449 495768083 1043147344 998522472 708193500 914076600 935646554 957714380 343874443 210726832 1062610640 251517940 646273310 596746627 400155167 392928503 407483864 881356170 455712340 775149229 157083032 136338077 983001115 480108335 970462441 3131609 148375699 410671645 387191543 486996981 736222733 661151935 297588911 739745323 822729108 875436906 161642564 419650752 824035216 519305650 349175129 538402568 539294034 36755453 830904003 230188628 87674549 409969487 899512091 39018695 54315033 419015290 163727789 841724417 930363103 555206520 406421732 373327788 6603736 538583863 37640057 815341408 720282117 574588899 301670996 58381573 205226923 710292015 1058947114 184158561 59515703 920100867 16112694 175514277 290557850 858487296 585581964 514620661 708467926 706037878 600699362 204132222 927698870 148113803 755473857 462501295 996234112 87731109 103992001 45284498 446946099 391948084 1020889407 906034152 562344414 661473023 856671532 1014746832 83723026 584104151 32138625 215140334 241093012 647432136 196189590 207500889 650314837 150200490 299303300 378366367 496053954 30710562 1031976599 130132470 218727720 801565533 271482961 459141923 750672467 734138116 766475710 785931713 152040837 803114743 439485129 1073003655 471614990 125268115 606520082 875255358 443836751 235589677 542938654 875898308 86965931 684759440 169983340 927170651 217245940 97629010 132728431 431378732 1035519377 631971427 1061753897 823852063 482488128 411643947 245350777 1033075605 427371442 57076635 503037838 844547678 838579971 378922904 306895414 768139411 458011998 463701350 942904992 601330373 223149042 324069859 47977799 311371472 548900813 815907499 232842269 965869675 941626662 369023026 709676756 751912921 308070013 97781031 1068264659 131793740 1001725998 993152931 753577810 1010657138 604092552 807678700 268321790 424923148 222811954 911095412 334919083 1054901431 245305941 776668001 752586885 23337188 425062698 1072763062 1050649995 1056773178 82869918 16692560 904788269 571988811 801990138 474387848 314161774 844255218 428374247 617330575 482150890 868555000 876293267 331163622 658159636 790981120 375102126 132540682 700706694 648479511 782114754 70760952 949475688 383576502 621656953 284816253 135367826 757513929 353192046 208672951 998926870 554355433 518872730 446083879 506221861 310221434 1059938603 587495590 190028614 595025389 186573258 800711022 633493962 628543076 8477537 11422178 33375228 741453065 61610147 753304174 830752119 486703751 731309350 375910456 493855609 220591869 487677016 351590233 559428456 836105520 392773974 516073519 1008503132 619268753 1063644824 127308384 668094543 723428900 1006786126 857010281 795309068 466419148 592494255 399707924 944198655 182167177 546932593 1005417530 669847747 761728723 1026971420 709294786 1042629090 52673590 736350007 521453332 214438813 232753029 827784227 687191150 643777075 1032344515 527116373 408173986 660782552 774512080 179848077 92008027 1005320645 339540595 367640015 897072064 936517178 620828236 483834413 563417689 103139485 1064604908 119342288 1058787862 488730090 514931762 117021224 1046657658 170449934 1063336814 180340893 436441389 946680315 1055551772 933543046 774619640 111049510 330848904 258538910 360002735 1037852957 768721101 623051428 382717496 304210427 603032971 366037366 522656089 358478671 144763308 697594235 1013186697 97969077 1056563407 567496358 751488619 367996416 964520486 417263082 989388246 941369223 287106984 666079865 322773308 108430037 114239111 342193436 551891141 759237642 567236323 564151179 1012013113 575555466 551186385 91188491 582506107 432597477 23041901 782272687 768476135 628455366 124346548 755670817 670576976 120910003 107167124 376538782 330249761 1052445305 56610146 457951825 855294569 9078134 478759003 322056371 679563907 905245350 1042000912 344659078 409343288 761714667 639723191 418979111 977381049 1706977 721723971 988345354 1024492426 2051689 308704092 631646209 139825699 862262396 846366473 892168551 627102271 504655152 1061263311 267360719 649949275 721933366 177565234 1037516623 936575433 711931159 893817709 562709358 626881848 335124760 238656894 642860725 340810355 678566349 603542856 491645224 698750386 438681292 316197954 578548732 896598986 542002100 903436925 324740463 68320497 402500690 157260257 397097764 220256924 787178177 646373270 374760706 181499798 104411322 1030756470 1015300267 423436949 1051769466 861338603 137831469 1027400388 403942999 965697362 648829371 541770751 915287322 476272275 418603741 553854572 708459105 566931935 539374825 358418918 900677127 732348194 1070936 632388015 749753120 662556569 622003996 820562263 485813747 355603709 464512532 558489956 248838798 185228015 479585899 689875063 950477136 839941373 765074664 354215145 127922814 256029266 969579604 478229573 413944219 466504918 940237926 956448789 429623456 273118035 1056426182 661106559 645982548 586223602 92895122 1004099298 168178652 231855789 614635752 370710498 610380192 824536738 903090505 329403343 922073209 182508800 674061767 764117277 555213069 721153597 980222835 954076421 989829054 174254226 889015299 1022781020 804547453 433955751 915512944 862717473 651262295 995411065 912223605 192714881 797228788 61878316 483823147 449872278 497610089 839598275 431699681 400815787 338557609 900779630 569809881 661609839 408282461 312468994 632087106 523125413 716301852 500959646 83828557 901716996 173410983 293093130 1022077087 850393192 479280266 658361800 147095316 543957390 230191404 349233347 597410581 18155570 352051866 685128153 185095512 376346796 143917136 780609919 832494599 881605223 775854489 189103462 854079897 261744236 59909284 1042193459 1017619933 296113454 154501485 621475234 418679910 85896900 631612134 632124797 1021026313 535713781 297593917 789246139 45777578 1020380981 972793223 932452466 273851761 23586408 890065657 976609551 466384021 172256993 595687883 684552743 101449277 937039874 53733973 800456760 87762707 682709116 1045321198 1028681855 137737933 382475983 85209832 281676649 564383364 652120755 839240811 515386610 796489017 143957504 380980606 465388891 903461098 902070474 925001838 266947423 597889289 1003447784 608873039 648781086 513237400 679005734 748501851 293076750 765348420 638211764 828681403 844824105 219841797 220067302 505023190 490860233 191328850 511412378 589997749 600232282 719608520 104455093 363351124 342138440 68102265 1060295987 434414261 478655633 805746315 418996082 673547405 1047879073 400797117 241841124 288092491 173304398 134422506 693655253 260413140 204968520 865386894 192514647 968827610 689846281 668016019 221802363 903742138 1065146567 976334941 514815623 256631908 1064383897 512976497 811952495 607093426 240004654 1000880276 393298674 614095535 764551905 866661318 256280737 167527170 700307936 328555573 692149194 1033625908 196721487 109135969 729172501 248594993 124504742 606571789 652493846 359107759 642139120 82421308 455399343 795162092 687426947 197401554 825474670 997656987 136735209 965697314 607192731 523065524 281031750 303846555 494295665 947596394 438798961 430541729 486293203 916520122 923389039 747037917 44307833 23830098 851034480 827167668 325711398 887129803 1064269824 298270679 785155572 882094155 970830054 137284222 689276100 827307490 338390025 417205045 14171622 303318246 485359102 925437647 529617061 615601565 1039397108 841248663 361032227 63302164 303623196 997631116 232935940 654683689 306830679 422157293 742463380 696982741 752386131 817085851 671521797 825134550 27848221 494212002 281100851 144174289 614440981 988225646 214672322 1021337991 444774189 974859180 739086506 294649410 883528709 418414714 787820435 762454331 464828993 323614290 889519858 821310462 201940512 433697581 199505572 377745269 490163196 852904664 382151996 231087964 1045742863 827769424 725186152 263588825 1023718464 475808095 229986716 950152713 607620025 912062799 222513631 781214803 725650070 224939190 212300372 870915888 16912238 428083311 455874730 1046146158 790369508 11944820 492653186 366273631 482237808 65681429 360015103 1034092787 580105200 921127448 809326935 476504428 30953623 447331952 249822282 84068540 866763132 569296595 805512874 762609801 99277527 585526329 549757456 156830376 983699402 902820021 737210802 244305246 973477920 298924862 513204973 454402590 118527307 294263210 724656301 1063502084 803109340 45614603 241937502 178612633 571046666 272581389 255006355 140193140 847217049 336460823 109268704 1033655364 1063830424 140300234 374196102 885594615 180809824 453364580 143590006 346582443 1020157924 664879093 827368559 724014086 984720513 170832485 203384034 147900394 230816839 897527692 146153489 290391381 268883720 620960834 669479366 1034603311 186787387 876704199 479045970 260322869 245776183 857578481 1064065649 270968194 391594569 237203642 1058099 229323515 912113659 338252350 120471746 940669169 478073370 143669495 612065489 985006806 597664604 356571055 316542450 1051377414 992333040 22825622 987731892 129803061 1027467597 749520055 259110527 373127303 1033691069 912228785 393148517 222235386 896178678 846803600 151684047 398236051 248183614 662094625 226533569 925564334 953950489 147191835 556785162 347501076 472394451 128655515 480500624 1045048914 948328755 368344119 999556855 756602514 722784613 203903036 669373475 404715666 441832547 334688377 551295877 625051243 769322290 530693372 544358625 552312570 353611731 436676002 546481115 29548514 784101058 542866867 852080476 216906862 31682304 404375033 100245632 22722176 332283715 1002266521 864745104 482390826 792831926 292442970 490844812 766465553 561152731 464432016 475369741 979348051 902094088 1017438479 659846061 856698787 1045855780 39726162 927540032 811801352 433160738 300415476 294310588 1039644083 432084713 619743396 669260970 476926647 310597412 937649079 475414151 866230475 8414715 251620209 280756377 763642508 840300743 188282433 209405810 287238727 110072168 393696234 968051774 611252308 708642713 998430107 5816184 1029314420 431527532 250277016 664649313 53789744 883290445 871267307 55678164 158526638 996618451 778743169 1036624568 928197744 381370900 955879396 199236326 786217627 250116986 294360302 161308022 1068726203 180292167 25371408 605620294 598322125 833674914 876622959 841119876 261522681 1054875014 941103333 387034099 213455068 107513274 137669802 310341908 387783205 716340843 1053306105 857012651 704691286 182624610 249066613 327520321 963156951 327310014 982840911 1032099945 876022591 572424521 978784206 118141393 383475782 184396074 28436621 40426086 623807746 702227785 35913211 30065823 910228590 750133764 294841661 226516843 368704887 562218323 754127875 573558843 786991269 571996421 963851792 980498243 524640518 277366777 54529407 707528817 663719727 759513396 437931200 31239640 634753391 563757608 898594821 695875817 26117065 263166881 982617925 785773345 150207045 619239745 585144527 986201865 503508968 622522557 959498714 554934141 243662782 678706279 709903923 332110587 2513780 831686729 919308096 272579845 1062121317 790590686 836384862 156167368 39860897 820456013 617732173 45935705 813164143 950959327 553638513 31539469 997770139 625751438 700663534 772671146 240068665 718843074 452751292 473046902 500743038 3903292 917386646 249680218 273038735 954887406 434530308 259241389 126127217 1007239888 594449094 408464914 815298957 386268181 152324307 927618854 498708588 697050237 273702156 110547619 700195820 738196824 198256229 605722189 981599813 899543128 131107580 366203512 832079775 577325638 283050274 820997604 342526145 459243382 755750675 182928251 699086198 891241941 694657280 145806540 909397232 804696176 655134721 895825915 715425195 970707805 342964811 1053733648 388786555 676130692 998856675 838272720 17121342 438094502 20119288 550225739 684872368 464695249 217107998 642505342 83192232 566030920 271318423 471332236 621843884 379143992 1053266756 1067339693 552190228 478621330 27057932 757213531 569821069 707495710 922477624 43417043 39537918 767490144 701394713 750127485 214315896 932203819 305886192 7654366 728353354 163210725 928117235 304322695 325241080 740294643 812608904 119615125 545616311 48810053 1034026340 895509804 180687920 958308519 575415533 442223028 987388292 434191659 565422153 229572585 173788677 586100045 237190712 590536050 690821877 163849350 39251988 655535115 488438451 816886068 161118108 533281656 537030173 276405253 959823185 828892129 115379874 371449924 229037654 860011300 353412372 294062633 598726633 775254147 1016174728 195239392 205172437 668892439 619686735 887628026 732829991 446214097 773810296 1016587445 818270849 435860459 367674244 538357186 882483091 283350619 558394791 337297805 640278848 539695612 656405109 678284848 40581533 238305390 530363249 733753482 892785241 29001912 1005469120 345596925 430178220 692432987 365096468 1719109 513250321 81720913 350572099 654114779 495412239 385643991 683980312 455450130 847578421 423050011 252733718 279771347 596968644 879155538 808208119 166892212 477185229 310772503 420526587 714473038 342297424 604272937 589876864 915873950 631827281 517948273 234788796 203829151 972114385 208971794 506657638 545133312 707442914 200607866 307453758] modulus: 1073213441
