modulus: 1073750017
n: 512
rootOfUnityTable
[1 2361434 386698075 943832053 231206881 454933211 343925955 774511095 847903535 408318559 550287776 960957146 434929989 466133471 408280051 884938749 756720802 714558498 686700887 71718218 616973287 363946734 235749654 77129846 46625505 726030990 432695488 247082575 950424869 429568542 349348920 131990146 10994638 910329849 888858905 73737932 440707649 961181909 765411733 116688614 288649834 283810186 769655902 59008282 402440247 744688144 1033546797 504635609 883336468 970949756 593559137 3681015 467587895 8259684 29568051 258589675 815926050 231700611 273223569 220222918 56660921 1035702344 37779410 1063111495 361587201 43137545 875076757 877622987 631621607 548039959 435801599 336839622 187094501 765129529 509328635 980570295 458592377 756543200 81663860 460022074 1021595250 160644039 857085928 715506823 251063475 901636634 388213601 949649676 606240765 1016991454 319162700 408129245 177778572 803995639 406477283 112356825 671236367 940224725 896853407 963524923 604496208 265841928 219965702 400562799 788967905 842528577 598699744 463889268 901096861 291169298 182917365 201812667 528439300 915199412 177810177 274616019 576444164 75169613 22094670 517880733 31489074 33794832 1016545614 846194817 536100833 431931284 603552616 66896275 1035757310 986358614 354165413 802141044 729107396 169806670 668866215 367795361 294256884 550860259 990506365 246745273 82776398 178789967 52748244 52349794 817737403 875943102 126629315 275103414 467550370 516700245 915783431 605111595 677853885 414478119 926966534 956843199 910763807 220768442 849311954 893028756 614008376 846165217 431405538 344092504 2726122 425827033 911674907 1002001791 462366380 690402402 629952348 439394960 1049044962 702824791 431233734 517791994 935200680 810110710 952820481 994106594 1071029070 1057093747 928331564 987545185 949473874 1002677276 1056836625 420458221 582929218 279434595 796711999 972859846 321206780 861813550 903910022 93846993 66559298 935574889 783702425 784227117 702235827 137891373 241353530 365238522 184055349 953379189 707402973 990695566 352412435 566606127 929222384 50147745 995691468 553819124 189808139 702064965 388561657 368408958 774302049 50829374 1066311971 1021810139 796826841 505908973 274582827 579478077 400367431 79087486 390458080 34838633 553677216 93437371 220006667 499205079 841609479 258217569 439679952 797582831 80120362 972673657 885678724 93817276 759326242 701562048 350777481 935703223 1038468587 716698461 1000507827 907537866 630379663 190548690 325597406 905167082 713024045 9772643 416084698 124680742 941142594 482633230 333307578 388435461 867388620 814801965 89204745 691969236 462473722 766446818 546561812 650524068 600172326 1066536810 458010850 845185225 176263645 65176948 807336669 113189387 675169148 5345629 344872134 639986404 758766125 882255214 1038531946 9792887 975953846 802887112 495671011 558408091 447335253 630358253 98497549 806192743 362482275 561280205 949879357 739004734 837399340 144245646 854923454 930959959 420015338 576471554 329845853 212201232 472403111 884109415 859246854 65803906 626000998 474806790 97085222 756748627 922708511 511717405 420677157 38335248 441592396 715296025 685507031 527113356 841005288 514820268 356746691 640927187 766943774 466588135 317291227 603226935 871471910 959487165 605622196 607146628 168895115 960680430 902119598 553305923 563287098 562668881 984048823 585251479 504180050 1008341896 905389919 790383973 62347134 334699184 899106445 932727180 1003204190 853201598 99222817 847429940 892501043 4607654 361893575 891356420 755481078 230700624 46209594 1060920171 95920508 235302288 221863730 635843993 591243621 674307652 395682580 1032826320 1039528536 805015700 791916626 783694246 797558737 92480467 798152116 74053768 10314658 438713944 278483467 1055750011 715754375 708763795 748233433 970648674 430798803 1035707209 788655650 65466569 749452354 648345811 52613218 101117559 839289129 251172420 468059684 628077481 136035773 338242507 488629146 825486960 1021788109 314436637 679951601 823534442 961970295 604387779 844168805 872555377 749008332 99714855 965174038 389415459 62949100 192655920 652586448 244348134 207328696 605408659 1016122560 419611191 773769869 704153161 865516657 926547012 280844325 82262102 113998730 610216750 99255279 194299224 673962946 297727062 287045767 575518084 427155522 553218459 182826986 454022564 632422208 240681856 180193115 975340031 881799352 448022872 887218195 809171145 599619393 1031771560 319692119 751136303 12705709 970251692 367771456 752928015 447273737 320636604 911342484 918289636 332715861 36565400 97416528 350239038 758116089 253917883 395130980 924602541 969735620 404073503 660876184 372229631 320034280 207992376 166900959 286725271 739128805 689122513 862849377 938467214 694438338 621293680 987958779 511892200 867526659 364784723 170184549 718920574 957364790 1022215802 958212419 98374083 235637106 592460230 261119466 405311756 892314695 193611592 386404362 1002478593 35052615 121789397 123361950 575924166 504231929 35924427 469505216 705186326 1056436643 789378993 929693401 994438528] modulus: 1073750017
