modulus: 1073233921
n: 8192
rootOfUnityTable
[1 224084 844878690 1039769876 1001580168 193104829 1057274758 895577001 465804294 851195920 1034395397 835287294 375698454 323901133 397877784 210596702 182630677 56749296 933748856 493409744 670533076 838394542 131444557 790382864 652649630 899742092 82544668 825989598 57828651 249068530 888882757 773853356 384640329 327288126 592435049 472428100 857626881 756704218 787871838 346474050 475941139 319760143 815616289 189927581 640923549 549245896 897766826 702647697 104452480 1044179152 601342111 187416248 265954181 470295995 676104906 152064218 1054468483 969327607 67449719 49522953 62656912 365314086 124322949 850816319 757364672 678764876 563955543 119699862 561722776 992580541 127225720 935596957 354980722 621585891 1008063622 945915852 908382068 48933168 982281176 730483131 1017530005 427422207 936255506 892227661 122810513 6792810 314336062 266648057 337887034 571468148 743490554 869576101 667085803 14860809 897901014 721481701 547627444 981634156 630232786 378421476 912695853 788602208 879149138 436900832 1014530347 96493481 201390017 940659220 318868317 593188211 746256111 257444551 735044692 398438416 270889033 860732933 244445857 692559990 914588639 1004261437 11591665 280571040 364601259 303051710 163032365 61807820 59786375 1064253578 1035654984 828059379 225580383 710098993 941918189 173156490 972959247 348555361 7679628 487785389 319190510 884811716 767534762 84364232 732278994 978974122 204000085 902649987 242297801 156375894 248310446 585347219 589333460 911539432 302533805 18071813 292560359 674655792 618680705 382120124 110713352 215451732 931211224 664658786 288781328 635836857 477379870 746181247 653362711 777930667 722731682 534316467 721730547 501870616 212235917 458483755 336965932 228160412 380234010 316908650 415841872 1048088344 829842703 596936987 444817152 879509814 766077541 880799573 7274627 958424590 629426408 1058546373 363929675 64571594 121346974 460699360 984525250 244852398 567010149 958023089 811125688 611510995 396004221 9568521 904319527 874094653 69470747 24846643 870801785 575375483 555867158 334128091 741112921 404087745 852335810 1035832959 999754202 998697507 321717747 530677336 908479503 417879288 402764942 645910554 820762555 732566771 1071160130 6905349 848145155 1056778814 305555568 1009441675 654175056 361681077 609680232 126665951 1068689118 81355577 531734362 586397146 822946629 753937011 1030264788 359540040 573107811 46499343 803871744 1068114014 1071055282 123292379 661861454 220047304 420803112 912250348 768814441 286496361 543871946 850014388 287523275 986809628 204831833 541366565 735559067 825616369 135427253 318211056 344561464 116354394 13148322 301473903 768922507 891211643 1048258174 249607267 335791592 19666497 248834122 950262614 451797808 357772100 429357700 1062764834 134459998 365093678 103177043 719377430 163855999 28774664 1025644329 659339249 628538451 629865370 685386449 70006932 1046360952 113145335 1054332357 516218811 4336981 571351899 451563742 495788685 355889383 323532425 415326229 336771879 746578721 642511084 1050010985 222892305 439058122 400204336 1035223385 704681953 897491480 176348130 321391700 448668016 916445906 773318517 737977005 663705056 146698287 657177799 310675022 910110262 945345904 906991035 651765407 234556824 946536083 371815742 662975256 814985000 395040877 932843667 496248937 460542135 96403822 501687160 958804532 982869777 618777332 570006372 519223275 338979490 676044464 560020063 439882604 557194412 464717310 899573331 902325900 599493121 126634594 481490656 1072847053 241018689 81299393 820605958 1058404016 661021317 847957892 950259641 858829997 974035791 107208832 515822224 213951116 589392753 246111071 354969458 243971557 659676969 106578540 944347268 361297179 442994480 276767346 165368237 828429541 533950074 184699531 16775160 579762098 443831182 1025596060 575367863 994814920 688802370 307462623 129619816 797244521 295988025 324276300 754553974 834625871 267668020 296450753 983761036 714149782 703023299 558605210 1071203568 81560852 381518859 604321138 188203654 700677241 729165628 925516028 537490391 393226540 51373497 471665102 526176488 107108090 479064237 407535883 796468282 217143151 26338386 297556845 924245013 130354196 82028607 21006021 982466179 330572464 321561635 965195321 289147518 54144900 96294695 732452675 188452249 598675329 395532557 567370924 236150193 608139386 429053449 498720773 570737123 64040446 228543773 426586654 444899308 1044378261 142658585 160790234 982833765 61701771 980282442 384718532 679586442 67516675 28016363 673482563 659144114 904497872 55466635 63398239 133575799 778520347 852812519 535300415 122546453 936271346 148782537 847499164 113876984 800376960 330464567 827950470 505196210 600300639 775199378 427902376 137819681 879320429 184052120 902141892 149133447 61505450 990478239 184675671 36300525 326956841 409907658 1022506487 487370776 782402145 308925620 627493659 473689620 210319417 295066155 882105973 830985715 224730876 311576422 58216793 293532857 729411661 249410908 337472197 984484967 877181915 712843631 1008343048 240010297 569143796 411848671 239491653 258585168 899391322 899910142 176673633 281499324 170812441 520470500 781326930 848079785 360448707 276398849 230098406 1067177422 476388149 676794330 95267210 161563029 289933343 134591156 778187083 226822892 95666289 510366222 24634967 659889525 514684720 747177978 772176547 270444723 35491625 441941890 519652406 982551525 137034950 1044022069 818274532 214825838 198789858 1052648967 560322 1064060212 634785080 902445222 506796144 659781481 988133207 585146273 636374678 792261682 958005310 46838015 495239801 781668042 12978881 968878015 205064565 104421924 636471974 56826205 996082476 320832009 599238729 2855479 219739320 93487400 577637601 893906358 660076711 603949425 605513600 164612133 968580323 37553539 993292636 857701392 281684406 861838331 29415538 821908331 979728836 825606464 62343075 872902564 176645600 439156078 885898220 611597031 357084667 932305952 205120029 727443769 375441511 701717655 977535547 885770006 858206922 873307221 702155424 337043411 418221912 979712967 489319231 593786518 663041774 695329618 141469132 858650511 463750044 943991029 1026381178 497386731 1065533554 231106140 431885747 890138494 977135962 423580309 761988716 109072886 732503491 843165583 304410685 962386622 892952429 473400954 992156654 658750181 635597022 395889780 122785581 859334048 161004449 689461380 948012286 609241126 467557779 975513574 698686936 125737223 89750719 369670777 819434804 490607804 642453901 41788744 222949771 437462214 169651757 152365926 1048666932 620851654 682089627 763117453 831003359 958767209 132020092 970497284 304273863 353315362 926460159 675058958 810081285 542503921 169167773 95921291 770836577 510105123 544392306 471867239 746019314 856721653 750804135 897863538 909581085 420978346 469730927 695009872 398179175 133760523 316090244 547152259 750436795 148624974 956871265 281937512 697445422 963133507 833439093 491719076 670459077 354911441 122097181 72359151 109914216 371925115 487334405 144880428 59717702 701007940 780379795 37362882 126232367 500504952 60451626 956843643 531692790 929882387 179344595 1010054135 522719808 395317932 768868869 677367182 747398179 746937065 449123905 43420166 898984079 868153015 526757116 355248401 503067351 72921407 534118963 466834972 1064351857 520494079 698833961 874669693 138663587 22748516 790568515 397945395 335865132 400295042 969542190 929774167 613354298 255654088 910420254 649388367 975184201 944608153 866819785 130275834 767334856 364452810 308257545 102090378 839237637 166374441 923523267 456945603 169801805 505470407 869127690 1069343853 837180061 587100087 575391286 877364847 922088921 1013132839 321615741 210677173 1043151505 1067384778 792491450 930109614 655285376 176358285 450496878 759800492 230987967 782055240 919141833 656726862 146896888 84659601 379242888 381748049 446904890 778202250 405803157 1030974700 600840340 438125189 625460559 1012925645 41814048 527001702 428127654 177020746 791126504 939217635 326145398 1028281016 146818486 761002490 197793628 1046101215 938105082 11088618 245348797 185755881 616445940 807280971 878785330 479126956 509819306 891410938 631254272 678265127 194528411 235515188 1053790459 360980452 302980198 236846172 946979077 902162506 475465339 1023985043 178831891 957320546 74632542 827584506 64297230 888331816 738691227 797573475 1029409533 819450479 783422741 409334511 304270738 726286783 835999569 73275325 422169921 247376898 672791782 411859134 437614703 1069745282 639346733 303969361 806260138 725268531 187609653 675563361 75927511 163025311 627587126 1026704349 1008164388 988051855 600441362 111954480 364792945 327460494 580924805 192023767 286209775 718569982 604211016 196005589 691422472 371444404 91082781 504421947 964245749 5571828 386455429 306500467 245872833 631341516 910039045 12030570 967872249 208119631 1045823791 1019392884 380804774 501152227 217843391 246766080 98959037 1050805327 65394147 919312935 361526274 264290252 22600546 903110586 424707701 109292288 528220893 1027907764 219263156 716145724 423145370 963404651 418137692 352335144 215009731 623379872 547781651 120236151 533307900 97126329 345623677 956595745 789881250 938539759 824196596 737488858 747632650 699674500 336840873 108521402 575663750 757854326 932531870 387734854 451715260 105062725 416377844 948638840 416324011 691097999 642143300 201279125 775916475 132778374 245167533 350282703 713172796 715812359 847757180 1049736515 966124243 238324292 540739568 829206970 879454908 268094568 361213816 7656645 703832422 493590893 480236594 171671226 851576581 475721241 412897077 132273058 774732615 1010706542 756876740 810870530 316083536 117230708 1052521076 319549345 801449781 328087227 428118726 322866636 402178972 273947436 403435266 602044830 963348178 642249012 278500671 65088135 1033890871 468644815 938788531 761857552 767868898 905755107 594427073 387822980 881131266 281228290 610763082 225159205 775433089 210335971 784850928 619481761 655888021 1065220340 878298950 959010978 21822717 467972152 458521779 271664580 784511679 798817236 695529997 1040606207 594039797 537415397 760013780 803123635 853348534 445486523 622092038 664712344 484699069 960138675 510705830 998979569 206497616 331279829 1065353908 758200874 242317669 315541122 919598926 53498258 80748102 707014429 903123937 196751422 396172768 215067234 630075072 453956893 145676869 372571860 525961650 260876143 191185063 161998814 278092472 892340625 751855306 337003282 11826444 302326347 752345865 793566296 308268453 399930808 916308530 40104721 638680031 86233412 1024380924 884248373 99750707 294554721 40725143 144913749 13783219 904855679 814980269 408133394 534883081 1049259445 312528542 912758515 878112843 38298988 611994676 384551404 792062925 422332483 184966792 877823429 652521393 67964130 484767930 292278184 764554431 864605211 786981041 354628408 19731748 918498233 249609876 920426748 958928894 946322239 748323291 915587720 576438752 559507292 372135387 383632729 992607057 702867459 1054074043 586816169 274711513 976672295 626914618 581170617 539630004 110703345 119510986 93756111 690373749 407628371 56870854 268869782 210372590 404711556 44756283 869161948 160142157 645726632 389674105 347098339 848707685 469148656 78699549 1003182165 714870963 249824432 703467007 175714029 969614709 8379027 519758439 58470114 177318008 862281410 578809442 542414357 490752896 958231999 402221604 167991235 468124665 290759399 644289448 309910949 337769569 7055192 82078495 467769403 101539545 828276580 601322822 157995656 457993156 944673479 480056275 547957428 872628263 957747734 282809365 737179452 101669490 969556093 825512256 416516023 788558167 669370983 154555612 181128738 491701614 1050439953 829938648 631997947 972676072 214370000 10009961 13205834 310185859 766368512 615475956 242638357 269918207 107411591 875045298 593488569 437941160 170395121 377086747 180312655 70325212 461143765 757820617 891521761 780535221 522357194 705100352 209427948 152636065 408161111 306415783 587753955 63701021 368440464 947094209 943787490 492372584 78098572 488092222 388585538 40750778 523137484 618475589 567964983 274260945 895581157 323863477 545642048 405000186 328085943 140394870 538122807 440655912 1052483003 373870581 702165623 476008285 340829513 968304890 564992585 685692454 1027094329 391261186 746129292 816651622 372960617 708237637 256581633 551033360 50363348 565793917 1021307535 129891058 403903352 315703796 882286228 440358137 866373005 898014888 481209013 208724459 277393376 928265027 507911653 563996644 743904978 364012590 399519797 40202891 99093970 163347990 1028115455 610434597 670067014 505047671 585338914 874783682 997394480 253841991 530898244 1041667409 134498303 362759930 885743659 320435379 799217252 181065977 380006663 887311710 748083496 843060990 477939135 500150750 108760812 561918140 767936356 996738685 333722388 1054445154 34607655 906683795 491168191 647845652 858758703 23465989 579700097 502440071 103153538 818452615 410721733 993922217 269852624 436585513 116792416 502583359 14684100 1009896535 623800801 426650639 830873075 741523220 47411655 250715041 653184857 633350008 222713553 93250031 1048738655 594319571 982724995 372465274 252890688 932667071 633565950 316334236 486925616 839923358 353028302 994942379 273009059 482012114 940744136 28974683 770877243 1036833699 943686873 483625097 704595331 805097810 1062003782 239077069 728295239 140607053 862645655 634508026 1066644104 97322668 339461392 265946211 830814357 462565960 698490460 101200000 941283191 620376151 379633554 991800392 245446327 575989981 881095102 763325882 314314871 884253618 201837366 300423962 532172162 1026085535 789023821 911291582 571478297 871251228 404372121 182412134 453520050 993670789 810258485 540533644 833991957 957794737 83090407 768700680 552090541 836247932 992519846 478488313 140252787 896613465 902276334 224884787 457083474 1013937181 258489741 980405874 139772874 679180873 410876164 182719028 536584202 171981733 671022304 996701752 643499384 352806538 669938569 699894158 189923779 862190102 509592069 413229317 528800669 11894586 546583381 988815642 35460110 892572077 28083145 612985357 220890961 581668204 424587528 11293781 70035886 21851641 509974242 193370169 414623742 686061358 1053566348 583285415 62631954 138795219 542057737 1070460891 10785739 1061981905 702961006 551781571 287985396 437041455 328877049 330994809 517733567 295001449 334567642 499938473 836407989 368779320 679693722 496101933 789549350 618200708 145864476 556175929 837797911 590223678 773640438 968649662 550039121 489966840 826022339 955159369 891177966 1014418753 847677689 408818007 473251870 855069149 716800544 124783073 926786319 782389770 755587883 698563291 322952989 434294046 714749347 901706634 279066586 235982317 553001037 949388606 1002396679 710389183 501584968 597124745 662257905 1053191666 335289965 302643534 995438787 967005468 231705728 635723014 724599162 445475597 320218096 405099925 140087678 388281623 625232862 431665384 879076368 228816967 470657453 107281382 674607609 553980543 428057305 511444245 114708674 426096666 116288258 218403792 255295007 938657525 382824915 277713409 735867092 88885604 766580818 967561136 252879004 460937457 676557348 653088772 566917288 540803264 77186540 30758524 184851354 767628741 752109969 521509161 636877597 798801173 315770468 797139782 436800211 1004886524 563177243 652251785 827458555 818009213 862182618 979015255 835375889 910209856 724855459 996134732 224992382 956255192 677011189 394372921 434106382 518372490 727311488 783935695 518089100 544948067 513880327 798875694 916225417 734021807 858335170 634316186 1007726384 502650330 1069772691 341861563 415670154 132019267 785627984 881403263 57070541 1012940729 202195341 24349787 76415744 98368941 827505546 615601247 414264855 757770925 488678843 906427340 978337705 333244550 228752941 75496242 113595605 1068646463 182157846 353045671 594121691 643573836 937799691 264822718 210746459 470526714 861313094 387938940 35063881 109174363 933963218 232977707 185642264 914308216 413521323 495403992 11056851 639509816 358307019 93947744 702906081 49541002 887447265 6407 362472267 819103227 242647885 258522717 857162411 780099075 453303741 817811278 510706839 151846404 541362552 909543896 673389838 272399713 238031017 289773649 839674174 323044738 602332463 1023266090 58055989 749882635 465370370 206823194 308193753 832598744 1072123856 242464212 956465104 492639273 810970793 245505287 909175569 776214287 327179480 930984968 406303569 475735603 411489722 297308012 972914933 77602274 891978974 204196697 957662634 531471543 720730005 602306577 588797271 962362708 900377258 746205040 618823718 232027586 852278379 1045271807 750511143 710313391 689553176 53348730 917401222 197564861 225071074 344896663 102712640 757785915 627996240 404488719 552544262 550642001 358254714 178807255 802956727 1015123497 1004145798 929590014 130502444 31781888 905524757 491905881 674347778 284642473 458760781 166492698 592176830 564313438 898932888 129408181 595519705 531838080 216795196 401266399 768618215 317980138 114760560 247345959 179260432 395449100 110969193 663928563 862280509 376909758 229564656 591307653 50994271 278665877 595156125 625155356 235553616 5785122 959935601 80896296 644667174 166784174 440015633 316315060 482826516 985435334 265670464 214657106 1025069526 643254317 172142881 291757422 1052619812 980028749 417574133 709382866 381169750 720656215 165657032 75499140 762991037 407282361 867642247 907850151 1057043292 542978065 167093690 37394112 684972161 606045867 308165330 902862738 694100361 505761241 573104565 392356600 440312159 222544142 767376663 73627309 950076344 567794047 606659477 434406682 197060667 1006058404 220424518 162945329 949877295 1039922613 884012604 929386161 599365395 482597477 103454345 610751380 822630000 635882961 76209396 8142312 64176508 667311193 79159282 991535321 948375939 532281982 950610232 1353487 642815186 507432609 541293048 360084454 218907593 459476586 655086089 595154859 341465012 633351313 515143173 448703614 307516770 457523033 774555405 1010435979 229137024 283637534 647133315 74054703 131180550 658503931 189841993 780232735 353821393 557115137 945434867 450731428 730240563 323618343 349964763 301344622 776434770 365131686 34290347 636476709 44630024 480622138 707199242 460637310 1032154023 852710906 303365264 665262036 239980282 282666062 822287630 115852272 185203779 321122287 178624900 723007905 183903781 931996967 726730154 377592080 727790922 894032051 921784977 517882566 413041814 368501336 635494484 1029910850 467007402 1066734821 34106397 199113907 686938455 121929032 1029279791 723660018 352180017 870250456 453268762 492214489 68257985 865702569 916783204 156795158 827313495 509401803 707019813 1036358272 658261184 529053216 795472642 342804959 388536981 965477121 115217379 655952260 434877522 527846969 949767986 156670919 891423365 196244377 538296614 751602544 578481087 1016453086 584737236 202610855 836271757 965151541 137855287 272183965 187882630 671007932 995868267 615548898 489264670 173112525 780211476 956189242 923946283 803477899 818932556 634428677 457545524 448259044 497247543 999513471 716428153 390164067 669883205 99280713 153343483 90595915 875401145 913797563 820384018 693961422 495538074 6137951 603959083 623249030 205498790 816243934 241486110 719176420 196555841 572190725 603112951 981009959 278081968 685030131 717388295 895839795 325869335 341313221 962902341 548065357 373410116 549782979 1047274646 942906641 583246732 1053495871 889026162 711601746 689370247 918009613 227545738 15567282 368576438 292908316 300175947 764142794 921456909 1056233403 436344038 741038487 896362025 366759266 922627848 502617634 182525753 156105942 930719975 53477812 865296243 17277184 385746409 265083095 602434393 253001948 106638807 497176723 155159485 271932024 613333399 938692177 635146236 265948330 232414432 606329842 621617891 666114175 155058020 73161305 629726345 655892058 896613527 916169542 18901438 528780526 864340179 425416008 1064171689 930616965 581731234 596561075 994432303 809168222 927373540 361448051 980744177 821687856 943569302 968693158 637691496 730778119 579117895 974825465 1050154404 163777871 766516569 522429193 740415453 804820899 185012755 445057111 988786320 977506509 818222340 325006841 252313505 383262219 606256134 203343234 745897680 431336422 143862188 487250715 709501046 32568845 166400180 251817817 923840211 645586113 25398218 1048033170 271805218 102219641 827691862 509912872 393376062 286609794 204778214 331779700 388885367 687129312 1033806101 791254713 691487324 951698999 352517848 373163869 104700202 746551908 316397 66066562 270772934 602418721 1034093184 727926425 134302594 510095135 452709156 661832342 135917422 687381310 621128120 386129353 217992711 436737409 884004129 103508182 869188557 756623708 991845655 729055130 849062379 531088798 812413105 401137274 811087582 658437459 319805239 188569143 1035136321 513243155 758936739 933100416 74960119 179208425 547085643 848131945 243097016 17605147 897100673 607933864 523920204 3141025 885227845 644034471 55042694 582822164 359185207 480019993 1003613108 691249285 199429852 651719049 578809962 658938037 874998007 728671335 705457279 771747662 755231273 207278205 311656182 759413897 533181588 769943988 116700953 398632966 937074393 868701678 51455893 690313709 905665984 1014833240 356231470 780147342 536826959 908245271 518697929 673077736 95540010 117344732 845860988 70847182 443771856 610395728 546017386 799994740 539791767 942484044 330605632 241342300 690674010 77577272 655600411 1010456360 503257344 791189900 119972005 370281291 251912092 584680891 455404927 510283583 824767869 1035791191 226085058 36896067 697384165 115226971 658898146 521934531 437669708 516678650 16443041 210348651 406534285 660271539 259196216 451529466 327722948 364801286 50077296 860152809 109243882 413549999 481833250 569838637 495680770 858244706 754225709 255598239 201126069 822001243 335143024 645768041 9663172 649415791 681060291 850682244 763852160 189062913 64765217 579806466 726884805 688921292 125132046 779975818 737464099 565706499 750543001 336544016 128120516 750320594 940688115 354371971 510934774 786438657 90485225 755923368 749009561 152029776 849204802 248786700 1056090376 583299400 1049978852 535038580 477377968 319973479 325274068 32508997 707461921 294932691 1025508785 336647341 743687475 993830704 154698031 971164225 575565888 293224338 282211009 809413673 120851532 1056402016 656632295 420623680 414065137 6753374 63230806 177706662 1021476745 483957463 56123605 246816542 674346635 28514461 672947011 852708898 926638513 931681617 895279540 350056672 505236479 1038067867 606637367 846079047 638853693 364687864 391635952 1012947798 713011216 998272953 703778180 144399696 731994235 489839705 241184945 846655583 1043276197 31551039 691185649 964895322 677908625 800678318 246233616 984495213 1026678737 635094585 497358777 167659023 77871406 25820565 171419349 218134805 80711675 56944008 563001903 1071018302 422537427 1033813406 281720491 362038103 120950341 660005631 774567520 505511876 502561797 549154497 808157809 962344179 1041260506 178929736 344907185 314056646 974794452 540040838 947146116 769742547 52820591 625632856 985505437 949356222 185063949 111240276 234958038 700524695 889533236 575976336 1043170685 1072380214 806792471 883611272 75721716 196717134 225418023 817774067 758188483 685394588 820592687 231053094 350699014 630455793 981961698 1047247686 267771606 970503636 654421510 853149242 863162677 581602406 705583390 53889119 734496825 1052110503 614826419 651602505 220778370 36206743 776589573 710521666 138355752 802055241 774511821 903064212 765375495 255676175 493593957 93596049 239759934 274965196 941575854 734202662 602157992 563527682 833948428 862747590 938598225 1046684688 750530452 744215663 223345265 1056158188 753608714 444066468 87728034 23039899 617567506 995539001 885447103 407483777 925920509 1023561431 771979452 107199504 572034514 1015446620 430933502 7586272 1032877905 1004762923 770252705 608270237 773353066 967217674 561382508 943574420 1042321149 667359207 105989248 901211023 836899046 936936166 1018026319 27120799 686662414 513125006 41250327 847747816 24647860 329302774 211336740 735282035 994745099 68308300 334915898 192459744 317393032 561471939 592186125 500706376 120522560 318946996 1052150511 994107723 1055890130 787199418 993893631 303590926 790511357 468559175 1066445349 635331930 20879707 581601749 558360202 903760867 182462049 906333700 386556444 404433386 1032111342 947686991 695742974 469817830 850371146 811972793 471783798 293202927 850518090 469520538 772493720 510400469 186202268 833875795 685363233 233842393 765834108 1066289172 1055284455 292596764 246562444 616448216 244062234 587497338 514568927 557433470 372094132 798152598 940303424 9987607 370201703 662491357 777587505 25226465 124121153 707386137 484693571 801358764 324078298 388064567 281982603 69277856 803650560 873078924 1059678684 813502443 880253599 11903805 465945935 393660134 621798503 355484585 839660678 518508837 156708927 822536669 113343656 419070639 130216097 260036000 817751147 988352808 425456391 454250572 487172724 404708538 441704692 1029071824 270641393 103501144 365319286 216325828 400331745 608225874 491419863 162116287 844298100 800144757 885949644 329319516 743249305 471231235 967810471 316699252 715392964 239399127 989667404 939292101 914275727 645893694 262408078 38452883 753916384 701019804 219210608 746552823 205353257 401644792 774955468 506503907 641414754 77333253 709776786 647157508 129149310 541302275 281239680 1016612000 778102619 618002494 805103182 119315188 221147840 189510306 507623576 404585436 760598070 798625633 689720185 987440172 906009878 803134024 1034889368 983190995 691918937 4979680 776569201 438418102 795308070 1028040146 906635377 373808289 695566068 537668803 662846071 844009327 484771085 999263204 443761617 462467494 98513736 3496775 110566770 639022395 604919597 139050085 772052668 415224833 153462956 31735622 197159702 660305003 245305745 197596802 943134592 148190408 168636611 199980914 713995342 438975811 200602869 563749832 172214741 295924847 119138321 297738089 755236511 307796276 842778119 411875310 842695724 193450787 234850997 325495513 286030011 145988883 529712171 350463764 503156922 826138793 219789480 601201630 904889474 875261602 768227660 806035040 726402586 1027984917 336273272 633055517 772495411 889326513 401718207 54339592 794299983 510996248 609737500 80701411 976647595 458209423 37887541 711422334 195666716 955013531 408233204 362794780 109199691 170159244 109287208 463108094 906612643 645652238 890911745 386417844 470174695 325563731 547317429 199203840 448040328 855251765 855235290 383153153 850690773 528596754 466864329 130148398 115048178 303902611 873928032 295557818 512823802 159990214 941216892 789105929 1065403997 176771219 684282128 526375719 748996733 497181987 261503740 231987560 468963563 458442656 786442905 1042394057 906366664 260623973 565320596 134568829 67999299 852940679 276589988 131933242 827012462 666460054 388165544 371400330 947143775 245161903 161923704 618885968 229215613 722432274 1055511218 664562569 192769520 1046267272 585634635 600625144 511671170 522976087 941943555 491101629 757641338 427621402 496843204 545262359 108250069 948613275 53786156 200048274 783018688 19171423 926999690 299890489 118373661 667094009 780460192 881301494 863412207 689119034 433359613 603879570 1050634595 443505815 22729939 920695731 59381969 594988838 702002483 408897839 117349101 751650063 494389473 199172507 939453803 659153381 834616458 304833170 116696393 450043847 126790462 1065530096 529457589 184108689 699542636 838778085 218580489 140610478 556899434 905370260 215085605 453786552 611405381 340742907 879496564 1016666304 67953103 160261504 558631755 580109822 17139765 716130922 325955765 390682763 992094201 616073102 972496417 739447978 802405041 813018788 897532600 804810842 77867809 293024338 541235691 386105518 243120176 914454903 13479480 455542626 242642590 145231858 463481589 888620385 1008351763 46434515 228995165 692323008 399176280 336381775 262461586 223166424 690406621 261080172 834994817 303551567 556660569 1041241650 246537516 396651869 250543618 876454481 838079167 294391843 32324705 193462391 688653891 305945938 479931233 432127846 405720839 829804645 654619483 139906292 525470197 677215954 129874578 1003934716 851783650 727512434 736894477 637366850 962710483 485114125 596196252 809213167 266489710 271577279 539964973 45522271 797389580 604371351 707794336 730675002 10160408 455719831 241792733 741513808 84800889 915839371 86003623 1047570856 778325179 48143247 1057220777 604871728 144712299 1021120022 1040584806 91353797 60437794 3781597 613818479 167498955 699147008 190054855 183674698 40156282 387102024 311515112 271667726 416246022 386753659 594568685 997022679 651432545 771882886 1006216301 185896473 997079959 608157013 86046433 981501607 978672458 219661332 862601065 301707755 582951946 463939028 362924845 277369284 895802904 645057859 781094113 192743365 551519857 669931075 93842583 749154819 505005818 865856551 4966299 997802960 562791026 1039149158 355783665 244966375 349818113 709677573 953023957 1041844124 23847286 163543365 805936194 41273942 773321871 416320820 1049279876 597853062 734888541 824217125 1044773610 728862379 586004135 760651227 904685690 286352428 487807204 914647286 194074812 548459367 659565434 870983704 557623681 65979016 1044559569 1061225380 748772424 675118318 159666552 320413991 299444344 1028406055 261975816 839741686 426128852 889252356 956063755 708399321 1070659696 557214598 695141250 860571060 461249839 916160571 155111716 300002638 564789994 364115492 920299224 286922824 589587869 1039127975 975181898 428542701 884295488 998363078 507904181 1036108838 572256620 343853237 252635634 660544348 216994675 25493953 1036036490 458736203 25125751 93637518 946427962 828009761 912553602 36212833 1068027212 938326492 256766692 163671397 518543015 302814432 654525063 446573432 556908327 751681430 10594854 143830484 895529026 447713604 621537577 914008456 855838506 326733251 748960385 938048123 126295114 609062727 200851340 433961504 250548368 867619560 116992127 178798401 965384833 899631607 9004111 1070671765 41982631 740567439 518966251 698645208 434265360 726079249 480009316 757536082 452582160 108142624 483054157 480912970 410727949 240360519 702214211 631462467 109140983 966676745 623281545 1052186524 478173447 417258829 888240116 581632926 31989623 233321973 57302296 357066020 1046747288 826147879 109348862 326742057 575776247 209017970 581243119 687659357 679444650 491215777 578767666 840186462 282559383 528376856 560001263 520039088 699853212 673685604 8324955 208661522 126259641 172768442 949558816 507313163 606203609 238904265 642104859 173137449 999111487 789894861 768845320 766582671 309554867 1038034756 699629490 983159243 16207295 1045138037 825344251 332470838 716168335 123739089 951670441 392530502 772546771 592707622 377342735 661729834 776661012 620349727 897841464 256086553 154620503 770122609 433154040 687318041 395598497 318194990 1037363604 557953662 1029534792 983906289 1066005404 788217282 482105034 297950996 168762254 450484980 240116902 846472354 767477959 234527832 889296281 66614245 649103312 419720920 961204366 1057077412 676086698 364878430 165070656 685791839 759770328 984355638 873938146 415475552 527415460 846558120 668055725 565610215 639517565 1021500014 331998454 39396337 739780083 95447391 827587156 658119830 1050901110 64153499 877532042 824626066 383791448 69042139 571704461 35756796 834654599 265749646 786333658 173035571 707794076 672413162 354654813 570500163 626791856 976252555 1014481506 957579968 252320256 822819382 144002209 739932770 1039909548 102822986 800178796 1000907473 778901310 361811731 909835301 505318677 139113921 51403998 867047660 751423047 65730416 72207140 390166764 201003832 261493360 52463482 22529854 87439352 801291792 341999544 211220849 523577295 435562981 655790822 749158044 154442797 658706382 480047195 659742550 850190371 12842770 519130479 1009559046 124290195 1023806430 937405397 988261465 348396078 804861170 623228151 893018559 266800980 261999094 689799433 500672347 7805571 805514655 25713714 912200048 229728451 805193119 954547318 41049649 954843546 953735620 602281587 355107716 101593520 44403428 146078361 188855824 881726265 529978002 891071913 860784563 8329646 186605645 1072558099 958319734 744020766 552636678 868144446 753049162 625784857 703012049 184128052 745545444 920194752 487565438 400450992 498722597 979466339 1032094371 364459190 664679544 647381316 912180816 213080647 859790979 594708158 53672781 552138878 935457030 123362563 290464095 1011891014 16087980 66169681 840178589 664813893 702292844 6882982 128994011 84766631 751807146 277457052 171762917 1006618126 76800409 436927121 466071097 536379796 516926232 760677958 455271568 677215215 1037510423 187490907 897332722 17939851 772537339 625615176 243402080 763829500 477489078 533566536 98684019 598005312 508192069 79934249 785345347 867775094 626187511 779681621 279892732 765848169 997432533 195039075 904351338 489793330 581628655 148160780 1042113306 242126998 518577598 539673957 300762108 105672035 652291917 161292354 810330140 498763849 564274218 696229776 84497256 490279222 1065625562 457182313 624263316 1038405483 61372720 225124786 575323340 677028277 1003818550 578455810 718451423 867884085 364946572 409327690 922261616 1664142 495425341 502090483 112152379 708201700 789546293 1006409841 625756993 898538999 943600948 547417975 192041363 1009490076 767725530 976297825 426424976 705399670 741299558 370330334 509324494 555052593 252911201 163132558 1048777612 738088591 983962097 692878224 319063588 347704214 314893218 621258325 585670706 97687740 580477444 829570017 666700860 687241198 348054421 444602373 1046498823 957280711 807351691 627496995 147999923 413352711 275339819 103116427 15108738 646659158 73215694 1011857890 106167011 1025400038 652564776 130295013 772106208 607109062 295223248 667414392 666491657 1030488670 85919841 518341825 295179154 445759785 681400549 897447525 1059075120 791941113 1030294221 515600886 1057641011 328002336 723614460 875700355 348234180 1016063052 116305981 970142761 280652085 280512382 99089039 131623707 152142466 343616658 900763048 263623799 933895434 68942745 837011706 424625502 1008022150 238575572 1040403196 178347555 821998343 758533345 690608684 464340782 237918817 905162953 983196341 816638080 558116852 34615517 521964361 682691902 495834507 964761142 660867293 677129348 41066252 382374514 234044299 933913530 904265046 471347380 163198626 828284430 213914380 943314297 707550551 837287033 946667473 836896635 396669642 1013486787 216389219 653199616 720904001 955605085 958247457 646410313 119196606 479666977 244451997 995201829 456971125 522704048 83455855 20738395 39627250 968460567 32998060 828795271 922413398 743330279 371232394 878560386 514769947 526974468 764827524 886043526 975329105 145024538 155445312 1000388153 316861898 671805914 580801948 565817725 990129802 451595196 31489374 825086762 587937496 409413467 825304306 1040540747 950776051 668784969 845966719 152326324 760363732 875691370 481307282 764556635 285252426 838760866 653013777 933480444 447674712 492334017 21722312 506730473 969236011 1006930075 219375260 79244356 737046959 462657866 901710065 1047898790 209947086 573892189 875929972 286501800 689430901 557559576 726349090 845960384 879222026 671426609 370100087 429883954 932134860 502561457 472965937 102860116 534546348 719156343 1063790978 404853000 616309870 366720879 906586708 200203303 105817731 30182830 1042341499 934532923 179916328 338201187 134690214 437587614 365703411 433878648 1002055042 354612066 650686704 1065339918 842967477 987850463 547541116 955121182 919953626 116782904 517564193 977419189 569418038 690759502 989989943 235214749 270720685 699826936 151824025 892756321 531326643 447976035 400260126 658062693 52986733 292209549 409823985 517702612 871118676 752139541 708717683 503817397 721737595 1007980727 615449329 715357215 814491579 370383376 589614891 654922297 381941645 899314114 770575406 1013728414 699437837 966145231 648463600 883842526 380814844 611210265 620959924 259284124 832095160 916568505 341710887 995074842 978532084 961111546 649045031 238688368 558567956 235815679 775278680 1026469008 860473873 147876551 671743409 526472501 971616001 927350498 564274128 676062216 245023547 282341509 1825885 249490439 987354065 929019468 1068343100 890334298 851088737 627546287 461209241 404669707 326170256 159157562 26694457 668060655 597110414 670611864 248548077 172956173 87715380 407182726 5711327 522165636 709374320 612615728 31958042 669162616 685137308 49658980 493581392 497682352 768966616 42993589 827722580 953921658 434297860 496171802 347565531 362035555 623218230 816349037 182240500 629507950 12593323 430212823 573275307 16485772 126576766 401968156 255747416 359053386 991592817 953502551 963709920 137065344 342193718 793150625 534399216 1019480806 764507644 39492392 799490283 188611084 774338076 606010788 1033394062 758024643 461425342 533919746 901317426 1068962636 198029592 260162141 106615124 556364956 266367339 754276061 806336597 686764351 817663373 637814370 360793589 286094625 672911486 404762245 671010949 598695774 683994253 412229479 786991766 611461466 29686995 476745222 198596387 628250243 441099158 566065014 595474186 1064097694 448030200 732196855 817915103 165081877 1053770561 195092704 42945122 699382562 385475262 679712244 353650097 808843429 53131635 565411687 155159974 381509100 563953224 673282987 1013180412 249624663 1014255093 664043563 874326405 486157707 481230362 699758091 823269860 204925787 130276281 867500404 246887048 375104324 269880417 225148599 545266027 930190181 464084347 729570011 316392915 757143600 508827194 734407177 281638649 267532032 947499470 531410129 910876202 862817504 506698186 173639429 795236102 999671649 744867712 377280125 583871567 475378360 851593385 1021527014 1016096849 177035482 873526565 484875954 887581938 127521151 596454059 625005221 936187748 734018883 203113554 793512768 119073232 737609507 952295141 857395572 439286470 54109360 718220703 682451813 357427081 388962416 780834692 15279735 327929750 556762051 170587876 641041327 110563223 917430368 289313599 780286390 571475282 195637968 952450225 192519235 769567224 475396536 631608485 632420865 224014215 704401048 198742878 184287936 83038386 917200047 193290843 883913015 77763105 441679464 742050277 96721133 772566498 720277006 1049701156 555375534 712149538 18891860 528971816 800011699 47096639 494108483 554610686 1039377666 45542129 954313968 339510378 510585825 938627174 21054957 142667672 50573700 480018961 772358420 242385057 390838820 545251596 916135740 1030285438 693938956 827436535 176615217 70215432 545582428 997153079 894670278 124898631 1063871087 111021499 579293136 533874632 451097139 41212370 928062796 267004931 888330296 398083547 169734191 379529725 263295097 256943094 1056116009 961074967 1038147763 265075974 79966150 421211584 146172790 957439361 941558898 154336121 365467860 239130493 894185724 1013960037 13984040 829803961 501346027 715965751 876964636 319622640 53943825 114429077 20449936 867849875 211670379 372069241 586647359 10278708 134009006 188990924 31690956 920562968 359867665 1008721683 300575878 230631634 352841422 974247378 298177616 508684047 854472459 89124788 702192224 1070697164 367322542 502164354 566952728 969702777 424798161 1061720350 47302120 390054284 753649616 1023678868 256884135 723154505 837600551 367596199 649986045 751021028 131354184 930684031 584873884 772691499 826919144 146833841 982110547 58441530 211504478 759496792 863648111 962968841 424376463 1010530766 4708712 158075465 96936455 727255101 1027318239 123915339 736820364 128338173 155011416 362289779 709351233 805358025 344156187 525146411 28626637 52179691 823542670 162948330 549119458 469115980 269168212 543257608 560639884 884675759 352296162 65638611 964853940 1063969826 772173155 583585716 814778136 189186904 1018316436 643663367 608819796 498831107 610440996 1030746609 1004524904 22465238 633302502 309718259 88380449 258989503 279512177 275041308 825314526 110977464 370859485 1027865868 490145181 6497985 789273864 60529381 135518406 352695409 452087916 972297912 260244319 276413419 275300523 956616852 153452633 938218253 686518799 528318976 468826395 845072253 411550407 1017038500 832109650 943843902 254592140 129561163 532852721 56017788 146066176 678094047 494658847 460476347 379640524 407198030 215391100 223357188 508209957 868647078 695276545 54232131 325155521 298871074 282607974 684503290 716480961 418018808 543180913 546260240 484760505 774922326 592549426 344869664 492072250 391791539 460785713 1016640324 685654309 1065281517 635044845 83759827 522263020 1066892156 946877065 580817839 907034806 801040882 998480917 82890632 4910341 264083619 941743898 826987123 354565183 877295742 462038995 669796710 35345711 1015200665 51283253 640873105 1051125731 1029365297 565975944 1027756805 735252072 719919733 409848378 617614019 686018883 121469816 83544142 486231925 1013787859 68070244 652071244 80764188 18693969 187355733 657551894 427133164 560379154 413886173 686673396 827547652 391776862 391606608 876830428 296306956 958171718 846254973 351400400 34449830 957345888 387199665 726622536 946500351 950717622 454587985 969652946 1064041488 731971948 861849202 318964860 762251403 1018394860 1045484247 59389658 171502872 689326080 679996874 813877678 178933580 133052160 421896060 53842071 924132003 564235460 597053472 789627788 1023158764 692396788 833584985 986764374 796473707 359564930 784388966 131645369 713314390 247744625 435516933 1069510000 504877174 1016110322 1049651372 131916888 382044489 333862748 309857764 225435160 364965891 445470802 318969237 669833150 688329224 533172538 888451630 756243578 596274494 97016838 494822616 668535629 781026051 1039646972 291608257 897381503 216642245 470879987 604829872 424557684 836368332 68151500 615264091 1062608142 439009263 184023390 903612098 115961004 939159005 66907530 902310071 272169248 109740165 6301987 871848793 154887456 488919085 5885697 959271560 459447871 659917555 356355714 717157892 781442151 909648245 445184892 645148057 601578246 513029459 95374799 659390243 249904816 471258606 661810109 520027455 239551882 876133352 784881038 927247475 16380537 156243288 583977330 564028190 300221395 215973216 804934491 954782300 108294008 62300941 17218676 153846789 183855914 938107349 519087046 936023963 522374257 235709960 696488546 116082202 193609691 425975540 877971620 589501886 16690060 828424276 427381735 452999226 194609041 58431451 99429684 265109496 79072551 874716495 967137666 877846493 454625164 715000614 325223249 450357332 613558337 901704682 914888539 593316014 407547696 223870811 766876742 738891650 633336325 376273944 493931773 666382123 96818076 1031263290 875206640 257695983 195535167 454303282 493067233 118906543 948458866 869919193 275671219 311413478 35026811 388251851 393207540 86713181 136311499 988550256 667803262 874089136 979667161 957266737 895703638 939047856 917809118 375648840 1011770688 957038542 202849545 661185667 112976057 685028240 293645451 202311453 285577091 611086098 701203842 676292802 400428563 838912166 213437505 333414976 855305490 15341138 135318629 661690823 620791456 71488047 238019102 839514552 1044261804 877356222 62598342 119521258 249079117 41558302 99812851 267989844 505387262 482640167 10495016 309644433 716897801 453842241 211612205 215013677 434381415 974533765 78886864 48119785 92697653 691567818 744139838 403918701 535467349 1039831595 879779591 44453312 591945407 221350114 440052640 23120280 384686853 20232932 536251984 853617891 702980935 724615923 981645758 10353591 815582363 100291244 144814756 368948148 948160039 448072827 625120234 951146736 21116671 19746675 1043698338 182009835 456400298 324343179 715792916 783827652 991761671 154561131 344614413 175804979 958610010 322958769 656265645 899236997 661632314 388667752 218616097 607156103 104019482 607308210 918512919 320805737 78273486 1047099842 408548261 128588782 504314680 538573583 568356522 6704699 961515237 958089711 714775042 220141488 61252148 37716763 5992217 144319057 907061216 279695796 638232306 642213086 813930255 155024917 167946100 13198614 838767221 1003833676 748248631 283985095 183916206 496538904 1043472103 1001594303 140830406 470485020 104226166 772827063 80858811 830749802 1022098234 229288809 1025975923 911108596 350132471 318836859 1056591186 117245735 126895660 1027572466 210720594 40763659 189861725 908922539 957637580 283440612 522654628 814797706 281575100 1052492810 424994527 1061608333 703698796 600692097 489492328 745633510 262931797 413003890 456211088 854766379 484624887 435648202 434242808 1038706486 970825870 955232459 97734790 391290434 860734598 617545717 405908409 1005117606 829727923 634189571 539412670 778391655 992310258 735463445 862934541 975203190 906803545 494379166 36006561 994830967 1064976555 984910981 822284122 402999521 622849061 730494758 403252910 521871924 360483693 603564226 147294564 119072942 672625147 634809029 902863333 827430341 935106763 1053442289 687730405 501655867 385947446 238433521 332830621 845238032 1070018529 695293984 742331244 809362943 558643343 1030327372 431572123 372222943 685320855 396715930 653547769 390344620 346032659 304801027 426601828 625448161 381200055 1072118309 72704185 153670760 448228555 104553993 180471982 356237287 1010410049 858042430 503235207 123578076 287952742 632439966 211307015 513788661 649436249 972435079 946624559 879661148 334120125 29293698 350361796 191671951 869183385 670895181 414553366 1014434589 103336229 973693661 714192224 554491138 8197738 678683161 497908140 922450521 476129243 614733960 324464448 1059387487 1028183076 737943867 750646911 9966194 938060616 779308684 422923862 695766345 340715389 79322657 38071586 96839195 397523681 281090204 791683567 199754170 346287133 446955030 208200879 1007223966 608376923 1068832428 1071049908 1065532805 63267224 825760327 197094095 984100909 674642723 909828672 93099762 646111610 798370577 417149294 1027579359 682097685 422318483 267492555 687206770 145927916 820023916 493408929 487904616 205205553 573793207 160325904 1037600382 1027652885 1059589054 47064101 715500738 778681881 560044061 451280831 420761500 173538308 673550279 807941364 756009244 674236567 48416932 138082899 834397086 515838288 593934729 604503947 369886612 889078499 633912923 794589656 1028045520 1037628872 972402519 89853045 761377820 590995510 938181045 934672695 376801467 647664395 1024854113 668174070 253983170 1043069571 952262979 89809490 660504489 944335808 1012996302 849642342 630213249 293428052 855434303 976191484 208254594 165088974 497626867 141239007 806548219 885576075 330729558 107094138 572346032 1061441267 830068487 749524556 718139809 800377374 423235343 733469884 603122553 986196685 228054509 260212420 640995350 540192365 558436912 921501771 376750601 1054980782 931307176 701288334 291387552 809682649 292969940 157087390 844559802 415510070 749709525 310610286 355849411 1025552066 376121656 712113053 429058488 554646128 395491426 1009677209 845113783 58653638 519221026 908248495 167910824 694282798 604084951 924171996 940155504 133733878 784775590 909184105 542527469 79728200 762119834 513202931 331253291 484782321 297369265 746691212 92330224 995619699 723601078 23476109 700962335 220134264 588937174 115368930 272621072 472280807 48639899 732659761 444052870 260335565 331737584 610468912 846872027 176153127 626930209 855162498 170139440 1037697277 202359724 369996645 861333088 575338752 910909122 727025337 1056110271 748514896 921845700 172894325 180609121 1036343175 494966799 780621371 508983216 279721632 1061496925 423328707 190170040 237176134 833043336 887322931 42828297 278383366 609762540 325595166 78760522 714214924 275028333 64292468 894477729 980339276 241501536 956194441 1015725078 581348556 703257803 518737417 935835360 115582524 913326444 427078280 67326029 236654939 1024080345 69806839 211311901 535429164 1069055423 598667201 720645647 1017239083 703725940 243824667 1014229760 353493196 1066559138 376012102 847194700 575336952 507557922 717849394 117057774 937199776 1060943904 995305779 139356663 784306276 920349987 929759706 592577337 159874662 805476628 90342814 1040914474 984771281 641533031 823702417 542975685 707007691 466479866 910089107 497784568 62790498 249249522 663405087 542181914 992457813 529926514 85774131 64079815 464635401 790053632 930166691 566520792 770809043 779579793 1073013442 1036178051 1056507618 709204601 144490567 703286900 599506039 874883864 908665427 224349985 818711258 413848011 721051156 660434554 298296162 242097886 434447716 806252155 9639880 796220868 583788267 54157817 844319881 314748756 446653147 174787730 534976346 483775285 15837651 852843858 45231444 21747372 756105908 870413923 593654676 96674913 74509307 43440791 154546974 391958988 420240194 339701993 519084645 397998279 380750257 90337930 1019722139 108441645 948372819 906373823 791607408 305483550 969868978 104595810 965121242 860971618 68239347 982160661 555847896 310757767 133730264 1048169935 868103690 206153026 387016581 483316478 234986279 589477413 972085854 1036965892 515473297 371069481 862317008 1043114227 226618873 527331296 231729001 484660341 867684891 804582958 527937761 903358015 61423845 949080076 552731103 562597726 653068798 383999156 464023008 936522508 622004253 311708982 785475966 86853302 411401954 1021347999 611354666 781895978 647795218 289645457 17979992 108387894 709206866 652040827 777438607 1003052505 637455390 411663344 566799104 888507833 471629578 78453919 696359216 112614349 124596843 1051745918 482939275 495308986 186410767 332873187 724492287 107644359 446167681 859484528 610913218 597983078 892078018 933693973 580703 264946611 69103525 375283912 803022732 780513023 914310167 850709207 366425526 189974237 363447443 400722127 81404440 748811644 877821430 204577477 425654474 838890783 788018938 38978899 569954418 682736270 778888130 628086374 210631476 462290246 89727981 640618390 854967484 473213025 736397537 897391674 349332767 348030530 457181134 360068280 887508661 879060619 992653735 430321201 174670876 107478714 890960736 632177878 509445278 789966424 706459797 40867764 980214204 118949434 900540421 818469418 956303422 752243299 348079093 607033216 471090920 649247720 582225562 824462764 280379394 349155835 410055319 840722460 188936063 617025684 857331026 1000835500 749412393 268586300 7393441 751892941 184533254 319947127 859616026 26961262 353692699 696164708 529074438 184813685 912479913 695429693 28763091 578788039 39280189 470485755 268927906 356223954 169165919 753703476 214036056 304877135 309444164 915643887 283757728 749837586 29715543 434491728 1009531874 474883273 453611940 120071129 44471366 344622259 860734122 510881733 706372344 835494211 593428879 1014408173 623336811 557605816 355654040 175393742 31861387 475002016 231170327 863124482 608585394 561555468 1064721904 803094110 676671960 578190076 199579422 897711378 83211196 1004734931 937096903 546662913 565687673 824873301 1050269217 133920059 648835875 592467788 296076729 883212858 949168304 1005003677 1057675991 653823209 937708083 128380145 974393696 888682698 1019657082 555483751 277467583 385123679 241663505 760902523 334700741 274745001 968159840 258626015 393445181 749796896 570842872 149553100 727677175 89529486 163655571 191891394 674088231 78944259 30613913 1050091581 38189712 809371675 368876989 27841577 143157695 387027690 826197792 561714344 176338174 236879238 843903174 308728495 457525920 348251992 714511576 209491999 553399376 59135718 149009725 241466748 673397696 960017864 269741731 271618684 159057704 188026726 763598366 199286030 620527631 1053626323 70682342 1068952531 80128614 336841246 192104734 184642346 81338672 1036530026 509163364 938350987 379534667 297484304 767476384 954829453 1015421571 184022991 814202582 4814888 339271987 752673031 53091691 200471759 161412459 893090935 386595749 626183638 985038210 354951491 510790013 544832363 344079295 466622219 612101129 627819194 440967932 137733897 974709151 743662132 681039497 484015232 122425149 584833835 384222751 126090701 952438638 815759690 126779635 785840470 200589642 819492527 546601484 752472610 217777009 396896886 420003075 866824047 12087921 940506681 480804513 791629744 1017688090 435021954 695729627 698670445 723303663 991270272 583001478 830928506 283916372 882700289 926686055 852743935 191998253 1008334125 386976607 111654030 652492168 1031746677 797873127 562891278 966105985 439934304 336764081 72405610 861527483 133557171 897219279 354792743 354622574 858893534 186386005 150274784 387192560 207739637 680728054 454826885 841624496 552793939 691098977 861297452 102518775 245098095 888846726 212520199 840730104 828600238 147995466 487844244 628847278 72849973 625411322 712040947 369766399 782116632 724065788 53861412 965204963 303297604 529013490 479383026 1009611373 44360532 192876386 308847833 368414287 447416946 685729407 721799013 818730866 514751399 663600120 243365925 174709927 272311630 891484544 1026672361 279568922 111880836 1034093585 817784109 861972169 1043054063 696870070 824026459 175696585 280395176 665947760 427306395 742253402 537958951 213101322 126558074 506325712 420421451 173606583 947610485 723715206 913354678 314462410 675131343 931892810 997959228 163230145 378550579 865296638 105790364 337079528 998826293 203283904 329801012 242172948 82898188 624855124 572103151 297391313 321125639 929754468 492059266 701986646 79781294 854062599 544173754 866621237 714670484 401512878 192454559 228751413 806329811 239364248 686479015 199232488 428195234 295342572 575165583 742928082 396969210 528145476 226673551 974223117 227845297 601443136 287590007 915108222 452001020 818505226 394431926 777375750 869845490 931750903 322654749 143984988 100683969 143022134 60526354 530450059 421334522 863763557 1722280 644413881 289273375 352602942 123157187 418047114 446699091 810997737 917054978 955900598 637479447 436282527 909448536 769418018 310970783 644915084 984518643 910797252 343128440 968780678 931312598 843037861 661269904 744163308 297000576 768397253 172691696 923750888 1021175480 589028226 127220799 906113514 415157186 20127502 522222126 489072428 24113037 686224794 113771737 827354474 33034750 464565863 232975334 727124853 818141274 404389954 958800343 44181901 947416380 157247226 171296712 641227243 988475169 1013750690 324963416 180571094 27738354 623681225 462430280 345323128 148876731 490189040 175492852 776148207 544983654 975720188 848519909 247674391 795710092 963088630 436326714 78709034 982151063 551557506 520598223 424691795 837947868 922936515 982982718 169434272 786217552 986386692 949460178 942027912 75945039 871067900 106389567 454644455 744869374 749707733 982285679 666299462 892021130 1064810433 249582047 50562717 165372231 650187116 731990310 683543926 385142585 185259925 23735499 871479361 10099085 666257672 113422138 833888391 288223534 138260997 1033654241 32110024 382411632 1038956764 172723409 517489333 300999764 772117010 881196588 966802365 868631679 464308792 582109104 485702396 410542733 592541294 669086418 782127412 993223466 383086006 829397319 604263384 125263370 157033246 517328837 826367414 1008103357 190788303 332846417 91933212 36764213 128328296 88201590 962438345 677676030 195088546 184437771 388412975 8564642 256987180 202744023 626540081 365667347 938384640 407996072 887003742 424353128 74466310 67606332 800504973 38813792 62070744 1022216257 918740637 906771762 884954841 642539632 1007757491 1033827792 285691152 412717118 589229500 153679133 178016045 589052052 100076578 337125257 513624319 312976835 484058553 170862824 4921541 627356577 879590441 588321552 611504491 11795806 949478202 687982244 53348530 872584422 792786379 478476548 723606290 118167996 729916752 742660847 614981046 957553701 805709354 725287590 165490925 416765387 858876851 740928317 893407928 586216375 24712942 961096689 539530806 419931054 826579098 147574368 571105060 947057158 153888653 979037122 369251112 150574071 912117566 1065042541 746042911 778262196 959935569 73725608 439397119 164399693 586467887 576364058 993519732 231053248 385207950 880469612 121434452 744908934 1028599405 659260376 126103855 680337811 1012795995 1039873236 551756146 1030053222 173277020 77721821 849700897 872644817 374298586 20185153 562081758 942158954 463044700 653072520 144805883 527118658 878481854 88747995 1054389371 413336935 1033126319 862201807 986027447 940947673 562535109 573641943 607969200 929514981 488550408 30280746 445838102 1059244441 97646921 19464016 1025140321 408772282 959350180 905189215 428686823 982712106 703948361 716051665 810706834 124382386 217656054 123664691 378777824 272037010 527869961 735737709 73541299 994822082 147224136 435793805 864527830 618879773 987483075 860780441 157889319 240719110 564175780 102527404 32251089 869037383 151200643 723233963 397890366 883553748 64320752 793066059 902722250 336771078 567087437 32050624 1023863005 736150645 307774717 304686847 598304812 7613046 593099395 162222145 954235910 19704242 121013334 823688070 547744300 336346035 839570794 768387080 39553006 430076886 162518387 796825136 763104733 127122721 393081382 794039776 157402594 643294152 512657653 491844933 968917119 381773933 880925541 330605993 322236624 893447536 875864079 546209682 961094764 108169106 1051077040 850830463 707107005 183245901 544662224 855072775 456095207 645302479 861592222 688490274 131947424 785269987 79313669 170472436 530398471 666862261 364669568 584730772 900599721 154609645 483486379 743894728 213619432 317455846 685043342 458060256 955434985 404746292 315900660 993768043 65411480 510425223 367007999 851549528 852980315 572512044 698887040 963251198 375261112 1060077137 1022029052 825218336 21015924 1055102189 232591418 556405589 785701143 103421883 849174019 863446375 832983699 402432475 198515875 831775892 207156779 1006114344 950110347 674684852 691158219 184440807 1068731999 31196292 617369055 528435878 907080059 209174924 335403862 67524778 770535094 566325574 1028169492 913688574 8839204 607604891 859475021 627014472 418942012 284279296 642383909 456210231 662726391 856484232 137018900 667175632 825891867 695787588 807996117 146473444 715453274 875098115 623360066 402509631 316198243 63619992 456114685 717074947 439771428 328811811 737477711 396236144 464573845 948379901 346868869 943380413 497813401 84400944 372979434 631890581 524819590 846410222 796731844 249304704 150001323 283291333 341870743 326293432 930080321 530596290 992344296 850197190 467637645 627229661 343827443 912016464 947614314 508498921 153586873 968704625 1060794882 872111482 1064657598 345189379 228415603 683056241 572596987 415043674 341518598 835543406 884902049 618270235 700477850 51423545 954281924 671600129 616734611 26564154 446559070 558315682 586646476 885646457 3700831 760426792 1054387437 1053192400 499767621 114395656 43976019 961612895 303772642 727270503 185724323 1057440515 475881354 874939176 424392583 329829162 110734022 554332328 911371012 125493760 268517798 755700088 84294407 110888588 846614400 400696193 709413510 808596320 488122371 705090528 154494574 455530519 749359365 191433079 1003486187 154365867 591666998 81915176 360547921 1043990405 162282282 477934445 522430711 7341044 816136724 901820653 71286078 55822388 362643337 516731951 154771194 194079181 454248442 9873804 626384355 886681756 179115011 5947366 826266783 996218694 794556533 45114714 695270077 751324661 556914333 1024296013 102028506 926753362 909890829 69447977 288623568 701064410 555596223 796263048 376546098 304955212 633507896 186168752 836113898 1008194778 285327168 415504458 565384038 398864984 340133776 683693527 638081518 123286445 405380919 858779756 448170757 31754013 25352862 543584555 844324804 344680367 1003000142 709318029 877510336 253594446 868188356 933472313 772115550 554033948 589690194 357377013 975097835 909579987 174934114 67037051 948577968 727923736 604974639 667508482 285876797 156668379 322250005 672213777 751491155 302368594 560117324 769838108 1833295 836718958 291751851 877481769 291590344 103066574 649422217 1047790154 550737845 370683190 159398244 297983695 1056681444 1024408829 697908867 710052550 193890266 1050776422 27649653 65416919 655984178 74553187 217141422 712131071 173668316 828947084 597792218 1052762618 783550823 133145532 953622809 7521646 503266294 650273858 851274060 299342500 744707500 966287631 361007570 1013520505 259416084 351670012 349085662 783917602 756672972 225546700 674915068 763652155 446967175 783233217 869395335 943206457 153478253 239846807 423603950 693388955 1002913366 582415423 439918248 1031807061 376920410 470039582 99452027 978882624 92206752 158368076 199110598 1018678420 192708027 145476912 641232154 1015717772 17424773 187828334 309716199 700001330 594307965 528473933 848725311 125917556 789835614 371347624 942145602 690776895 594547271 491423587 996605103 450683288 675176013 209385880 384975642 339191948 1062190412 203751070 910536619 967308923 617378925 593677116 832184189 475098442 374015691 1021977233 1018982671 756752088 782433708 942285386 890351042 310215549 980018946 367346523 509753153 19623059 174178619 343654989 904255484 475124014 738122134 987774262 643858968 437283519 909850375 663459130 846780395 34332538 431699464 1003221641 974939579 863661876 827783338 616776357 795303450 1066005987 918858254 432011565 106623339 250747174 341038582 595030162 302944410 803199348 647677690 784349130 864140434 741582110 364911363 32191581 413053763 899613210 179466447 411055757 716981763 1023406392 373705648 233272565 791333155 24107795 584810387 496070724 235515320 10135626 268639748 178661942 437656065 679202401 942020832 635898161 262584433 920365547 123571062 862695408 1051020068 963123867 819737175 633373945 220442656 1007679158 652398556 446239768 914519021 429256419 905225571 1062847280 364312805 59160834 410933864 233558776 532603619 44409112 346537896 830767230 634498502 5702009 580618766 300551435 119516027 150129634 58417590 213103123 530133358 287146424 252775982 986501871 1001617110 958578510 776950216 1032303603 27710154 743915951 676418480 658775569 958472009 522926394 538876553 845348979 173851973 127419353 323063368 484081699 1064575404 171805740 943461969 528231448 173412621 413186517 597110758 747696760 40424846 466897824 123204531 294740800 955162781 582518653 1034197227 431151775 623546759 381300924 64101043 928554869 1062831121 1036275133 273118165 246540835 67152744 42680155 352382989 203969501 488668457 725558758 828801461 163025516 673524346 362940597 587438689 251073463 477276230 60027828 435077659 299521795 138959282 815997715 875911606 463910740 463440179 195173313 934389542 247545954 992349251 887299489 156020774 90910520 539909179 421786627 216037882 270275541 760933493 835178695 724780321 257419955 589644233 790591499 182122446 1006343439 771406119 420518052 355666647 853952888 644074213 374717654 555267738 167936936 106160680 679958155 723440650 564081471 434067868 473872682 448695627 664225704 906321251 816636491 202047376 138012278 34635816 777709793 597162632 566257045 697191950 1045511672 838723753 922455653 552894410 667130200 304412868 378328073 374022500 401297347 190932400 425660935 140229665 8278901 621036196 178876236 161986316 697192403 73787803 424260526 788518162 290761931 138436215 587549476 392287388 1029519166 702071468 842057685 1032464925 760669809 775678894 556373620 61363273 254671080 647009387 207854697 706218990 814801947 158681423 654954881 170857254 903241503 783796862 531618837 456707150 397995803 899152194 976847440 164451721 439537108 409911060 711606334 644233718 700516681 166957981 750962265 915547065 52175100 868006947 1065506955 710099350 1021916177 216117019 831868313 525779644 259132637 156533803 216471409 825686919 919278559 171052137 570812914 949082075 1000675019 204907382 298945945 961492323 116364619 157939380 726249024 960683181 177121340 794720059 198721584 778812845 929665170 873250733 922905484 468835640 770260991 318562419 733311723 578492422 336743463 818411303 812468814 5825778 411189416 617275331 991065482 841897721 603811342 787106337 527375326 439042232 59211339 995957074 124332187 774436469 116395459 629286414 811914586 307333462 164022159 772618790 632504403 698566750 24825624 453715873 871881160 968410758 677171235 841401392 1000751490 169092210 335204735 522174792 614619582 451798800 580063428 353325879 63449824 960609729 889446108 370196162 494075834 751129617 853265398 61015756 727747885 909234232 1042846927 430065249 774554642 839459887 600283075 59089765 584016883 841351274 502448788 983259845 21593522 624267980 1010299338 733858889 840971372 157968779 874691014 623422867 523167942 1004222535 953381186 598603285 350133676 588858079 636421607 575960508 716070896 827130554 298139757 610959259 182695312 588377663 306274763 111211984 334577036 458515727 1061976054 465079443 482006507 757539069 48687147 587841383 336706395 24703038 888236595 865867083 218551145 4493108 140195174 865269025 357562398 660787256 987094897 808249090 1025511284 896633257 1044411178 6194166 322034091 584867446 403272628 647424552 941571351 798386331 727666867 999373377 447387966 631178613 896036507 403290382 332876204 327319794 176089714 369132490 400129848 442163208 744714752 444876957 328812461 883132311 71617092 177623015 522499054 296638962 229029752 930078869 205226322 934858119 71230164 405196664 353071334 978619778 220489343 737149656 937500073 738959829 885884467 749471542 644123764 745964728 430445560 137451086 922090366 263700298 904354614 150658593 533934836 1063043223 269413256 718767333 824821739 228389219 136993590 361779197 58889971 889202869 599158057 170527688 32680587 521614325 591301111 731504585 236969047 577218631 380784005 140087315 306939131 879169798 773540588 58540682 965202826 897664017 202708082 85374484 661230831 574400544 1027356166 36877839 905716697 573232001 1044643278 500862358 730107576 573909223 400041144 956460571 550100422 274499151 612038411 525759855 117670045 763392652 251128657 1039795395 280576238 456155970 309277598 80821657 17770313 344971382 747536221 556156884 863053815 871750181 595428389 460828035 841218083 707026532 395510826 1063971125 1063258271 162702843 274340521 482312884 724751793 304155129 577773731 274677569 883002446 1021498220 1003225679 806556850 673177237 927443674 1052080413 311542385 1016941053 460474522 1043921145 740733257 112939728 56918051 112623120 1016803686 802511403 1035894934 935319129 345738588 948698165 831300259 948803707 870427525 421943481 1021024146 1020985642 978726674 563026345 108675904 853604446 909873318 438448737 147483963 704235539 674011357 24453579 796629931 1023378274 512315262 1040342401 507201748 324264932 353634904 624036980 762123546 271768818 531433409 761382117 480650537 631557232 953016744 498760153 809293675 62067725 345706661 233771823 1050735043 414383106 425079984 892944143 763108772 1032197997 1047475433 860236067 521052897 352637916 447633556 929038202 973397072 793845850 704279571 881772756 215528036 857974024 199819997 71789707 221461519 719750477 45474109 737395182 147784365 405780284 198437052 340545496 645440801 733555561 483756843 176216207 810107956 79644759 309303447 506999368 49969694 359412503 971422570 511915134 456475092 985973060 559264296 655549694 377927342 728266460 131097143 213306400 1005431944 434405529 1011925736 284095181 168047247 140710621 459431105 122626974 734762453 473995679 106273429 187590967 781265421 1016938002 850028159 153682276 882312057 862054168 99507401 508502988 1064936501 595321813 189997913 302690622 814766969 906542639 1057384717 851249374 133774481 224152953 669583331 516052320 259554972 350464895 756595926 132513572 1008375741 53351062 366731189 1070424906 532994367 672836343 738160969 30971113 600352306 547374275 58675852 130853397 328657707 548722447 583718499 518774120 574519044 750462141 462088433 1015722292 1030284453 473216216 378215660 941681912 888957272 299729880 618419819 949607355 651787229 831582188 803780404 991725953 736600187 158955671 935210216 624458079 679086814 798437628 416930684 336102564 1016545201 834790397 645358890 623587694 968308096 210171968 524355990 1064758159 341388162 584238649 93569331 692087148 135186169 1030073971 529860252 262795017 886578079 557904405 724168414 512793655 917167313 370762634 789784804 791212715 939512781 996372481 912277169 339567879 516832857 228278957 113423765 125239138 93199363 427189753 362261578 829361875 174467535 691072673 333161521 941493083 431522555 1070400362 399246276 996090545 1055731884 743522147 436424466 518689782 993933230 591221874 147503413 769733655 206733505 601768376 188763539 593578824 271198081 353240100 159958966 378443586 501023488 346809182 447285757 265689398 164527878 333359560 243039677 47659723 30620861 460559371 739013883 119713951 499140489 177792219 875220955 245756680 360926768 78827873 781221514 837187103 18631773 202268242 261788656 756303165 1069960750 626751600 541398419 360893356 104370712 966255297 628112961 802183179 466054746 92084075 572497154 581978043 94345139 674351818 116707912 884799601 199224944 884173380 466762031 817949628 388944530 1065803952 721871996 1310702 714486535 1037608081 606407759 909828183 1056756607 695491785 1063779767 39115118 1043903026 973490945 364604762 14784041 867163238 892989495 193427130 299865414 938870887 971542799 622462345 1005574215 118042663 548878726 186622542 565969763 715927522 896328768 427035125 56086298 472786122 592084654 300591153 433812971 236931147 670306399 485699961 938132114 702357701 588257997 321886844 859422249 607226755 910727356 779061991 951133542 284254138 371048242 395932616 62542516 488614926 535691285 778311932 299404262 632542535 657466470 603192126 477884002 1024534630 983818205 646000926 680237304 1028697748 158440847 407418547 260962162 148456081 673839488 147781739 890569621 994745740 211946144 992260004 206685319 536395962 919766413 21467931 385416282 342044976 732699848 841036810 869536598 400966919 200444997 603879977 68602862 874277925 354904597 734934127 306971139 539013023 302308750 28841480 972765979 1042879610 241165174 709226503 759442651 537089398 688760492 582378160 675747524 561020205 249813043 297842173 467649305 20347338 415191984 305165087 440844872 466038803 812448547 830484955 701988741 549237274 38948499 197204344 1004757642 660099022 237317944 413377746 519113154 347005509 438434464 168834794 607029525 717230797 1019777356 676114742 209686600 157779099 226560813 395821308 877814748 853716031 156672354 139749984 916067718 812918484 958923405 789559084 652966522 3496313 7039962 962214859 1040033493 1046066341 636037113 275720692 665182000 550169915 821493669 358726434 706787477 488806256 480326165 924888612 537247098 610087899 253434694 487040581 844126314 942071889 271381818 742873010 935022214 352340830 415917434 808580816 233625798 525886573 609064411 578208796 101496218 778494401 404898660 115646100 134415934 150161591 780066452 655648856 60632609 729349217 208750585 765642355 1026866760 911917598 258003990 528004811 902915321 671536202 243757716 1036856770 747359232 605408885 310802335 461600687 116273649 164462399 685838218 420222954 769429517 741244857 991518502 399208906 134708912 334574562 977365832 418541181 616114856 669794464 605286968 895235253 85153853 590114193 924183881 383692081 340399652 161151535 378829053 1019297036 367479962 360748241 856672603 491823145 379510611 273089205 196471721 1040455223 31192692 883900576 510083992 102208986 586544684 613600270 639113765 688030178 62251776 805701947 138731323 176027446 367910951 347434427 1034276607 1047196959 706235669 259363299 328969203 589787246 640498961 923687473 762929593 590706038 466172657 756438495 271464761 10861644 899335189 126976101 808136853 559375559 903427603 629706343 466699574 774376213 566030928 469984409 614872547 255810047 441617417 790351302 19513948 408529478 212554694 1057870237 178653112 605462187 449354572 216975986 130523761 515644832 172897265 839416081 443164660 848195231 472436067 496436267 582074936 341837731 441469871 997904989 887945121 1018476448 9839061 353671390 214094436 508094003 642825046 570433007 603481646 960648422 974056952 556114672 1063125296 415682731 803855893 735860293 711806330 384312700 964011839 178545517 106290469 786280564 81092806 676823253 137045216 124766650 466356550 107794588 839831366 130537473 368582877 662551271 251315308 1009175160 1033527372 580112895 705749897 875490393 521401896 211653599 904875405 942325569 235613125 461992826 1056401724 591199767 559848030 526460988 538204751 558018551 544846574 308835256 769811582 497184637 855326340 394556854 867659756 538401223 581659438 606735026 191986062 422993923 296806654 242936645 570983297 492765091 27455638 592350420 826633842 609255733 521051004 1001680825 210815676 955674048 313243534 145937693 864425342 190871122 646282556 468212885 741239301 819741719 578377720 391474599 273041539 247622987 9235366 302755056 228120531 29411374 962056476 965656714 649480114 69540529 636601437 90097230 744399389 610513251 50193293 22376532 73917776 571814391 1058164654 685522959 609163984 353012587 693164082 1054466321 484857999 83855481 492115536 432386274 360669057 284547883 727333641 381898942 989360351 820598593 481259277 739743425 466847487 649061354 676709737 457539976 278274933 996042351 988566798 81665106 132025933 132904086 511133395 218402139 958118076 631514176 963961329 665635808 284059292 711767939 367375224 501784511 235693675 266982369 125482772 1025984569 702071018 741219885 761862459 794215165 822850114 591148171 803583097 780974926 315691682 314200494 1011812054 567391997 665336641 859258287 355919261 579310651 165770208 752049741 977418982 523032650 737999795 404409811 42266726 7676159 783671914 436853151 1062320353 344134247 974913056 286451549 161325027 619189225 570520178 818897432 276339708 929587535 648232129 530123170 150646474 1037962603 629805453 137752473 844357851 237346868 455379836 253961544 489964671 339984143 423583906 494784943 812490465 564532778 680757082 520133711 438675124 435194184 653295791 807504281 476989083 109014740 581722279 736356697 331672482 1047427238 792846897 87551087 81703428 133501613 253133538 616536500 708883512 100255798 787804660 318233992 117982483 1015544579 917299638 1045362067 584888484 824616136 305105170 966444817 167155801 3434463 99485535 974851849 522983134 374595661 49436351 1047978843 976800802 445961339 770602403 623920636 448908754 127049927 179619501 364522821 971327575 689733974 857632685 984053833 858003549 376496571 1012320075 643974135 486751443 446961982 692798926 794627213 858096940 912480916 920185945 660525492 284602455 77238637 972523462 360396232 323164080 514117166 209010120 968651561 975574637 429887255 598602223 112156468 551247255 758518004 472637803 626421409 604018924 80618701 687636612 948823675 1052001153 795621202 362472448 859662431 766473993 640934098 766640170 315353731 784397001 858926388 35804294 745857221 1024227155 770561249 1061072989 943873052 347237214 844589476 625575160 935562025 39915881 178780390 149109672 100077955 645688925 526010085 382045473 554361404 987433870 567066431 691111725 498218521 713661660 792552993 768870253 987499438 234531249 581757388 17850485 65257173 276180907 761543644 186313491 1072790344 412246185 237603386 1055561535 134224066 84969519 66703135 176485573 1069619124 273439407 325060456 461004034 570122922 878599371 664813319 573668628 148247214 19145263 431131855 452729163 852145246 189612502 870199699 885010305 192327556 746727028 605485321 267144223 977655115 848197693 1024130875 660432149 832608063 1013894810 422931866 342866839 302813928 541586727 701580309 251044271 375219628 350047849 674611189 282967342 720578127 912362297 97180053 578739362 937116452 634345345 29154293 235715485 861318725 576522023 974229399 562307064 987634371 420307833 471244775 782206068 373797913 516938326 251048091 157986587 572243202 556795888 240280737 1069321180 49459213 804817646 529301424 606750222 377464763 102170240 490057388 724935872 770424767 528190289 609444554 976693049 984618270 697701579 409186961 510928089 361671038 506568798 157174704 18785679 346654874 212817357 888580274 605989807 624823342 962902910 675569153 300588118 826951952 1059178187 276460479 88354353 850696965 842890961 1013581855 54928511 753852896 426415785 792311468 308678203 993466523 113340823 857474588 973765078 619090437 971622327 198438040 561940488 409595983 941330652 523287665 1001383242 67729806 564970843 106593810 73174264 313929138 306373726 822558456 702526080 756110598 848133962 695074444 915690250 1013858931 968893398 432446974 10526884 1011349819 18380673 816173655 591595489 156401235 560653485 712740480 431766705 1045578991 898559655 206110447 504849234 121372967 919145167 330588997 806640644 131861355 816794769 252895335 900751498 895155362 427835666 214450935 974505765 243938390 740120388 152744620 49219548 761421836 795171565 490003514 458207587 699703238 337163339 461319839 503531756 34961090 686502181 24192827 320910497 1015400985 937199372 970413968 952701897 780023791 755106621 178841383 937858032 459300310 864109982 357179668 755831616 580298892 528578726 720013661 1066165831 247387836 977354732 77676623 380657554 781757298 695609807 679773590 148266188 1051213316 264317938 860420565 7979810 140031654 713006659 1050356086 281662477 240835979 995034672 562949172 1060418029 137629668 156570256 872368014 594742552 248180430 428157742 479856612 882498418 766449573 534972423 677927674 776318750 124520110 1028851082 174651431 43101018 216462433 960776777 759042905 38822177 867781163 912919386 436776693 27814696 558959217 979198002 1003165639 231360542 557905702 1014805362 548621244 443657788 807196120 110010503 483622803 190546635 913844276 555680700 407996538 991426886 260973661 578730155 1020442906 635705923 114481281 986191862 220531298 479488587 1052996235 544920522 780890073 619702608 775406803 759467473 733132841 203553411 620908024 434897655 746394457 134785906 415955322 712804040 722504772 129410314 256956 698330491 744659918 1036261953 539392808 620570931 24124313 1066528136 941597381 191889325 210458435 322991958 580752074 122191519 820551044 558628371 895043487 42818349 195663576 251389771 523399316 262971822 796094622 198161549 852298662 224197974 25729885 242926728 495210111 568017608 261108314 701763219 455359713 37654896 94628362 819293211 958899622 826338917 1061785135 612543087 926014934 718014711 671999088 938647724 333045473 694607155 307392311 472334423 257554512 691165233 682932062 650151897 352613361 311420541 544498182 585838561 148120325 562666454 1028639056 958543692 487430951 314615872 720024679 315421580 962997423 389741825 496791925 860032054 954062408 850337151 706874660 706911050 275456442 478850655 842753440 247875879 870122402 735732093 961553397 923263783 265364681 380550278 354068376 93889817 601199265 374930814 25486733 491383931 696201367 157898426 134984256 860425961 143903153 7746486 444318567 770916458 165182470 1057140032 756185805 529076614 672420469 918802680 857574401 802349029 67198911 728860894 253239395 726250226 156798228 442017454 280593046 1002858079 1072290367 1064961822 903183172 591560110 814404767 235413746 860173672 491372690 323740965 996744986 672441751 321588763 604742547 174632962 197429306 973148163 825485386 834782469 1015288780 478234335 109244448 540381543 20843024 947399745 722545570 685717978 307210819 585770093 904045828 716861434 890450781 122217284 154671778 454456578 500762625 919450345 29125005 112146819 535528581 808902110 323797787 850838982 469610759 598131785 944685855 33618096 248532565 989900849 662119352 56231002 701619628 475931699 350875025 362049640 559739607 914981639 1064091915 226282685 319353974 1024525378 1057060879 191007689 124978475 710657326 487041404 1028547446 821652951 634554729 799699946 1021676173 96756733 164085530 1021004981 1019351466 758798951 107564012 686667190 510116269 895564728 935323125 167944331 690027939 189982643 100629705 862135010 1043163393 511593607 314091531 206093424 983202986 159208418 690371151 898692060 898636600 276511091 697354551 991840842 723772759 931254078 608449233 100603732 408170883 349696789 353758382 389399186 989716561 149016158 609765199 921434522 332600579 811734712 783337044 524218541 315186231 813514236 303174448 835806332 774546178 16046832 504666538 1038245422 684216910 937340301 353330374 1070707404 515474860 721312773 256752727 254040100 921364639 771447222 1045171336 774479920 193964054 413743878 997658246 331716680 219152660 640140243 1033267236 242429205 624593963 4733361 315352376 480763181 115661224 303760587 172405725 163026663 930548694 308567364 840600230 703230689 882327367 1073078445 577035409 106554355 891045333 270801448 552546371 1023235157 639103064 436575136 1011174511 444317878 616522582 809784163 502720775 756861256 560855637 935944566 975753566 815358214 314081015 1069327843 469296984 46379550 791025157 766888828 227469111 16425350 539014291 586447262 247567242 396479838 337570170 400754358 864452318 869591501 898277640 331862526 703890094 538156289 430798953 981091865 386929415 269021112 850752759 466626605 521699632 389024321 700713739 321912092 77691555 506978079 645615023 64263132 760153031 883261010 1006921862 525441210 621096572 829364768 822742547 98250805 112732226 781332407 1002153932 1049600406 516824875 586108311 493679749] modulus: 1073233921
