modulus: 1073750017
n: 256
rootOfUnityTable
[1 10314658 722972536 182917365 957364790 181248974 1066311971 685536416 315633928 871471910 1007190719 37779410 632422208 601346906 1049044962 308338284 421163569 758766125 606199647 408280051 52613218 132607423 536100833 123361950 678067437 841609479 469253809 210900640 905389919 144527633 458592377 367771456 388242986 1056836625 606162122 974494738 949879357 642344479 950424869 961970295 615739167 990506365 842543136 357995642 1000507827 895939840 838112911 755481078 799167190 319162700 969735620 904854902 702235827 198673260 191950665 626000998 138549337 769655902 1016122560 97796171 677853885 387049130 605690333 867388620 37992707 604244801 791916626 993629655 788967905 987958779 174643572 189808139 52154767 162407533 356746691 277038018 815926050 287045767 218826563 911674907 1062755379 324741685 807336669 1021001773 847903535 430798803 748152611 22094670 892314695 977829509 390458080 667272734 753715737 563287098 889694668 435801599 599619393 151041506 1071029070 40203220 208233360 447335253 162986210 235749654 488629146 611276295 729107396 929693401 275597901 759326242 172653156 903565468 99222817 299447968 251063475 97416528 756458790 903910022 1017089096 890923031 329845853 443797669 440707649 62949100 728877883 126629315 638820028 324297663 416084698 57204403 1038697402 591243621 853743350 896853407 739128805 569569967 352412435 564421382 1061044308 441592396 124276143 593559137 113998730 711267742 614008376 641054529 393798416 600172326 779493133 386698075 278483467 35281430 528439300 958212419 711856442 796826841 467509252 678619037 605622196 290047592 361587201 180193115 214503163 431233734 785100183 866421321 1038531946 157966586 756720802 839289129 740442439 603552616 504231929 34221481 439679952 853784315 379311679 62347134 78058549 81663860 447273737 232744729 582929218 1044181966 399787071 837399340 1071023895 349348920 844168805 897486372 82776398 729824062 325516584 630379663 497305853 812630551 46209594 673382586 177778572 660876184 171630419 241353530 442128410 186531822 97085222 120929536 402440247 773769869 578079006 926966534 456776730 937714244 89204745 719584604 17313374 797558737 188071293 598699744 867526659 70545827 388561657 216664089 741034156 766943774 752543237 273223569 427155522 653734679 462366380 184891112 108575979 675169148 256012614 550287776 788655650 360725972 31489074 386404362 851886287 553677216 402513650 906849058 984048823 366347044 187094501 319692119 653072860 928331564 190413549 792905692 98497549 224438063 46625505 1021788109 527188205 668866215] modulus: 1073750017
