modulus: 1073643521
n: 4096
rootOfUnityTable
[1 631454185 533083648 907711767 819869482 860604600 459263741 718775354 616029360 636295561 76737514 634758943 468351413 692875118 1030378221 680446894 119673373 77493382 903901326 778479535 152322345 653816271 727162130 651767110 314908461 736415148 438053197 1065975993 515305231 94824284 545559255 640777721 914197611 23581148 1064066372 369901513 354005278 747924717 251546128 582222753 6723610 303129257 384240485 159682395 636596771 147482130 929946347 417918665 538709044 29303418 838766738 80755021 765858636 163965863 413707866 381680174 318840685 371981804 595812008 249334822 1045522424 135855356 997533584 443769139 26135320 260777177 499453416 746655298 416969171 845713331 952856588 225110069 266366778 135540605 902671127 841939371 896203050 36294629 306773032 241292205 97336874 713942487 530213054 774132992 356190912 536311305 532965113 543959307 1039082257 431760270 220805228 118018648 883222230 654961647 753343687 797786058 295039335 479518293 954822134 163117180 850552577 774428217 398832223 120766320 463823130 21834433 661090212 424003989 400981833 762515416 127923169 535595676 501204959 662836998 567199402 618295130 744463058 347315558 564464538 946252017 740160296 999835381 519293162 365996212 214306342 334632282 44621717 360921207 796155158 530066035 819282305 761091558 328768469 1026050104 984291194 910536347 161544969 473184864 214564240 856770132 124766050 176888133 140798254 851961631 739965524 491575674 668633774 408317158 964654173 176553686 10855301 794592714 557338593 789975015 691661338 764619275 709117398 1049582624 825306465 537973940 1013823444 212804178 536426627 147032337 1062045024 1005822252 77130130 331048709 496267320 846557413 474674518 389943063 277831963 950602201 990200853 927416747 1017276188 889599597 59686868 81962423 853672923 356819422 257657442 223901686 214308623 925666606 643957033 866753246 631430018 948802247 523799030 834017465 92369640 850184353 1018666705 450575501 195814627 518066110 301618872 467603980 394275529 861755031 544162540 757397232 326733665 555639156 546212359 92818483 1003338165 761039430 721723128 483257682 328915009 208175577 759481154 76125274 978150307 82361641 452700016 399517587 46291249 209528786 987504381 100096453 293946619 1017229945 436563279 601438085 1007461579 129230349 162694529 266971280 824973303 152156836 984375809 462934036 49172716 194144271 1068317776 1043187307 198968170 668932756 72150104 999208059 488697626 528756073 967441138 658319002 122057762 983032350 641265145 82484376 1024532606 584885127 356413908 725039852 96202359 476852067 46186281 183050162 416168595 979252663 277872840 365790564 107934412 341230646 1039583887 820224711 726663040 133512195 1050680109 122526673 944292379 522242690 877394873 865781112 379168020 611740737 1000016463 323747790 930170238 1021650741 514087926 689725767 330532309 270757356 796801655 143029108 375509403 545970056 713964617 67257768 720254484 147316712 746086586 350344094 940977851 435259141 36067412 606792243 888796767 546802056 317179603 302938105 1026717790 734421530 172696476 201019236 447021809 918724161 427267127 932820457 449610472 742906316 999625073 693310193 613902490 354263511 225797384 689888055 640515181 228545321 117458704 627253436 183761397 133098123 107344961 849932012 820408272 533788665 556875262 645031364 351242942 624880081 944535471 1021498298 474569789 970921714 423552571 823235961 446168929 894564255 941042278 633738404 233663839 390215882 432323902 547011253 760425771 450322491 570253703 417967734 12096749 733725007 172349455 833635409 152364543 1072610723 811888442 966655780 78489193 537228123 110198344 445252314 665308059 817734194 606315691 940092527 777188817 507446640 548922672 345608901 985519869 495493387 819973630 590828646 874921214 624573778 439972045 975756239 657974632 929469131 978252296 30271942 886615969 1028680404 210188425 980592915 991294563 1047348721 1040781781 856217450 1031254056 474246454 225829225 700374873 252884139 195333048 1013065472 534735553 575782558 873851201 704711572 410005022 606937750 554009903 425709905 180950573 225463085 608178155 29905614 181819781 434823508 256182801 871555359 1039248682 893019894 281852835 110862839 453967232 582528205 1039179622 845896251 761457045 360494446 1005907289 913244202 788480023 1054498925 898375070 944722795 1017610105 251959531 1024611889 169650252 850074127 511850283 208651862 671950796 306992790 1072277227 1028147185 38450678 994005316 1066308600 451837506 588459075 54210061 251678505 1002899522 653090139 428126138 844051872 100803285 454818982 1036400526 454897512 760244149 5604120 951016906 101358252 517894998 249781550 211971564 805653132 59266033 641544179 557666835 471908172 860682616 929643137 43584745 204241993 187396177 707625379 923193987 45267247 260850834 209384720 798066022 739607857 745023318 445111906 928064759 666952325 687625623 764185491 363870004 307615093 156348719 838212344 23060433 1021004431 882270138 971293392 652077922 743774360 568482520 397903705 270636590 279062012 649644463 807037023 667256985 852604380 1046607022 100882649 726127605 690451872 758601642 716223392 122846584 834663201 160995336 567006261 387674519 701981548 313113022 762110345 108550553 362377793 263740809 94027101 210680376 702922273 637641788 945581818 990787093 931938515 892630549 382067800 202481436 801139229 969792072 200374470 912148593 796863691 77342562 384962889 897758260 422629636 536498122 327574383 606106805 402333551 4073204 894024241 317627372 817002499 489249256 991448467 308003083 129599316 980340340 121919217 931636689 505062575 242270654 470740153 528159261 71045607 577479714 526579533 704219111 739097614 719740858 463133187 1063241963 317083597 193866260 237366930 455831456 884306178 306593712 764423791 462113270 639528773 910248949 529682490 82076618 644528075 256362082 415511541 283436913 996910888 136212772 74683092 1068735484 356804175 910795075 852618121 671626385 807189555 3090974 775538181 143026427 582672035 368236219 14935876 819107534 699248513 330345678 899482707 39365232 1052133679 841540139 1045965535 45930039 693896739 587571088 159398968 478037871 480160201 588393421 232067965 882993792 825469051 60044246 931297405 547044022 551033803 888297133 83397221 939197409 843511563 12376458 130360983 854251407 764425132 137437286 458115755 639975682 563692348 1059703664 245823702 2229938 879015652 9185019 832139146 1022286703 52468140 438979536 314787009 793087079 288083164 446830110 795332512 362644997 1047533836 817532702 838771297 442104635 365278324 599781682 845579703 784625840 497369954 508794598 422213312 136003679 884060904 532587398 734662182 602193319 330040484 662034754 679452255 810265427 659280807 468432970 743069356 539075262 1060968121 770172488 35313728 875308936 1003779113 510270670 451297213 940507519 743585783 635551885 472973081 916234624 713352982 223337581 756815452 440921414 112955860 738507285 811724630 305089784 449367073 716693214 939585413 1067972582 102170879 53462253 432977682 625603238 469889317 676841253 459623455 385245121 166317827 799243679 542445693 1005928766 389818175 491480175 761064466 407852063 302859459 1061948135 543692451 978067326 554678561 898857570 104239436 25800614 851659022 873433876 594611813 950589832 216358342 460637096 620729262 487032584 416900183 96619605 89673177 337734119 798515884 158463584 436011729 193835004 294207113 267131967 475359251 189623548 771821325 328500344 587741074 1019478403 648210878 93964948 477630226 594006189 374285424 866460774 753299513 199293448 81318676 584501622 183574638 458951869 902030459 451787154 486566849 388034486 153475491 528124308 816422020 788038125 516876653 425433776 297041671 118484156 366576225 909835538 403877479 1022698397 351393716 11657554 997209921 868547044 455415001 433864617 815951210 955093738 755891859 157372472 306752297 121504825 841587810 281376872 608015298 93071012 740552547 1048704637 301154850 960731541 1026427589 501001104 59904118 850044940 423234174 338124018 516131563 143217704 495990822 936698303 136593820 179477662 319752430 334401194 671788110 984471723 454970995 108786405 707446419 83762200 137966664 575042856 490465860 88293951 459338089 864278967 768513149 106305459 695723996 6282227 724068918 670280056 1022273162 28350299 58693651 60778470 414438457 167971498 99786861 436781863 919239407 958598360 1001783956 84309739 507899749 714035505 245846516 922885271 415555236 109204309 317078632 62919055 8333875 822409459 414916159 505968292 938788330 533544464 864147702 362027366 671375435 721302279 791629016 85242496 499021841 620768790 543481056 819595181 34517282 1034519809 995043555 337373543 82160273 609497529 511647266 531713680 1043188622 634779712 584710663 895171878 115838284 563475492 1072916686 277089647 136069047 482417618 970372286 54615852 766854938 631963447 594122240 799026525 269927760 3865194 583718010 564499293 789238931 196104639 581076402 584092732 44017673 67398090 908257445 619576256 977541725 877948064 350060492 863219239 885285139 817839890 812014007 937369455 421433568 442705639 712694589 41462664 576146772 149753381 611790125 62307235 372533252 1013699479 270233242 654363378 1014341629 258337317 892334459 616108653 93741410 533016608 909538876 190347568 904871679 515604535 168279331 450084437 131429402 240121900 311082354 885165485 314291233 382778825 445828718 714235152 957283391 265364318 983148374 121396066 123702160 460681561 305704095 149784266 339734885 27381180 70836695 800208264 924298366 36804711 664066202 288285276 909727560 49334175 966646026 367248680 494897734 627740713 1008912815 73086837 399974092 563704905 298858603 9838203 339269221 812378257 399108354 193940071 563325834 1005216376 347255731 849511970 731634426 1031211688 72592652 776582038 679152837 685149197 107256929 568417867 285366925 917853588 418691542 482300008 639665527 573826888 382161661 780449958 482771473 722345504 570456797 402919716 963489542 512915279 444898394 667266614 8048801 1019379713 999226152 748559870 1071450194 671500732 24327171 1062744020 441045723 399775194 408303355 840642096 775653276 285225470 338844008 423961137 363905976 975227637 968049515 325490695 454188588 178747596 291060242 201411237 457942402 561470453 632843637 769840194 193533494 822110214 19734792 917716233 247311331 192317647 891072409 796400947 188990761 534381258 1057639879 929136235 1070859126 80129903 1018283624 677073942 492053986 755659379 40713523 765537808 997608736 445052059 394107222 527096984 2738011 617849458 587363216 24645066 209050267 100328522 704667615 484343390 118868439 82038807 414959038 414010808 88325311 581478365 664214756 25210475 671863592 5149098 663009293 373446963 209492782 512584816 481658778 748266791 117722870 580560939 453574042 249402826 1009653248 382767383 967940278 539977537 273024010 815837772 330046265 710706839 5472552 322459806 188611034 359549256 626328644 778970466 1051139124 892107683 240107989 703203641 814337704 257350977 493538306 774140789 75284051 915444970 503521980 592786427 901142207 710006312 93060746 891469135 773000806 957917108 472190448 1072138298 68136709 264039787 452973870 260186712 605149708 23351674 896942405 328356059 609850409 867171163 934461989 342541879 384340481 1003252124 468244529 796426201 105761338 612718031 1047786826 697732178 1013631923 829331275 880063993 787912092 277572673 758282530 745291515 181450853 623733450 792270237 735414693 451947111 842111777 1007036281 823027075 982053474 121448642 253976358 402443104 705057437 967588790 928278982 35040706 299196441 555741617 67599142 909632378 615046606 318021029 787263998 383542374 193138208 763474468 309787571 387042945 910637413 265674418 599626331 467712496 126174206 1053989919 369436167 96451237 961120122 561156213 44369894 868300220 16669568 829959778 475804919 1041837213 35800746 273998110 301473683 833483247 400291426 840218818 444757233 1069101812 1061600363 431008450 806623745 780663941 759235436 157419801 460823606 888381038 86315338 259954468 275229000 673586156 190675607 165184280 906640890 734500104 839436214 660892415 852302037 584855787 283224384 889621460 634140505 489338192 929192680 684721293 53321717 392862777 953299769 317593341 774705579 474198505 450048381 103841368 816066075 804705566 298186186 799877575 1047001233 962618313 696793440 299292703 196913151 973636723 581790747 429537701 430302348 1014235923 179958277 932438656 483894400 548935759 352346859 915621787 927471772 458535690 802693556 1003069123 1046744095 427007176 996614170 1065128215 166190674 862332838 767406363 483770436 164175487 1003367258 543355804 943633547 132008976 727292299 410893657 625879222 52640679 789024734 67528732 872314659 772885086 184024647 368229985 580338093 502343397 125448705 880798371 887080744 396474345 520989976 937384516 418604835 509278129 1056664483 121596045 43798339 709394300 539774476 726833234 277909027 443325716 652762781 657061601 591469707 341271264 101953527 369307647 171060385 391041214 328922670 1014624757 573354598 66886744 110010538 1002983301 542401500 219885372 783943414 528236267 516949627 456852167 217474430 1039941119 736947968 965798564 933605198 81162738 1023686086 108929760 715951021 491583502 637223270 134747575 85900750 947533765 784213347 279005433 165116144 261108763 981018927 225507107 779908014 811819373 604662077 54914655 132958474 798817710 546031558 575808875 999219808 567187081 92234911 98254007 575192608 864465905 740388813 252963105 380459955 7598551 313379473 611338349 962746064 320787519 1059871321 267086521 826140550 436207905 434222105 264774156 237272462 949553157 787599419 352123984 904159634 375101153 847127595 77305880 167870773 592830297 646109315 986469650 1043728667 434047454 822386841 863919692 236758658 525450886 696495300 866340632 235799103 520613645 41209816 176385802 517724301 282411879 15487742 1068538169 231259429 366542325 917485736 435955751 217108957 185782043 704757208 861088042 723755539 500237972 586327128 852477993 590373920 683379707 863824710 403372611 202846910 139465448 461422959 139153238 868224213 164749536 973965261 360190010 565721200 867128992 386634196 693708290 957512058 829633465 283598292 640679809 807836197 990855108 326560727 561601578 674512242 728105968 851886830 134892692 421991566 137018447 942757117 398201691 161204582 815845385 888713153 704009683 445453567 899038699 598665692 951105113 302072109 935588418 889678265 1032726341 190453027 692377569 861992365 487183024 405753503 324180109 602108188 261270198 555986015 687796232 993049974 889307726 689358635 843600335 535055868 46486122 76049918 997436167 476964689 753508874 57604419 689296133 829961425 120275765 790205291 525299763 1029129067 507802163 322182369 1068139322 847447393 547469704 765851892 780790030 929737583 688880268 383187227 571433930 782700789 328844761 470301333 311745409 975916290 246175774 123444830 7584777 249598904 565210916 719669451 21096329 116582761 275943719 481321695 252549728 251226814 821124505 820426604 327464663 742982256 416212029 262936487 36866186 654943801 784354593 942243431 404290301 702646709 2054918 337034608 404730480 150481176 995772234 632224272 568516423 137329020 764165741 586856190 53934019 548464127 33883045 1006434905 702585089 783663300 919813364 812161477 88880991 1014752987 970073891 647374756 148494296 619440320 347309994 114979910 272239547 651011492 83714741 565402422 294121268 270352411 891035795 572452571 703514669 210936875 355629570 42366143 993072054 1062948820 822385752 342165667 549810847 853019464 56395353 958725065 415465940 460379948 212437401 824234439 694766193 456350476 1035114981 225286409 106856205 173904249 504048580 863500912 399673700 599950018 166825737 680823346 119470946 404222563 143296298 908092008 248165711 444169531 138346113 209505351 887328849 200815929 167768547 226727570 561304264 1031965775 900241558 765605636 411085663 276228365 580127553 194508364 166953562 865755712 603429239 5524868 542104617 28638306 955417798 859485006 928170931 824656821 1052848043 874535892 824404312 1060995109 512108435 73624552 876258075 922035040 376925677 920332897 658623843 774030778 52033758 406648904 734567232 576114293 961460429 163406379 742913502 338235216 672321793 1046270077 854361436 343772024 578947327 461229494 383289198 963247632 210259246 723848587 907557127 622936032 228463781 65550401 518186722 203330915 536657950 822437042 96859831 1004210981 985547771 839983647 662580192 313891090 750706031 103132292 881450292 584711267 76406142 5305376 189543529 250777112 438803883 531340193 870748950 497803939 12754178 949641991 735628022 36486148 574624607 978774585 861964148 932319395 130187097 261087646 141881581 250429976 388304688 129744104 781203844 4421151 925907954 371723026 541335236 237798926 160336641 794514212 262272293 60957736 149373553 5053177 545367123 876821822 857712912 52628102 730864826 378276481 632979893 546785656 833949169 410302408 621157655 112730213 374983542 958610172 63433268 1022752771 995090847 747797469 450524888 625482350 217072616 565862812 735598164 331302699 528261448 504236102 271249392 510560688 8458531 126909183 398052473 933317254 314885490 526300223 951575515 176154056 74436070 144709857 419402090 142186925 725375831 261144311 175650239 474880561 835421196 405144443 978495503 138999397 590729708 303609153 58933558 312769686 644244715 533136258 1034557835 634535200 986495911 164255586 505857263 134003265 609216360 378042208 1012881894 729323993 752789164 879409201 495579882 56504893 966309540 804191 7213797 582251073 182757034 730491836 534658622 248627489 177298550 379013856 366813467 735821136 396140100 181213394 124916874 712747 6567079 991570845 915831038 39007737 404062001 1048706442 940182994 118477844 1066153978 884644176 962675752 968299233 851374776 1050074583 231051698 154416265 658246030 279904220 1055123366 461588195 278208076 542491738 973684890 588213233 211162681 197877754 911585995 619024188 937944719 1027392352 549129002 572683080 576815822 141288215 143382409 309651977 985438284 1016521826 342300218 561822447 888234065 189982094 492901939 1023973648 229500563 494008817 763543557 417142722 335855233 143559024 943435398 532642751 79694811 362829899 529983477 1059482751 162849285 704830762 1023493072 623370090 735550984 856918628 814871754 155834690 57863220 236209866 218698973 409961769 736604664 655239955 164927782 811744257 789215876 626014224 334956649 748815879 520940889 834256691 855112792 941536421 577142713 275216632 531197830 256979604 676349121 250299838 878674498 239713616 615668023 375602573 688366269 294523796 672439988 370660316 832463390 286306101 135453899 487459912 718378454 278040453 517800789 22678453 757558949 820599958 1037424077 133271094 540143745 61452656 77590510 899844881 594598733 1069457085 796911397 1014423475 279392450 931182269 282667898 411302682 120269482 476371031 928524899 1070480558 609460515 12252325 394195546 526547537 519894029 95670812 704930497 251335708 893843450 673298488 775503017 783366409 1045150423 1013540761 673940241 235236040 894902871 1029569004 674747363 73235868 720359656 153226556 554847422 1051346261 722036682 572499478 647513116 408009521 910371942 822879618 376654654 16355521 790425867 389630993 1049450395 452862749 412010282 1024727954 845601775 201207538 660301971 261170441 319873561 499561347 411226974 111891069 39502637 586917510 944616875 13475600 18376282 971556799 176669376 93062069 1010696552 658873813 453484850 779558924 516248317 1065476687 1029317044 564384711 342693451 132746235 220199841 1033550187 110570239 272965122 311497806 363093360 870151770 206912385 233896769 145725016 438674808 156664512 764857198 24351060 106655914 790510214 347983420 865248771 624147867 564020926 328825823 232482701 243647548 836887575 590526360 975822331 57021340 808147611 411690422 55571416 479383631 638224864 6011306 883450673 420794605 891130805 908259462 921451495 416451699 96735277 615783346 621123982 665892113 95332037 64035809 267864876 596332282 968416638 571196130 760354849 275161873 494718741 423191241 688148184 494809136 466450351 442356101 967538197 29664632 732928483 465735864 42829105 38421976 98621926 993261475 342381658 813279989 297468508 658935161 772945029 139903247 149226526 366786615 980172669 923089497 160059652 49984315 149139551 799719474 251698733 921184365 193596959 170252872 592464881 354602591 204384717 70056335 790086866 908322309 837149467 78404750 83311112 653258768 98762765 181804176 492502321 75856469 608403877 512178308 291397562 41677205 1048971077 719891466 245581008 662799567 867715482 429104627 708178047 839139080 873886022 351577377 692877461 1046761738 1048019235 528353 283430639 997946688 1042616656 769935839 1033714527 276810884 75650884 558835325 820097345 495450919 617869067 441749188 268578242 666798232 182917606 771405937 465186511 866284858 238504276 723257146 985349913 327099645 537657248 293645363 887967886 313329050 769226870 1025154716 193660308 351113019 525172499 787632556 610871560 1040152397 23039896 312853724 886374799 967189636 943865931 826746862 627365588 433228836 690921734 1066063367 800008273 942256614 906592843 273889827 609237734 307089907 564085873 348563860 633547670 707684308 476067513 395779300 813708636 339644498 741181466 286723878 73668692 404535294 189208003 545404379 657106030 90607821 138594996 630113768 846786458 306120412 424673498 346236912 188779344 441282816 619717075 420722978 29187456 783985010 881417783 704732622 813809292 295646658 252962016 932349451 320650740 640948051 1044881923 1055130497 500454356 999637624 438314106 400345666 613249797 608160702 210757874 467664223 825149933 594961343 1012330349 258061274 557665896 187652049 613017930 1061249598 1062189225 550093906 543438820 25699161 91839245 583176665 138441095 42891398 136289304 757845781 572686220 323373435 213693696 908426055 102662099 923139927 127776342 498230636 188388005 805703024 649627350 953607983 755786698 655597537 993693984 816183927 416301592 1021638967 753896661 682877981 1053439206 256373599 12148932 714157851 1046367450 951913292 854518941 567612614 701009283 10903906 377919812 848957340 887201597 21264991 225980594 27160071 765490454 88192096 308450419 1003099460 451009237 293279729 365819520 346152642 538440717 874471538 555409151 53694709 425745485 256532427 355216939 722092814 91609604 180268861 184338668 94607901 763702944 514381735 938294111 913580540 33047938 1021779991 807963319 678269592 754303305 859426677 178001971 378564310 789785294 937232696 821515267 72095270 843980019 398445940 101714434 919419983 119361115 236512344 35283503 259796607 718837960 808648729 662311964 328055786 634097067 827124670 111508263 1059295072 391997692 644005676 825181912 781000490 108839782 946424411 789047954 757781656 1038467610 70510554 780125836 953829133 183310020 677529332 174557622 181588789 483910964 520874517 705575627 949462291 728674491 748101773 209309674 91384889 1049039551 68233923 882867202 1021258914 864556381 396547900 241205670 296439194 487986093 526095590 806019323 146320556 137057206 697808816 991396399 1010685607 436163665 31850604 297768922 557316345 822739420 112993600 154213548 382660131 603351817 990986054 70499922 652167729 972630956 373413545 736943707 890179905 220227985 658929714 122197097 638996896 1045289403 894765521 794529155 902896200 568627501 747707041 1042148093 457810385 925517353 788043650 1033449049 708410873 415667755 195357107 39836716 248720919 230324150 61307306 775480487 970875130 446986889 1029218259 1051289586 815587300 385430018 786070627 523062530 696182451 390238046 1039584007 366036920 278089540 620928614 659814017 325300657 226478207 883803490 719515124 992558441 998521532 554123906 299079410 798210833 32908322 4726904 917526913 326139918 360695808 281315229 823543198 225004595 669839802 382046223 925456702 398306806 678105595 300856873 311390088 992822964 915833670 26252149 228141590 215599440 813182408 915599255 925715644 941491902 76591041 814323025 979529676 72650362 389208606 755028183 590189656 378736200 384245928 431900629 152455572 988789790 343420076 382074342 869134419 1040208237 897857135 937138319 800817669 172042034 820729971 1064901696 1027387405 1047921917 276364000 103909295 472183099 802630495 161615686 37460077 519590504 510963523 1011147123 69398448 178260301 983455746 328708548 1004797801 47412657 694519800 542547965 356905415 302670051 328628013 1041024512 1012938725 367422303 356713074 622942570 516587066 319571859 36335280 881547399 203839189 507847463 112432866 293675869 717281714 84682351 10697340 364107392 1066212416 676490436 464492240 323097132 1042039267 378235180 818453819 866724755 914726580 623835145 832979281 121048679 477443638 460529949 1066575445 8717528 1043481782 127763492 909685104 982818706 772709218 990655223 712764283 1035149785 947509800 990098317 213637492 1017642491 839050454 210174816 963331334 865200328 266620723 740471475 191743118 589938528 626573699 764524474 289082089 587202046 296647727 366626611 1008299634 1016600750 847439380 786999772 120507006 147612313 940283316 676555851 752820582 48368972 78705146 425595697 770339184 911337648 460149816 48502331 21436447 622066314 70525308 176696088 557536879 1007082905 290315653 626546676 394562472 918426963 1025646692 671334997 440829192 569685830 835148019 728837205 573043684 721948756 659230641 789875365 381604856 713228113 624536577 1033075340 1000443382 34909436 1030013817 602680395 922836195 816562320 1041414789 1071374672 12813419 1039456894 993492496 353525710 977004771 1019644979 904779068 127379328 108580546 496038058 342280541 714292735 898492539 279158191 488651171 412872660 154385163 257470292 589178927 860130827 988226302 760560927 275022540 1028019044 11690758 617647052 217264509 796004957 75026469 235134674 315777618 950917766 813523341 707353503 357844348 681570431 768935960 800065382 47080910 544964999 55066987 941534462 395730490 619496133 277517053 303371782 372265691 265901817 344412043 213514980 612791905 356905587 474794250 759316184 415494370 309544857 228607605 974099493 783298543 182928407 250769209 351465436 548446453 237018150 507936928 186305913 303397848 901874971 529821803 877058388 57147287 424567731 400319343 993730164 768113868 450474988 351705158 1008557233 621553460 434814069 828959178 188541293 823177549 967478664 221913321 492949338 286810025 734708901 1007235817 156234759 202641248 855526617 520354898 236229401 585790179 930515270 589580173 191524547 965536964 90019695 955788628 289334935 797698167 1009796553 1027868365 489023684 746673675 711351948 326783502 772612970 527050590 828036648 113590381 801112722 42559146 1048140336 547646334 135012878 808744570 724864821 123729927 376695005 116134084 800763080 118422295 351462483 783034125 2407392 922960914 177865422 252228255 707814821 579442458 494482882 1026160925 357471820 538748330 804862623 1072441440 449326889 852698488 841805173 469666387 291991597 649670784 237291807 514780044 944750774 596470644 343553191 854651527 904060965 29288539 886400394 407489577 284328102 63628787 824139433 737489000 223461200 165873141 542728067 828570360 235620243 555276140 833741504 2055239 115202524 815261649 568564192 57569790 959915975 903014907 30860639 959182437 845462281 1066518551 313815840 64593678 101495415 771789562 183837990 683799341 993736116 357455967 747743329 477944670 88267631 586893969 476196035 510435001 302667798 240014533 337022046 155591658 941978998 414748200 894088341 170144172 626496432 850180403 848535238 185110582 703695117 142471546 68836358 833377520 1018740274 422001617 576179251 411689854 1060173871 455344489 406831288 281433644 567839928 454365320 611267713 1011370828 249795903 848928108 297878709 855773970 21585644 546781530 113163805 802745289 271008261 381982152 59527889 1017229371 873371187 599827618 698015006 853653400 51673789 765890112 527032171 853666126 789520935 434985361 736336574 844956980 606102814 110025003 428692658 689601998 683976718 729667578 277149272 60855244 378490413 914586051 709325451 597687264 954517467 946176733 57476073 51650808 683094463 4292093 549518208 739105122 467973102 312116083 674117291 698848560 426493682 920188427 888852742 776452590 973640771 363108126 328667595 839406302 140132127 1007796953 481483852 512585482 161885756 405970908 192457369 129083762 290597428 130650847 869028646 526496121 651593109 112272853 6932774 307614219 118160823 884392106 105538094 575305670 264314438 43817091 523878311 229517741 593506084 968858292 565020765 1071752072 611737175 1043385988 755182263 401497915 956932977 292755181 1025006329 692518946 501533960 773486204 583102095 457409663 720268584 999249080 647232865 181844953 107239923 641044799 510740361 144445403 53044356 948950680 83457835 511643349 800343419 117544230 1035129925 423720980 73966097 606305983 213725936 562905253 907632972 175412589 690032523 221021433 233599734 601358720 104698771 1015738876 24922153 564766076 920769760 882890321 205963371 871436934 348627707 701040294 926098943 945635103 39086678 907487098 673514094 572546680 56523484 39160740 829205329 821454537 258723298 247125692 215778254 720002470 295020742 143758723 133897221 754383469 607984909 62493880 1068661844 645158806 259014678 930070180 752731819 914203143 665758755 784054921 400648840 801746998 3556282 657990654 71879297 136607476 886710871 806977138 831841401 854797314 225264936 1008811930 455951647 133756023 338927763 189381352 245379910 602907191 1044198307 132337839 662389176 942655875 817061866 692670915 778310766 116868540 765756196 1019394713 55215369 506335462 800821872 127197677 677274188 448384763 543117841 1064033468 150816665 957497584 15410527 706862567 596330728 998791342 1012005350 943855525 612846272 874997507 700279192 300509908 875204428 488831398 366690176 156893053 141876068 869446674 60470241 167224014 879972988 995624171 656326339 581432435 305930479 1007397761 121969233 372696392 353600429 264079920 322110791 11788929 3183668 965928214 429283635 721748605 567010263 110474455 773064617 839573013 825177133 1073387906 258161323 511714758 358001605 1056727207 744406295 702360988 706348978 655794586 640814796 207487560 469896180 48018631 35580111 731393200 1038522753 1015604458 252122520 569204273 191130157 879715411 251654237 986713175 109905004 23084939 1013193868 535784498 535743895 208751820 66775436 280688823 511123303 184583969 813224395 155713755 188718412 837744473 777961473 473320449 374942362 247706971 467882515 351371326 563983453 949354158 200292923 734635079 177142004 184790837 417653947 956835746 749285352 1057090958 761702053 729720347 956363302 891626356 962320863 1067959493 979811593 130836560 332862805 420945735 684102249 703809383 747189472 239794791 1020155816 238615068 36206264 185145398 414220560 980856308 264675595 448970005 585109806 375450020 975716647 986912118 766013333 923551665 295954512 980075225 11674867 451540483 32394831 749020195 193215342 438606572 784325145 311543750 972588059 909274430 581049230 608087013 693519549 535873099 444109770 227272436 821815856 963319687 776426483 321854410 789272513 157362038 664074384 473803894 386509673 554777012 1014028542 879875162 438503096 228479103 604805240 145933610 184853855 947665454 516393320 276262799 644946551 313565059 403755088 795114205 1027402518 597761653 148554640 408576149 239788704 1002336901 982813675 837883122 1008337593 220759319 136550004 176443872 915074538 86210246 309133937 167419164 655409442 506920555 163126599 532414752 458561012 712607873 827214246 489966980 117264803 410106112 834958345 590736670 991070149 875282358 336326934 12977242 57870757 44673618 496098367 577033836 200783622 77956273 209031995 616380389 294273871 420049174 11741848 771439694 345643622 831934913 78533555 674676682 694797374 280761342 967351147 195392634 1004939437 39772975 549473603 689313111 254913649 1073213000 841484983 481115394 85707057 14703838 657882895 579431820 872373749 1067391423 469522348 1047163418 651431390 502785232 606267599 1052418992 178383639 105068415 944103053 33276730 1068201709 177970935 855310984 852344576 527179603 703719615 451245108 825899139 651638534 458319442 375670540 908849710 142924225 340460454 193716468 372643989 1026904615 212446675 204939074 384103540 136429473 961275327 6411695 174942432 917558877 703157979 50098689 237724113 566961757 769787454 648194493 419755600 1065744602 920400307 240557606 20451067 884341917 934543528 836639518 1033967068 75970839 318458741 294373041 399569778 783783489 1053641881 851971753 919345581 231924184 285886630 936440153 460885979 1041337679 446490193 522204666 353524556 209182519 1038852720 207832925 951582622 91129071 885580318 801963758 568422197 985583509 836479278 201712271 1051676642 440922136 798024526 186877102 183429073 673275717 166289614 549266227 251926837 279109287 1061782454 702127790 283151061 577614309 407843727 574956762 13548305 897938747 287076539 640740283 15464959 397379193 42016597 490856266 7412167 159334453 541053420 611517674 375954840 474142321 304626265 765467473 5396447 859353862 698951542 400593424 326267470 1015242550 175312953 631186463 117296696 1046904920 252945453 518221357 500505620 441175793 989905165 552525493 479458458 482810170 1052048010 321770959 803734279 213145425 1054387101 552680758 234441805 389095958 808193116 812826324 125260182 689801054 760292045 670905831 135205092 817054631 474824295 445644918 299652252 890507451 603891992 208746729 895864996 522657943 312231890 555060755 1014414996 439597062 954154287 744997554 579763279 608878319 484161759 432923529 1033266783 518091821 1056488366 448088622 782300889 609115419 829708851 955998125 133933386 897292324 161408232 807892860 835358917 558487537 266938073 383817138 277831948 67937594 509450780 195462494 529312689 864252849 686235400 36767323 202380691 475177696 180238253 365309230 704542075 195331525 219293012 322841525 983616465 860045038 922644913 966903171 1028465028 705731977 847669965 336860540 840405317 208274100 172682043 582616900 180201711 513034292 949921883 808523106 571135273 201921936 689869594 986156914 1061476600 278603885 169461771 339064555 228060859 1029454327 364091484 901819912 18346910 17416733 460870584 572598738 554803757 843621037 216082042 1036058180 616145810 705029042 672806415 244453080 519425388 991364415 888306098 821523034 173146237 261613538 1052381343 248258077 730786437 577060700 18377662 579793047 386291731 866955043 810310578 843487587 787770040 642934040 311096485 912950689 636377785 438612915 334243749 757675385 638123017 612183032 992366266 923123703 121556284 1021330660 640857754 612808725 934587555 944709739 186724983 742797886 816966735 179597630 475863792 663512572 595647099 456242447 685713872 896699536 1069725976 715898166 263129133 127929833 937325717 284224242 746454972 405549081 283660348 320354711 742527433 171295274 327962571 1064637596 877958793 531393847 1018642264 704454291 836144715 904486807 354285254 180795291 472193803 228618519 947313284 783992516 440385178 561191743 756548128 111316178 911667280 696643466 389764839 374679264 439337860 500339804 171134316 262812327 429734090 964990729 725406764 236871363 1034938305 797607980 250854840 496133048 932725984 1006991811 128068359 801170594 1028272710 518441457 412830670 93551629 468860101 117078097 920082512 894702120 1061000539 90926911 174900576 653747974 413640713 963300285 648547244 914597228 340244142 152079410 517663776 6281791 262785634 152810064 360758478 88548640 610320401 593125821 532292245 1063694309 748594204 262174910 90725156 749651282 602061909 696040682 158665761 71333885 815324636 849079342 269830612 262560191 842361062 818712591 353406980 948691151 357324410 623321138 1060899975 251959637 319213676 847053848 439604539 452890174 173040177 1039948897 268490323 879134606 835934828 657122515 638911451 250312891 888840586 296911359 247464918 53333791 628049846 912357326 276405731 885567627 692142667 231671250 336885321 552245227 444272804 272571599 138258938 1041536688 906477413 102312446 494868167 9039487 411580679 700009906 42416936 418944405 691082064 752444680 561515866 916944653 109791789 638662991 671231521 958626671 862947320 8493570 4416630 939659908 630255063 241973891 898948817 251060145 889710765 597834926 23514650 821778552 935253187 649317453 685107061 187455191 251928580 419144717 451291732 293187717 296131736 731433272 1040121145 458409777 109201785 887344377 908766837 99107781 382901858 229748742 859288688 133701803 311258232 1024859154 1006019331 415936635 683852488 940126893 848864075 880694985 259004739 353305710 865130482 993457893 937301547 952867328 910578333 917492326 276747505 276748565 738271082 1070445916 186680599 670723030 314606180 773656627 388631957 604492789 829656261 574513505 244505418 673696496 749153212 1054606615 839868143 1003708045 476141848 921526676 477966127 893123677 364656371 280466093 800818690 700652319 761869432 210613659 672182147 411174818 2424884 675020886 283056353 906068071 134640447 719297717 935016332 405378662 856660184 158319135 1043056261 654578214 952177855 262553975 963859878 434662429 13766163 152141705 804795953 658029421 583990392 699897284 408737864 544390148 417954526 901735918 719112941 492529926 766069959 1024408091 129369724 383025492 521471038 368201893 507627035 296334689 793757412 908122519 13819901 733654030 697444855 426874874 694686352 675225009 480034495 695051904 953019213 753736128 574876112 440303169 682882471 790190895 650544810 87177046 404498522 44345850 576906541 783434275 833728918 702668792 996415046 995669148 479144071 477557559 89545292 916717409 538844341 850274830 232636456 971901714 1019505633 744679613 301296068 47905174 296625375 220410557 818395596 484801103 72394144 1023946329 836715976 82547949 930185421 753899066 124610691 115605051 585895041 588748586 483512363 796481446 1040570852 777070761 916419394 588044841 958718480 511014548 918871538 977576634 263319057 303979031 658414648 520049459 970816668 531249483 543472950 310636178 273638619 801985920 986417453 812085401 686006555 879866472 493671277 503371098 648498797 178540386 531647141 678723721 816572238 167720105 500654611 197194940 728951316 1003923346 935492866 797986303 693559448 807536628 1070430312 875813597 1023480346 959166465 1066455735 647614225 823580900 339252811 382823578 543853782 374053955 332087865 116962089 806783341 793674536 43587041 604297403 193838045 871768150 172788825 489350207 412462548 327505727 139315904 445383832 856818018 917387037 472100965 368525131 125700755 918931060 281193036 7595679 160867122 610762239 821020228 155876768 930845463 769509678 46171224 564408593 334643655 1045199274 256286824 45983313 311704936 67417148 691888286 239100617 530343338 142731386 774100496 95968504 688297232 813480635 529245850 24792144 915818155 11700999 785028654 49599392 1066605986 466057411 147179385 3483698 1029338104 840869705 1067664755 319667850 336386039 116504665 824118531 381917783 1055155163 602822419 55053984 294771994 151627122 206616185 794806137 448177365 171105270 96824060 568954144 1032951644 209728372 757759206 207422123 246941541 404985266 354838736 898843936 405276045 529980952 998294311 475613419 961536422 837759510 651241594 629607639 406700268 1050199683 753894102 625117671 419655644 786541290 939228049 469848022 356466205 757133879 544075529 1004493372 806475300 85416042 52823381 366983549 1017821634 207454307 1043866093 345646918 310141454 641437007 248167687 623867689 267340460 863276873 821352092 104168265 444145518 96448791 323566810 41787699 76189240 1033644476 392762649 501972258 979376433 555882616 439963990 461655041 169630471 823563956 910872457 376434039 219112059 379069166 474047687 120374793 215643868 754509858 179839339 546164118 599101231 424689989 388691568 278068564 778062631 694484784 157477479 266143153 10232463 1006597841 63054819 466441407 81045921 44623725 347926386 805529905 168595513 148040947 289059548 270575858 276425191 60266361 956232845 719449578 654282981 152477148 708003860 213168851 839692573 1022426055 780362142 242634121 453515378 543499049 205363143 951022653 153458467 1044654641 35437960 854114470 424588085 432210942 63234809 2066497 432664713 603688443 648604200 34848109 13725750 627013949 1026221715 480571657 911315907 694416758 258720358 101469601 469393794 51557175 208448307 544013720 542048099 485292037 718286436 714201643 925510094 446305884 790497901 578982597 189134820 598214406 981117023 565938293 198464875 6257349 958853760 260056504 913110929 394989061 536550633 211780354 254023900 850815693 138893927 299088909 535162321 491635638 1001328007 647635097 487466424 693345744 629252836 55600867 857158825 595534529 375231844 616777765 584268958 906489438 531906559 100271476 583003176 73648386 620425987 940273958 862232205 303841164 349191538 1070337177 287799918 775265469 988233981 49463185 21609959 179295984 1017479413 924498697 1058208684 670606862 91128383 197083522 152854595 923255723 578228418 318094549 953097158 410252750 701913251 1073235126] modulus: 1073643521
