modulus: 1073741441
n: 64
rootOfUnityTable
[1 758747479 822730792 187213060 238377628 714568266 1019736956 762064596 751359071 222916136 909991770 377362640 782968317 293845527 242891671 86155504 254756945 363927126 850515248 872635027 304307791 33329164 46040912 820675989 458419187 603083220 882083833 251403611 68809976 298706058 582826780 200145781 67419063 37787724 11928080 453044675 292773971 69633870 895926289 237940497 959001771 991630626 407600992 812337089 257349718 665202479 158070168 915324742 923653343 400902748 1001809053 984404373 915968037 146389750 38317637 165994870 662970777 734079438 235535230 695332733 989907665 108009024 793542798 1048828427] modulus: 1073741441
