modulus: 1073299457
n: 8192
rootOfUnityTable
[1 658966625 905398427 341870208 400831744 801191005 220785437 41163123 569219911 789326034 874322725 503840123 317996677 209419944 941839084 414307266 608742809 91334229 296208336 470956784 450117578 913498355 1034444245 475066260 465982002 169163466 245501619 130922649 792163042 988985 677335225 705436834 152511482 940993089 415350761 370579908 536095602 95286007 519969707 158946102 318138335 29910533 733698464 719432833 870760690 228939511 373465902 320684837 162664520 1069991381 305582866 118619151 861042178 182599138 650861592 982001460 909427156 673545989 315524898 280597043 334234350 795333560 143344761 357585631 551330504 969875653 739308295 858240641 945513707 598618253 935444085 871220163 897507893 1001878958 928634357 852850431 17073144 207900298 852501533 429527321 930401635 935926073 881656852 321618596 40556537 970402515 744735427 453719264 398766177 138466804 87276865 132979197 20690320 8353300 847453160 1025038465 443754645 674499086 5558204 41747462 334814095 1046020691 35061655 276994057 685320714 1009560773 445838954 159557881 251970440 756910891 175690734 142806791 453184739 606036855 282532128 806595028 802522308 615080265 387734767 768000085 902079921 1035276952 102479971 383460440 229679670 979414767 986448726 613863643 1003493651 355665591 164758642 365312876 453854207 472031102 421312784 521494235 644874274 610874968 811250985 124770717 445249419 228648027 889868579 475873071 955041013 115614477 882332248 805041820 883927449 902519930 432668027 559694382 213015391 944553298 585885420 1012046218 830114875 945925701 869969810 868493915 257952805 96693038 80589320 1685528 607827636 347030635 942074578 98704671 202280412 281827411 299585093 833942224 250223005 541290493 245782721 507057597 747150100 386716792 305241253 234465292 912621488 735748718 714423666 447242680 633379579 111794747 276591516 195426854 244671799 1053517509 202466101 557562294 127852359 1001311814 198490042 713484254 853434785 7471590 92678419 848095755 848660130 435997263 754650629 1003103567 18772220 790680108 797927111 668723471 602321598 323234127 5698623 183476453 1009254444 653944604 604197311 540941869 900783372 303253908 52659416 116900108 269704356 802835359 473768826 423400441 596429395 94254081 696974162 1012485286 506997971 549689706 989496133 55506389 473206024 583288971 201122261 957909827 16258648 460465745 46219301 1030518405 233771414 136973593 130484079 851025354 499869686 154558823 425634413 736280206 929000168 401363391 608114096 311128803 708287862 102833843 887756792 467732116 178765474 81022745 112522254 1026982857 12097443 750811016 1003729016 897324931 1024839432 459826963 268309924 518124769 719182177 205740791 484506764 783256334 1001230543 818215053 268797086 149504319 795923830 356668883 815167454 954898266 717805996 400487391 638171320 949019351 860368744 339147936 961902576 987071516 924874303 120618176 69322450 812398057 413655897 876128253 695873827 518834116 851309611 934658300 591727989 745914175 641578208 595428166 94880082 403288493 869029352 1053847664 308710705 963357780 1042177022 856003491 616969253 996814834 946584316 365464923 774675175 51707437 868126050 622607372 918541466 787097918 58180542 656264425 902058191 578571539 447007528 922681954 1054275562 16068657 967475506 197648534 557770089 699569088 678932206 647200943 287967163 566345662 1005362997 460449371 6142772 448774791 780953334 144176892 368231120 582851092 526952680 280220697 673214891 244138522 430452668 99440100 757716155 877865020 93682618 280136436 487234747 592684635 388982803 203171792 1064989693 775646144 551620539 847350081 233735792 560281890 676400335 406115100 174161389 234439800 745218495 550570962 950672170 255255272 487647372 231787251 633128946 650114282 963632907 955135871 484652504 817070931 186139029 274936119 1017621507 405346532 547791350 799549730 390066693 21992709 253613542 277662756 403324040 394999202 220915174 872542327 205770616 977740262 77003489 935342643 142328330 924710020 382994149 631488497 963003089 713841666 746564119 483777014 977376864 1058460837 906311047 677928753 159811749 971260635 1072862149 940963344 47773870 524343837 45814260 638728540 634669210 415499920 555725137 955891470 656439009 35820818 626620146 405896687 607280050 579557871 217402624 576977266 89866928 116907344 956014862 845967603 291345529 786767211 50874861 628084197 176083144 564445316 1043769298 48628791 778370732 998724810 337087524 279348845 403115636 999904223 831573637 444969412 163732350 617460818 929811988 185117295 1005080125 389897932 1005328682 293672572 58502046 335652281 572199429 913730829 536827428 532370759 722524658 342460839 228628037 751270590 610060732 667225812 742797879 848639652 711523374 180482741 244042697 380565724 456779420 291061109 270364422 149087160 394532295 406477747 173117800 781108457 1056961544 814677449 788956306 365434268 721865997 586885772 532797958 257678788 719757722 835902525 402806409 922464626 575444529 649476868 7223193 440216993 689944559 767641394 730710957 644497498 945263407 546435228 449714793 630666545 452027225 310472252 376195273 324651274 483068766 572436830 413817962 859638464 103280741 922823839 198266046 333174679 526277928 218018458 104825816 450046374 212994067 776732842 380460588 821642770 177581910 56392150 332729624 1065014889 156129854 1063728153 307668967 915766703 752656614 675185356 744886746 811694511 927553711 709242670 320332674 1014499357 460033684 414213566 207142605 1067703980 753312358 504442785 783468943 91785673 414768146 39322261 608878615 4084319 575892121 781812983 204083116 653370553 254571258 930576342 625124300 670568452 471864516 728983580 298628395 196892263 833087325 540568919 187755111 555472114 20981217 139645725 506619492 261848335 89179447 977091392 660617770 541996501 352236130 521898265 267069604 376604296 504369524 165831221 677367283 104288953 178068597 82066269 738300709 895812188 65716033 617650488 334508631 264945842 140736830 53045274 872927144 815894050 287791238 10492564 719709650 352479423 529203929 899111234 736998482 73199496 268026002 810766845 920039182 642238267 695410877 117651304 139873257 859793920 425562833 196499485 477408082 559494351 512963100 668876784 147912270 926798425 720514046 66934333 249447644 213372519 445266650 447607799 329257264 974007103 1004816082 660205698 389622130 635873156 228476367 928692680 1056364050 309546122 420028793 1026833928 54052527 352558700 721863493 195722181 223589934 707644642 572063041 650311138 305292516 886752506 590466281 121388069 234012073 1024710433 814462445 150236634 404551650 26378896 738498611 458310153 393966236 910982652 322041763 111734199 1072694991 1047834047 340645517 940403481 678352847 385659753 1057719566 593004313 1037304163 570248565 732133692 936931174 93694105 921987047 527227366 453050768 288555601 1014701909 1020687621 291379508 640446152 601689903 715858718 941102647 1066176863 748928691 221192737 372212004 827903123 19990539 63249655 706569800 904781489 1011899504 795882814 8504057 81198365 390553186 1004076418 1033000737 330206037 902412244 146287832 347358340 822471260 788331626 708171935 167749443 864808907 62579025 383870144 526496519 91318234 999008658 652690220 696874033 427409736 106536393 167214975 1067696215 295980752 197100480 430860984 201718813 10267093 772936242 820466706 931938787 1072437038 284918883 62048786 1071224205 157383453 1012589080 207676439 593465195 712517408 751990891 50450634 770230542 954472063 654142682 228479920 297696131 185203095 1072709279 306835786 195015272 996106578 636408567 1064030288 139639842 563603301 588107385 229928201 922848469 111851042 353613600 755260803 495467692 828762021 1060310522 866026149 152333981 807613367 710054272 271489566 448408931 68760002 267190211 686153735 405699533 234067365 237373697 197715278 961040143 632853305 117639138 698857297 1054858229 268008180 750234589 893309726 952408680 953255101 467536122 17624405 314144945 614776555 563904436 459319858 344079507 197318566 248846805 21965245 369668476 617083404 503581364 784512435 23321811 289933152 959388222 528695763 529238199 391475247 727089359 901654501 685442196 479799221 475793322 986976979 644129872 1027921170 952017395 219144914 962296702 937810863 1041545858 190983518 407481821 951688002 1014622141 338551739 790116102 730297864 645958541 927938943 25854487 789220362 75296971 228158616 395800064 207139024 420426341 959204868 901908374 406367688 1029544786 803818058 749503864 428046167 498326303 440729965 746719737 228706656 956871532 909004805 596106370 588322438 959028788 169676816 386187023 523365991 376027944 444672087 507931204 486861584 121994116 985238318 337502365 501230941 1013490878 208511542 281411159 826424341 1006039772 574208391 73376569 641447415 466640555 667406652 901851626 194713525 324615980 240939749 785087553 479192404 1064208445 15444393 675668181 634467662 304871971 613939824 304450515 1070227687 567750185 758850890 665584893 451616552 88172693 818872412 689392003 572685687 520480014 1060876764 742874435 403205781 714567726 1062166901 687560731 515075325 586845556 367899745 438617281 1033516964 871030504 155048469 148438538 187052655 232354988 376180081 1041019170 2707237 576309317 879082132 381732884 1065024419 232943197 183103183 866899212 969519560 650597166 20164789 201847674 1021990663 448763618 981127229 1048233703 525164599 968409441 137325195 959984739 129809208 722655101 592312955 463291289 807673841 522195569 37464566 813226789 572709770 607938687 619425793 722959052 378780275 19903195 39036737 290353672 857527134 719039451 693338494 769938105 282564003 897393413 428283660 518573344 342838639 644004602 813344747 464586666 933121968 938222653 1046138040 30260844 890456193 1025255560 865184404 523250413 734211871 855734867 279240978 1053315500 51970358 740590907 722565152 165873655 596379312 1027076956 383014057 399796086 643806947 874085693 523460876 291074077 139280788 533128373 1040632229 403263688 479326880 363704197 357211022 304818051 712043809 247068320 273486845 751279314 843005540 952398897 519301468 895143402 975787010 813409271 869109111 98481749 247783924 1016572567 610321059 946300420 618447937 903303228 790434665 767660937 395278789 431108257 825618526 1061771034 833046792 776644696 1001646721 899620577 715081731 286310509 581374037 777639411 616954013 135169526 1012376028 59059281 246106402 828713526 891863865 103495740 413309300 998653814 392610197 517105283 579749066 1011210097 53005829 27354188 341073253 151814426 1049951008 1043028790 222711056 751895635 371062822 42236008 744763652 580419536 9297082 462969174 986974485 402835789 113002303 527487501 859869302 202219709 901552426 344165511 531707095 259557163 262009019 197720069 423138024 120311868 162834284 951014228 368805495 851071702 475656794 771983090 306151106 745649905 515086622 527774429 110104354 814910771 979319849 791493108 20192190 429574188 527340335 276672330 25101635 142568773 77884727 841413457 144397382 151984909 329617236 594950033 974267506 920279711 654970960 667234546 52312738 528101894 686830672 1015405560 1007120184 1448253 420177607 334678959 441533067 1031430212 406392877 90459949 344633968 1036629665 450853784 448861277 1040615841 797349522 101598772 417901033 119267190 58885592 572771800 771167049 1016465621 681289886 989939190 913185874 58622527 259465159 163070078 838299045 37108577 565879412 519017567 1073191662 870620756 916084916 911084192 158395969 803022444 849277560 914410910 396350988 414618645 953776709 726363786 586260451 284615601 1071476221 811966757 1024405368 2704006 881266630 277784820 224232089 376804697 383096326 569495141 957981467 381956960 497691144 7611138 489686530 722307625 1064881921 703007420 825880136 1035053401 1024866217 471307223 163946204 120678925 782976846 557466458 342428739 1058963550 264460536 1063331757 682133928 913126013 632426523 606906641 71295609 258632696 328594317 738348653 748864936 1037960670 886894993 384865382 252222989 598483424 853412420 767046989 797713783 32926046 443770434 533605053 65854324 207492321 893621639 70098977 1012989569 855371619 288842575 525016915 349728045 1068984101 206643747 452779690 309011275 953338707 496758605 167708328 750215083 924619508 319957096 842504194 830081903 299274252 824131764 514893153 643203135 346411319 533377387 495007077 3227246 54270923 523301441 11164561 278241801 896140181 827796283 176956911 555470014 747368247 689586829 616519425 1055259680 521617523 993039116 82016030 835778499 1015225795 859546692 476075906 175844850 775264494 394654072 4668853 44043340 496790500 558245729 237854206 152420548 778599649 642836956 863857641 551846426 159578497 756684191 700025236 887664200 357521652 801600046 455608910 994904866 388017366 181672218 661298007 163565689 874409761 419929914 929356109 143997021 134660083 608897156 536559413 91320191 490746469 500008352 1071309378 273229677 1020125958 777933470 53169194 174510213 430230395 641099351 927937998 889378379 607374076 71086968 316868857 1019716981 858295174 160055558 769416930 931928859 611974453 372288002 820806253 334756872 155361640 732261738 467284412 299829892 442987413 248685850 574478567 272924323 814316240 660586114 942761753 448330746 357018748 83562194 1013618383 646639836 91550331 3148783 684015066 864283113 822363058 711100800 195511356 393288932 1026202532 1063897362 457329776 787008223 647848157 1169651 1019238121 287204588 384957488 1021191346 4790700 691321002 420937967 592254278 964874046 920695348 570852083 717522576 918142461 270068911 203148666 508510429 457430498 384990593 226548989 259080353 361782777 754636196 644293419 897463761 535571873 677439189 807298024 632197210 823779046 562066495 914563786 691080468 333270520 386636302 394161029 674906905 1031058134 97052121 975005604 46528099 689033068 608378773 312172514 58088180 773154274 473136858 159145726 143638501 1023440466 486126911 807678282 105357955 332112951 340088862 62685711 709491937 131847812 1067480605 664183791 20793627 782122493 14972070 618684279 202381536 752726609 1073237113 68046589 805509656 24369554 177009395 831413603 418251697 1058560832 127114864 1037839754 883555259 846579707 802738816 610905669 50840660 452540658 407115224 785746066 377957558 923503453 357319890 274343214 1025761936 167602475 887769388 986639635 770621341 200741229 188523950 594087666 106568808 837870593 184055755 201879547 868155255 410327030 200879892 201674087 945386020 438103393 557608120 652186914 179218810 863767478 782077700 804604859 800225870 646807068 449734313 165194400 880463303 914208243 258796623 526680927 917479151 175304497 790501818 216817452 348206984 165800851 602641255 12849846 678798655 184442283 266169049 543798377 335537928 1043307317 646228146 512353772 546559769 42478870 88510589 593442020 65657229 74530059 304971808 901363677 360237831 370151726 436321668 549884693 870310253 390706650 236777964 969397016 75749475 133394419 156783603 1046403532 439375430 783247557 188637234 845400902 619263242 324907277 1000515209 901707676 155054435 47412297 951200513 561047616 427174589 470773522 270190640 369925482 925589210 936133869 1039040749 904637415 831137646 945717168 185537852 599096651 807700252 939033189 476717560 278958536 987356163 764776987 547652519 629850664 340355497 214433858 812008814 445174339 899512356 997078514 817170586 751176316 836326099 348536196 306903683 490788395 533405465 350564604 682621507 568927196 458903371 568883688 114078255 730792586 882243154 312851970 210462603 410199124 622100852 101982154 987739209 1021517305 979777493 452095119 775944414 417197250 86496144 1045763667 744750083 720061178 716925398 426369976 509388768 492288897 927491594 100789154 577789515 292545766 395395122 655077614 298614022 737299163 224112722 404983481 504583775 467031402 418389565 963379110 870599400 54022143 711995035 834439892 203467155 80818817 825132939 348951483 343849311 274966790 880902115 403650088 986545485 64690019 528313033 285856723 567597643 532585475 479560762 360364532 135745821 3157378 700922352 269400471 502887552 568683510 142883219 450679971 634423907 336807944 388724309 348031684 390396347 562190944 1060467412 569626874 148310432 830781826 440585888 735656918 882244100 108294703 224407859 756279335 934222355 279256242 557368496 249751754 665485885 138101211 371360917 504994700 387504626 596631146 885974237 900433009 225814303 964594050 591316347 598131906 638835953 264170099 312940501 1066054700 88292187 762097357 710462884 87388105 447329468 267263834 503930796 218014112 872124299 304291994 964818044 726992129 187791366 817848126 523658671 181907329 186850432 738529819 1071147033 386571070 326531879 173937180 96467967 762098947 927126602 376315198 931434946 49859336 391173287 297936503 850222992 572508233 232847414 977328064 612192014 908520309 778537961 453308374 1002836231 523485915 323844991 179363687 1058096910 1043447838 384687096 160380916 679662274 711073048 503182179 789730655 338090539 856910222 276110228 1016160612 279480909 904907162 611760466 163764787 759189788 645546696 99064467 834738155 822774776 495272090 317368815 947495839 145670404 113578486 844968841 987257507 574830934 761148318 444746984 529013141 1053155343 543116500 821256939 40862437 343371931 418574248 544454212 25988640 829088182 984123440 1056374830 873957196 29809895 677340830 989938422 350862121 210678727 661512380 361234845 524196066 55207167 78285201 191004918 211691298 202928581 354674972 328612995 318797527 874439950 357936544 285197393 16127821 466101481 960883606 638489036 957368689 73033621 69104464 346508402 976097777 358165046 149521699 457360683 537991066 733588542 623833599 430317778 605823676 162511241 316677905 433180290 294396230 652970653 277114226 11742879 393879389 1036847974 176371371 392659014 359512704 943120665 282597683 133852110 736432193 350604088 395406413 935404565 1048224811 135670862 984823514 884797340 118314331 501188314 563256150 564938076 640081889 425728836 1025791377 916323825 257544643 585125617 730466730 162952945 431063075 722504956 12246961 305794623 178525249 760445050 617159401 910817326 193880341 846863045 988092803 793999597 669140171 135179675 62437129 431043527 983002370 1065141352 862687378 878929094 664355854 440553522 155382215 1051830289 854544245 948017771 323092625 1020553119 1031542818 370908475 670310281 949651797 560629851 1032705765 305158151 674889596 931075548 874350292 643481773 930860708 976211420 1052616117 490515955 319663941 357619921 343433533 821844301 892071261 705896059 538874328 276883305 1030145800 398043351 421507127 1054386827 705092698 236421641 653585574 289429528 183740364 692608195 893298519 213706465 52850733 807176556 727796399 589809172 227632481 767551485 903749689 501341063 886581901 341031621 660702803 706268527 253329154 455502284 495200664 368299386 398332101 360140003 568447017 83394580 82256589 224820259 243216392 317319796 9663379 426023698 475574132 293569547 505814499 1045219019 789001141 419913304 1001577345 548116035 497932190 470161087 593933706 309456190 463027548 452203355 718751893 587720094 751549157 559756397 151439491 640210205 782660419 977226258 438527049 873628307 221634452 222133850 343615916 278515187 905324438 834686222 862225096 614674412 491474445 122203745 493257258 121577896 59720969 503264238 1032068413 492599278 483101428 866331359 990601372 416821532 1036226240 236068575 1066457214 1032177941 693816856 531983826 1028316824 1048869076 301612852 713504309 892885119 766011006 62768543 515788745 368094658 927676173 913799961 22094563 931992254 839700974 197206221 546707212 698523277 982219461 526821616 812487030 595043940 399628589 607278831 127235832 961861364 277383030 900523384 167578119 143431409 39895688 837022699 274645237 37833887 374263664 1072537315 726804346 299045435 532115784 370811348 212143730 961042949 398238644 165810581 456946387 970900957 920905252 980384122 480691508 40587473 512027257 254543770 257624674 700971840 79036983 901111006 622196323 856965474 1035894374 675657903 295069582 126131455 854364218 952401106 782512401 290080797 564258754 778679742 829234563 535558604 1019968243 516392362 119912540 386177345 589742735 346818386 807024994 162550370 75592562 299753717 802632471 673316488 76109358 137777859 43234299 932413829 449581125 346373664 755259395 1190540 34232264 545214394 1050444979 113128248 125261144 710547766 564549257 1015590511 96840381 311238104 512706088 699769056 722765945 767647777 654106349 85081094 11705533 309551692 179987103 661923875 237874369 522502220 576619137 1042728006 889400703 735952934 883496549 1068252979 16697571 110839889 383044602 950639590 331651143 95872443 802175357 369402745 489965622 1027056261 411610324 841269627 829872931 119347309 205624137 172243811 468219161 1061910260 482794682 1050015376 612206150 894744006 394677308 63113791 139236455 703662331 191961467 332964721 1024729677 935109490 767480341 29162992 902562430 911499026 60709518 442105982 884691794 778324595 535966167 784727465 622382421 178586818 883805618 65713698 1042002451 629111876 532806170 115741094 33002150 522671109 223653518 977326276 862670300 591713989 221997090 730187378 254794929 733324735 781843600 975347512 58634616 478424930 16791595 431034650 818312895 709638889 298415901 683237561 174006551 373037755 745454181 107224441 506195723 613561513 173158073 941623300 965359454 668129837 1061949138 129202842 127769053 101677286 123171598 875028101 583575848 189642062 473858306 904736232 858064081 532641964 673472713 546382371 164795732 262199322 288101021 478260824 999918837 253803726 301875694 45979727 304131328 911382645 405325871 441964270 898885536 393425722 15940137 343784548 152441149 1058509138 957867837 740975815 120582412 296422756 514373062 794951129 517183529 776374536 612570397 186934186 624562215 1057766027 974357513 928002809 443318310 956913269 900446805 482972013 782212376 954891857 834069666 1032132747 196199985 423972656 691819987 1007265986 105814234 1001516260 594663238 282738648 516040256 967364007 938855508 865585065 743462651 529697430 438440015 128872852 347772417 971297189 879158948 613007850 345779251 917026506 732827328 17675998 545628638 696853212 70269442 237550574 209613031 253232566 991525798 165091034 939743144 919855533 887498220 731569194 794158441 34177746 482177348 507729766 951498766 1030485729 374039248 837505146 80315927 746232181 702945450 488569365 223646886 112758723 297464894 116947717 468625871 63754368 1059535550 357555077 509584117 646541813 587288587 191938835 96262736 407463400 71048090 670460697 868663847 295524581 931627966 289066137 411466802 561568846 602092027 108031488 882956969 647449353 993898515 688382382 164197152 10051064 872083855 156927261 788410925 371904851 63735558 359448736 928926883 68018524 930122598 382160274 886767455 740127060 616320522 873036688 827583058 870155527 275904072 751488516 176733339 519150619 67938832 957675194 1000012072 126268550 121923989 540848078 637989885 459125534 525258763 166878943 679037342 282337593 401446362 780317934 821720533 863266234 256490665 631463895 181093367 285371733 430251955 696622042 147500202 190392183 332546952 67693810 367798782 877997922 60285539 866457863 809004639 861176442 383399257 95465043 45730853 801330678 344563484 393735383 587239422 715229712 204278899 228183700 29684307 204771772 230062383 753358188 444745469 363071276 1051244484 1013389111 1048657441 138175729 722865460 307811409 35753018 925941685 681689745 782251022 129565911 226081851 631875445 882015185 708816350 435135139 94222713 906123525 1051558827 57188314 962682669 536836948 459314594 447610531 702887375 567261282 150397291 967084166 785854967 627392206 1062984875 826576339 163180368 867938997 941340955 421195322 120728954 758137759 278387070 740217476 743229538 681028016 339947986 370356512 561560851 990959565 852445088 251061531 869834675 922972916 13120875 567962066 959859756 137949728 346104327 679489661 634885869 98436198 624962468 744459515 582298064 556592503 968415553 721774531 823170271 999777182 263614098 6313224 766464784 171309222 1030751464 990424616 715725586 747399413 458311884 147871320 65153112 711371004 600033841 158126745 59519345 756247268 971167896 691508940 486062358 612513938 442630759 768010761 551827786 933973862 690666779 418224325 621476217 45833150 391172504 584107945 300896271 139700162 858332763 451654037 538407420 876778710 498622303 631510984 99896665 990869782 337920924 418364456 954821097 777294574 284026557 556743228 581217898 93624927 103340501 337957052 709336739 241640764 334018042 576999945 172316035 355921410 715184726 462688989 615640371 1037726029 892113245 320576970 812864384 122057516 214600136 396214891 863183483 161517632 748126560 106598765 304143117 927455004 184281909 510385347 566806381 598962067 104273705 484487031 417766764 916831774 380487834 872990824 1021703721 559391472 572451673 477481196 905989328 996244846 96210423 118369701 668173849 803121584 135831927 1007575323 758518962 1034622837 430397667 525461908 813739157 807741995 591077111 429476480 377470808 168311325 869818582 371711951 549663396 583721304 904340134 117483204 940568813 467116191 789723641 1046944088 31930856 149458254 553586079 521728691 13669038 611169677 329289073 504986518 979050844 539553646 722317323 224944736 594094749 861134647 810673459 287164027 416058534 96515054 436268452 895127254 673543208 924813329 328097678 536504804 167089862 200832588 280574738 919727340 12702780 520997306 390012521 421923029 648612084 266885515 467402639 359318508 681370818 226815360 318151534 784893837 971382199 913390997 82626736 1002764142 512423110 543220072 200070809 866485048 375468477 140967056 425005574 570338219 1030620334 962871979 986028045 878744349 1012729368 962033572 723651877 614021267 330542019 541723577 1041886292 222293370 824116793 894159022 622194971 772637784 498602050 1059202654 386777479 948344265 729702440 38131117 752903398 1054242544 182636711 58689184 217510059 750850964 586682677 635285284 320318291 331737292 456769924 79824419 808851657 480449417 16165793 916544940 821747026 577094797 880752140 224766816 191659601 668605566 216793746 758991369 633231475 711690214 888918860 752025197 726324550 82381624 137361615 475309262 834602594 288629804 938514778 47355930 653757537 283793800 247611231 814728781 758063994 264402018 83961646 931378090 580873292 646764409 378556725 527956609 1032281947 566490414 399623036 243459119 857726746 150036316 481782416 713121884 927325809 177393731 28630770 1064538285 767296780 305315267 116323048 546900214 882624855 804833145 3287500 862480872 735321503 295498649 609763363 995978505 486747766 24725026 1047838973 752682299 300511591 724149422 11829817 129207350 929717034 953250688 16049010 388244465 699953583 541795419 356410729 689093333 78825941 823880160 883096185 147327735 799680581 100138102 444200969 264132247 587631681 376457906 388732020 640047621 104699159 699898440 771609236 641791937 371876337 542984007 973839936 547484445 317587701 948748273 880824418 277784734 437973560 863400336 1034643234 443547781 746720285 713799604 177560937 426473814 225513397 661515265 666609623 187779623 1061855721 534351452 813323422 711099042 895598166 405948997 1066072788 486135202 132430570 107313954 194141542 700959494 86968793 192676462 106073279 98750820 1059542356 1039273481 839095642 501954685 320918557 736677305 142707158 432520261 644022043 959665816 63641132 239636604 372006859 259526105 823915302 779147703 769746061 288408459 147212082 33843198 224184648 334432111 820590159 533052140 745694032 906458953 545175290 592904635 342226899 650683904 1051300418 402639567 1042694171 403264089 693277083 653256958 64833934 43428845 1073099171 771473083 680407313 395679284 739405359 586889183 778892875 689175496 162527451 689473091 644906942 565371419 380628215 659875576 563287011 55840965 936173455 348555614 244701579 872338221 611962864 133707432 733927382 1022511604 156330320 843307300 530760507 878655810 251901556 480549835 1068592079 18784956 187862368 422927375 351795510 983195690 433936108 957746372 666875965 456208905 987599366 496556536 191294994 274310926 326510047 120501808 394109272 776141869 578964515 335544767 931635749 801502966 916488938 628043807 194034080 981077690 903582483 103498019 652307332 446813136 299408447 634811952 811673104 803775687 486710387 733787301 365214807 689512509 871172335 207022741 945804524 604254071 73799876 664199275 675376885 533858827 20350818 206648544 648778950 935662572 903156187 1007307086 1068903253 511392313 897020451 394051555 639004996 501915772 149967119 22363479 494072769 54575113 27771957 224809663 719125134 939433427 1011906243 258815623 854390022 643895355 100942733 460690946 239713821 817232028 903133155 142322066 1067482642 281578209 388922300 600388596 801647278 156287367 229844222 884650514 337482803 122591261 123801861 272419213 736667873 246655645 958336146 315789015 475343962 331558709 1065640857 655834157 21209467 305796366 326933634 46402064 815733310 842600611 307208499 361374673 824352573 142306745 494513559 1067759867 296815692 876731726 6849925 542495554 669717455 424482208 1011597365 474644353 1032271579 1024865676 305782822 841249046 849702458 739493656 726113381 33747049 255703147 353432844 137831792 998600240 953681548 324137386 7159922 353593240 437988303 501667947 698305786 421774253 622311835 1012262034 973305004 880202998 106206987 982521733 480065728 1070470572 41537099 130048055 1071863625 695911893 660771819 1028968066 810079903 627814381 5340393 51975283 493661064 250574292 943099479 895017089 370673192 498941341 274579488 593686938 814169889 485460017 235335268 329007250 485574396 797867775 524280981 812277804 472309539 569303759 366852674 104437297 1028442408 1032170548 659793554 16826867 128790858 6287004 636216070 935242665 317663111 930379880 104546890 57212874 900480566 504053942 369970963 572623567 81725537 748737238 68609677 209371444 698457673 491282007 233666545 424814870 266007064 685944773 375642098 83148352 93528064 811150373 28754021 643526056 10979210 560238569 128896539 296215641 474087764 714372779 707531356 76116012 473418764 134515416 341929021 434855056 392918015 514600560 209249447 1023035762 1066401529 437500732 751102479 601920155 1048159956 566284770 509833442 39340749 561705208 905170780 411795352 226345470 17577499 776694838 309074269 967115025 32124063 185986375 302071237 317122510 663411668 780786344 407596524 359515609 474935002 881358468 464808625 622737668 897250837 1017325069 304737696 677603029 560159480 392524920 559895307 861127996 305333515 765479277 958854509 240436898 646698202 724842943 588973670 570370107 28289731 552518855 1040636000 678163608 571222380 523610708 688082190 258126451 413548104 918083345 202857226 1040359267 738069611 120164383 809276966 669351874 29770104 442099965 650703327 1064033068 1017983700 684003696 43966723 457340155 64169637 1041375955 1017353098 69914308 997752104 422667416 6761620 498035641 611472607 269591807 833936391 1056554354 1058893699 307250563 101712191 545853713 504611171 619823162 763244387 155236239 57014000 508899473 234087435 501628293 584338158 692686102 946525170 921944171 209119934 758154949 312201642 623751649 104278526 396193436 234691712 485138590 851303058 610080186 715234154 446407910 354931055 971716045 95579457 59507181 486565644 830430145 144395246 768161493 484198678 203816505 217329551 415627489 235739151 753359292 246867623 681140217 674545252 258958746 91474936 246321438 15076601 846410808 1005834927 208718785 952066811 881659991 569800832 1062556211 801528427 1048616239 651656208 92803698 553575061 898281046 652253167 93012546 592399236 870527253 461675540 1009934743 346065176 376202195 168937274 655451037 372713921 492053585 965480755 1648887 356305683 256183341 953745897 252542355 649414071 1013937160 27332335 402231697 755478990 324516304 863795735 529720832 408800089 258280869 420227555 598516097 882843625 570218526 895570768 8523444 1057020026 610537657 144352482 196653528 230478268 951444847 714256882 148756023 382634512 664676800 558278379 137245434 597417404 526538049 1058999355 222505430 917211264 364624283 533380929 128473852 978977621 276760163 294157078 25939963 938254959 727195695 275041342 24683854 937628519 452086922 69386913 732036286 161283395 797595976 901459481 524718591 318835665 163499088 253014866 89386461 1006313899 526408838 168340290 280568419 238217668 559447834 794959895 520940705 449501103 794729781 968879329 193265437 230686341 108376722 940567042 113733075 838498182 935699468 683152766 142070553 223579500 606200934 826696237 150656477 674859549 115977452 215851345 1018444944 632655737 623605238 103234838 103133638 1069144876 176377652 719324447 826509505 557683656 1019555082 786700099 786863546 231010514 505176137 48732779 595939067 668684189 911662274 386331322 856293408 13942835 984173645 20020930 23381867 491985648 70229600 740594458 920234267 703814217 675802053 112220461 95412305 900279263 845330568 77812666 1035325383 1029040908 85362742 628299636 894329672 472742960 190872899 384312558 548622187 307151327 879029787 471696325 595186396 158751998 576548396 626725305 171073314 78933930 70149271 666494616 87797018 51782587 173048820 568619364 895570457 70099356 682566963 545549212 1061716567 31724997 257372609 1029307078 781274966 453935102 13029658 672119269 404861876 478909727 696214041 472913163 640690188 796645550 26872613 939090068 75743581 454841552 183355069 646478369 269181151 7775430 791512897 795631222 771210390 790408976 653067116 14320776 936791576 20637911 856431021 390286487 537143094 943155210 676474795 103036388 55542725 446905811 365576479 29084831 906528321 991444117 6663502 643313028 651368654 476452884 936881450 396355358 436326764 289804740 666328602 596267907 386478717 1007624068 380505491 607275112 846317245 725507960 721936023 1020213221 17523156 116475811 436063602 454702894 245139686 528974322 573698149 145597709 36138935 848919687 981413782 44859490 776073948 567484247 534672772 525690919 149345547 578007690 800390534 298642282 315243256 397904319 888649104 407200037 872787287 725095644 776623702 413022744 25128152 645403938 965719310 53205714 115230359 444412636 48512230 571934855 95084245 1066012332 729099128 564135401 529662555 465366424 828756167 907936230 616353157 547623654 571196993 856538092 46087596 971864714 450214993 106749560 966032018 352527327 856078102 1001415 211028151 189778342 406646659 1023491615 73881408 306850269 229873503 308759193 812235890 833415727 348535630 840004969 1072419159 228769997 1019282384 140883531 107106866 773163807 380251162 921416580 655179913 133089641 641041564 815014026 759107709 103469922 82677957 810939531 802314421 596503085 57517280 1066213758 943258102 597156691 258317500 521880000 221774777 672368597 701261230 1022922715 288457696 917641554 716546359 332231813 256596123 1013860766 968713213 31706910 518496219 417773378 652994647 748013409 560590637 1073199747 757279333 86771014 112314640 591985526 1070074874 1002538714 995428695 231259807 277032213 29485075 29019469 1037194481 851619152 780822946 718607070 558706331 9919055 121275166 970209481 939690989 637441255 715448207 141450638 68074110 685071352 847584766 243963701 750021181 131855694 273046975 646495812 660136013 344327293 781767949 1031078916 513681008 952334851 624084872 897251099 865368242 319945573 90443137 394729622 1011174115 447509123 912871652 252325674 422104984 345324661 230715913 244469930 854595964 491938568 715628642 670586053 869498799 296359671 639403461 439087546 514400807 167711759 222749559 144694530 160334243 126313984 996510681 64691957 379278453 103396054 886295778 275698479 123414173 1069357552 485718377 872802557 963050019 1040298375 242540056 772355218 291539945 52448406 733911579 524268543 300049706 184577357 800105289 297598567 476175352 399188008 1009087663 185758908 923048611 1046135089 238366553 502046589 1067761332 786709474 687298429 689157683 666197535 224933822 812010856 137503511 428135879 378096743 388106143 1536601 894416513 686275716 270650014 198765409 1003412924 971215964 685664456 1031268958 341685955 824348744 286123027 481182686 398771518 330291426 606221687 379383768 703917766 997875403 506368934 850889723 1063237072 544579584 910594479 290105706 795324978 106607944 916353797 1021920886 956608330 474424927 451161912 799113474 139170858 532293424 870098100 191785103 281616638 389965967 1008042210 273217373 798870136 530751865 1016001402 151736952 831617420 618008170 1054216310 486550360 1026638133 84736079 445659097 565123938 74000998 186203251 231937359 444017869 580152316 749877830 912304260 313275280 63515424 115232364 440864194 422976578 183348872 934737129 724690228 131224572 452138827 898261319 1020664976 74507054 59294351 659813084 774523687 1024815550 808826704 233937032 562786712 813328952 944878777 806932571 867855460 228938946 492234356 734414571 199899260 1066241448 565035895 950883715 143166280 563186523 100927037 707412055 664113766 246432803 56196808 498045255 229910686 311472715 57879312 434591083 639012880 1025415392 869776537 272146824 857941057 277154088 881737468 618435381 983873741 995633797 369857832 253054998 712659938 976168985 474637463 808928439 846147730 712357817 710035747 622785359 393163295 463252559 1018075594 207677506 699709735 803127717 605687447 564737596 221365648 406652802 569917186 98632295 1041800121 390322537 947092563 446661733 399808464 256817997 502885105 173136549 996311055 1067857455 794850037 740526648 1069686298 512018661 651969316 1020408346 678577138 893921986 152548138 344019847 134281519 120464424 1028236793 933022853 953042599 1048645705 701751871 631550488 112420587 145925465 251550325 488690311 676595144 1053810240 343360194 323183765 621040270 562027067 538428885 581840532 642589959 727138195 384834313 5293139 880223474 659346540 819192224 555386182 980313037 919654691 195343183 314596971 10706509 84121040 1026142406 886057767 219967014 256783022 104415891 490331552 641737235 341818932 841673518 86161231 684031210 677259329 309263663 957930858 300760239 489117345 958800763 155691734 353622126 382048158 752761550 532830217 92989321 269490974 1722265 795477626 418870904 477660060 859233416 465221786 352429931 230299831 99192443 389304294 975688636 771245407 959690558 797125052 774550391 251672578 351553473 50790222 358193827 666550634 91971667 968325195 176149313 936614316 923194635 399066211 37858084 452955597 809759150 1041312223 890861551 1016071435 904632948 214334865 723297735 356446027 347190479 267870555 1052687093 135254266 220029732 856678530 901888435 602784407 113876116 778592153 353117070 469715460 931870574 763305073 139372626 720152178 365838351 923709828 40256166 98946752 76832584 483020571 606877585 799352489 644928311 334305204 543602896 134946529 1007157687 506788203 675763736 931075718 202233557 6092555 17325933 426442652 946055928 458559250 877598109 528053661 366427188 268083028 680935611 27058842 721382727 467908492 624616858 847573009 922133659 964729468 270286703 552148454 319884659 123840230 447545289 485388717 672002400 90302872 843711923 239162114 895923849 893755523 1015654534 935316457 950955726 273206271 560498298 246830116 759832138 17263786 441680069 874046384 213493989 594301254 345775613 274132237 849383435 247929957 933706029 1045302234 754142929 748033080 855528823 834467806 391743339 390196116 11347407 19414274 448777372 394173114 404599090 483084314 468905808 152882946 205421927 658589111 53772180 558577036 650934711 330131734 553203752 736931211 143542135 808029121 447469616 1070046769 527673624 556164416 145803031 251967765 378897410 671772958 91137755 454427082 799114109 1069488960 171785617 77890409 347971234 293962195 1059789052 314138890 25943849 790055307 829862971 37941864 299328931 724149192 858028961 107663798 650429555 1065702870 349624464 52668434 892130406 563749643 199031142 301865042 111939007 669007526 1014984630 330828729 1032661074 691520899 903317439 827380215 670816518 959462295 650803942 990350725 316003973 853983680 502792508 1061290788 312051863 806392037 746373386 388803960 135333888 216690037 185604805 270761377 1068551280 990849431 584850764 1060054355 681298363 526345630 811234546 183841843 44078185 20255567 602195486 154578723 288706287 686992847 500881445 191504567 445679861 926647602 926949871 1049893022 738280197 232462189 906985337 41296573 1020915780 596336866 713561626 401738957 385605958 882593487 1013982508 42361041 412671215 75015009 916138921 1013571568 970383012 606346170 390864047 240326437 630208360 625900813 232022870 44296287 722012275 955923809 617406149 106364611 309570101 666123714 874298765 971817050 500310641 420692088 896794080 911915368 882695842 185108132 203340875 828913941 336428304 303144154 113609111 448169495 122612787 313747899 907418609 220388632 296442166 546935243 373110281 7378178 572761783 694144974 1020834012 1065983637 1071628179 442928778 521080975 75453556 727236632 83216729 69941372 253414135 699092434 540751592 770743358 175902156 548581656 787860897 283819880 426285747 1017650941 834499335 19574358 151543170 763988245 815664132 23954065 117938185 617660644 777437736 534922335 50825883 948696394 12290950 990226549 826979653 217033278 641266621 567666762 37682141 915296733 326425972 146175816 638748058 997862729 106438601 475720712 36829332 329386109 28660329 147161567 717440178 532405884 149138121 599298304 345359121 424001664 532348817 93824155 863124675 202429074 316894400 448835225 1066916056 186396350 1011133599 79723498 1019044666 1041770388 417248947 159343589 838924516 386734640 326114447 188965796 904680827 166535268 802815295 943415609 102670838 769405770 38973766 406617331 680336357 1050679989 700917339 485437992 723976654 832563635 1063233508 366740000 408768393 59568089 792566629 711721201 765558310 285276666 792819256 434316548 153293683 742906663 203240622 102735623 363004763 460741911 933747416 84509282 374898937 423589945 89210902 139867726 1040347017 682129458 466022271 913710180 825503649 763493119 535128355 853191367 273395990 55575856 685903849 547637180 1776358 928857324 408460248 313177294 255131294 531481048 696015533 844038452 97015750 476762539 774279356 701907245 583542180 274387209 297496327 881950156 248979950 195838948 941418979 295956194 503936376 127841930 974802860 686917545 849881176 7262167 22753190 821990668 877668788 873504978 761623867 121838819 255302815 126749917 914479127 121451082 961860239 589854692 888477702 878099182 1066790806 271558943 385580641 118008513 425209841 1126353 601774302 608779267 1034802448 1060559324 148405907 1001733275 890436390 683978891 727563708 840496145 112669954 382836226 687219885 534278594 654269696 177131896 976482301 11670158 356098900 39728315 941597351 174056796 1009461344 691933851 291315573 906161855 212874039 987552043 934684796 135857513 866472560 187192296 735190175 735088016 852186595 1054888048 27340299 1051387924 922799492 18130407 21920376 449612787 679509791 725058056 70692391 476131224 422148509 86288375 434387876 994900739 573580029 831073263 78436089 958720895 121459686 469670408 630461694 425935697 49969760 711785515 169420001 364270123 220700466 1020741938 991257597 585685771 811872282 814212321 159838253 420625874 923511751 1640725 174291460 60983612 114396944 80592763 942022762 1032988669 1069951907 742667468 219730396 470524447 330931576 278930184 889252162 1011687752 810911470 342895492 282689685 1061456715 431655277 52893119 221474838 50138729 484476503 624828812 854669935 1017316788 56555459 69936187 896934598 820073357 1034426076 365899470 742739278 986611430 943660085 452088095 261628998 197928727 834339918 868069522 488184014 840867055 304703379 266192437 948320814 668961451 622777371 28299923 32358949 632672698 15986665 870623886 600064812 224294765 132588380 719315931 276292201 767978412 440991138 395841455 808913115 442877686 928943108 665617972 769932714 414691298 187104435 261160001 186448381 79145652 678811548 2636796 363194028 235520222 322327865 291661157 842707423 1018566853 277185326 870883415 940506600 995834095 1066187507 777733696 126225322 753546726 915644684 532861894 650929710 940672556 906079408 810056004 507376067 678686097 724640432 213464933 249058677 732071228 279843124 654637678 707311007 902903046 665195444 1045041283 353586352 459278956 1060447398 715321740 18924985 924477289 34203090 792770428 856372451 563533957 930845160 6442985 240251676 71433035 837655028 153372123 1056422000 504084269 14917998 370710765 980068390 583387544 435110746 727306577 805220403 275056516 326510192 147010760 734347433 975547007 741396717 591899136 746540404 330359059 809317844 237276838 321493279 1053532449 861223997 417005103 909943473 416597114 556560278 998681673 829903544 401344119 282492320 101916108 97706352 882954961 820696834 49837800 51357741 268647950 94399067 807602100 145434466 858751342 668526568 341615410 769869703 1004776382 286158116 870885160 260249321 1019288506 875202375 437881012 768636033 709629228 834230700 1019608864 981655709 401999827 1539303 818438100 1023362967 966419010 286985584 976503665 778968646 285279274 1025346599 454608764 912246837 718423897 1068638340 622646367 386483847 613120768 907685562 630129414 671404353 98443300 1020300698 747041182 741143546 873478427 393212049 649441428 152918056 480530585 214043655 408947429 658628692 361651748 738146350 56083703 138817624 788616135 841134214 152537872 399125068 87327557 170133486 46371570 599904514 104900084 274711588 132389453 821385794 318684628 1026605487 674612437 402357578 38067456 187866118 812421111 749714269 403624575 933736308 185535522 25083911 262798347 769645643 309281630 1044972066 667727856 378352070 863388741 62161285 290775633 456553226 456376734 847957754 238536744 557360577 275008313 455715232 802454070 1004573987 146516432 392444476 908895037 17918971 50307874 318952135 508741682 336157306 449256435 573056450 441370694 939796874 120829810 647092405 970937936 656859399 132255040 104809137 132147679 395990124 90249194 490120065 335110025 187715154 408316113 720830677 987233365 247121838 375765489 687009778 516953805 629427230 346199908 936438655 460018503 866118138 26468660 538950927 261228427 253242604 953954057 927998841 221227562 669237512 1009975109 612407095 769296170 690634753 640315066 589583427 38312599 15244880 1011100314 323313625 934555617 1012740222 918199874 788350243 877036050 875592174 796691233 769332009 514256300 152056838 89366827 407253327 992599411 303480496 855024904 1004166747 714684599 792694034 724453872 193009170 693862389 99700059 29450588 289725612 989445576 968291001 320174321 1065638643 317688470 392477765 81273039 504103357 373519415 348028727 937900134 107888063 125051393 232760394 871709703 534314473 4069818 485928667 198181080 314388791 108810464 650429778 973234636 473175769 85463371 120454930 1061633896 62408571 894845815 398643234 667602160 648451131 1064032630 34856426 166992303 566739599 914147231 111431886 934305679 160696536 830366771 875374366 637220015 424475888 744420525 115990980 964363960 754962116 605469348 766581306 437233692 969436000 881454637 733029142 465614706 904317165 1055315650 21078425 309136051 848137851 209940508 151162728 250507684 2136037 666481389 201138440 222129864 66419945 866459056 227686283 188946654 380763741 669477270 630083088 166690597 80394201 74532925 969574195 535168433 237849718 723511040 862203475 74267505 780880501 359796936 1003235509 624094771 493772328 280631708 379946644 1009083921 774800344 255221069 67470040 798621391 170689280 255938511 236125559 92514155 751244119 367305521 642339505 84243878 1069976130 781700339 958022736 13962619 611378466 127862825 723698382 1010820628 346691544 430890076 657171836 19331140 194959359 418962849 336348578 465120097 299187 943677002 902322818 903567167 678763147 598983840 990758111 433311383 626071253 155209562 376165078 726042722 1061334205 795683696 897284471 1067003269 823237410 883096060 420557799 321320191 298340382 785307448 1005405580 895237938 597564816 74007307 717843415 290903148 1044551028 734104520 223485905 704931107 272949693 11950801 936999847 857026696 37320951 427698932 933532258 1001677232 511587971 745063662 764103671 111402706 447960334 974030188 302850689 349267375 492466489 922064599 626583768 661384532 363739603 345939506 606642194 297352211 930375930 1010860822 1040516405 723875872 335364217 825599906 1062605958 628907151 892451203 165697962 512260320 427165101 164772547 538769092 216351032 533978289 342632903 234055100 1029928739 915489702 230618065 143026205 639791105 700002503 639899424 598767550 827529719 659962488 338274034 20938977 337523563 283314836 908456350 255247062 874218859 582740763 556801321 557631204 364554353 36181517 624741629 667437399 401521255 312132285 986318955 990207243 635781224 349958318 213392066 599102068 635913895 503793758 946070971 299714273 616026140 30594661 282002754 504768590 94444987 1023430899 713435954 387545163 849822955 473777964 850465921 61741308 802794915 326404093 246993322 241342117 1043497730 238574772 344454041 393109166 219662415 633126588 944426268 826762014 873077614 900221769 615725461 124315228 882542672 421392619 275816798 703062697 887038595 790222770 1000814434 53630003 43635398 1062453884 762078077 479605393 148084193 321684665 1060629371 467139540 180435214 415411582 231355739 1071883327 1026125771 583605233 528413950 659695585 677880792 910620403 706734594 358321393 516263687 393142579 606442642 692272937 727565321 113900383 833071185 143560832 29250386 602823431 445759853 28682961 383863552 261406998 323167827 246157765 833096906 952396970 403872724 303992198 124463335 112948166 378661642 744829079 350605721 1041849124 444384110 133257378 1054539501 977696596 798798409 793127856 559973215 500021815 845670191 190319229 237365189 626033146 901426116 642652111 786835532 690638164 886409983 1021080135 554381785 942114903 179901390 1039519875 739739303 1023138930 400964235 403974215 49965489 456506394 310681855 997172732 180955757 812628499 373579416 799098386 696902506 836315544 1009590138 484871826 483517389 700807039 305928532 425455119 778444016 673103052 182980052 939746623 897103756 634719458 882224470 1071801174 18994312 112301459 965406902 1030070970 522447552 412138385 999279782 892314500 547886054 577876465 422377028 420050736 167902142 438787118 720627871 483771970 84839236 44685127 231909837 978789005 998137591 341053316 592864938 871779735 628243844 627987750 249348024 172878510 447137362 202556906 503918212 93609894 412054986 1067117635 332299991 41184810 596146331 151446568 660874665 689570008 102412739 394314486 661339361 1069462166 669402474 620063942 888483577 915879658 1010440539 615746896 453067983 697043943 993908160 342096153 367643415 172275320 869610621 961379543 837828102 269427096 263054598 495998165 857775859 779363020 518224157 287942080 518128587 839829219 992683537 612821196 633829244 1045035183 163640317 727879978 1073023549 617846386 559521663 50830667 91225728 675056723 788929153 419913290 362440251 752131541 4947106 225013956 110254206 438358443 960043283 1069520257 401181987 153495971 137584177 401000747 439458646 334056513 348855980 1041222588 233147300 1019909431 68036218 360284500 434232430 822488155 694193540 750734936 640535486 397550117 805156273 838215184 479411468 298579859 916599863 514702404 737758651 44185909 661480001 874089130 729896731 650341833 957579726 75329713 647709752 420094558 281452307 147628193 1043062041 113544276 105222962 582799943 939198183 781048710 548699343 267492280 1031605097 402009541 45373005 169707863 88744064 715550230 562045447 160624140 296848007 48692264 887120067 606956173 969677739 782307029 398203884 842936875 94302021 60759324 509735129 482061101 70018938 991907631 703410692 35621221 347128086 245536229 425652106 580774940 75673897 1068513340 161348832 717651669 255001223 704937236 253537627 240717194 105665158 772328599 191974821 191027028 996940730 453977044 930197658 484856386 917679749 1222127 316646538 227996821 165568741 545031204 17639476 360274699 1018473031 1052415604 865189686 474824612 426322893 251187392 925983582 924444959 637438290 284416822 1030355997 690894255 361449291 527953282 327811766 1057499584 694865440 787471882 297804842 807015462 914402691 218720135 130082513 1020515583 246293383 289559051 598490685 841097239 905851311 575650030 757391303 608600799 147274352 574041381 37057185 770854133 1034416504 518273759 88811852 21725390 154465835 176408500 230056867 85416090 329395558 394149897 1060226000 417670000 317771187 621874145 306748109 761304914 679361676 516117390 383332151 492055650 787849904 1035046005 87242497 459853354 385408528 22200535 860605963 116848503 717016819 588972148 84859695 128386625 776298924 608813208 533637150 478517307 124706008 488039447 999294543 585687334 409228437 269969939 1073143228 113758858 644586247 560153059 114285289 1059754109 609911993 336803177 642333573 50846772 1036989994 270300756 582414583 992216012 337503722 660493385 711278052 461018374 47263068 790268185 88029821 620994538 802486213 604017467 926678395 686699454 956960601 1026520885 100599681 46984243 408497476 990303602 531624022 490623366 777830494 590862562 170022680 225880987 468647056 938967251 990615498 253175721 184776973 720369740 487737826 713540506 500677876 273953630 669247766 560366587 527574503 910382440 82417419 1018836458 934899612 318289240 193765108 1009047713 358171454 447590861 1066915814 638092193 857803493 1064490808 614713748 347449438 652146043 930862393 470036550 417137758 180008026 615794128 153746440 1005282756 417241851 497906738 902236126 132511492 267620073 204818045 155127638 10466764 444183530 362444971 652775155 680384229 683311845 882442652 825915032 893533176 18959643 650621036 349961204 104434012 94784595 911133200 287392296 222981566 1019907454 276559391 651088597 735489124 473129533 929575187 17505529 831800047 940916463 884997533 314313629 409384393 572631232 113661520 673391231 579779460 801643270 408018044 218412923 198963982 533139980 261018565 687822390 578738607 64610710 714710609 995581451 874154105 1024417462 296598531 968782454 506572008 862996213 233321371 193122388 385356655 960867903 565641598 410476930 329041311 709543737 460391841 739626676 99917691 127137162 132778217 694894335 222434620 111088632 498473394 973205084 636821577 33312220 139856855 614742660 251850231 831010694 1067616576 903181849 502593344 616691791 434908491 539239091 433223573 487055787 703312510 939012888 399695483 38693134 634552517 162725560 349031392 563226559 788072477 696274166 1065085590 1045953980 985000543 169473135 722036619 232459030 359064085 230718585 792182450 862216830 591296437 585190524 220534698 493485113 807679713 729675084 484817389 131804118 511001337 930000016 525767801 940439483 583588569 435319517 470775106 826252436 592959298 431772897 460337821 412335038 733146641 562257601 1018512312 84108303 969993521 355659076 195024767 548376643 265822362 390797823 117174600 325644560 791992179 392778738 529837962 985735098 76587580 1021548839 682543266 447236480 18037921 1071006914 447729491 800156466 90327795 640615784 436374267 402728710 551965479 362674664 764446769 785189363 68825498 427496327 866529277 363570767 205254169 359684990 197112869 852708167 130205809 200616683 520825119 902449315 402401887 151826353 772963772 190931285 244044729 996324845 591113786 546575086 126180367 1047232508 391367253 332586037 884461763 108921330 296837952 690125407 831930856 880175504 845952854 992475996 1057211382 168026055 494101097 436971969 590587541 343061376 1045813563 14605888 232530183 724553665 464986862 624198826 456826801 507516104 247237276 66007364 169503144 108991019 831400375 945925951 323509682 751915238 934847702 487779537 744641568 459772471 165613816 976480061 786482990 799596150 586274693 356836843 62897700 167832684 790291633 318469849 540051374 501479064 423405830 219668307 67045662 180357405 542946761 241608405 73311886 644578381 91758662 665455159 523837766 1021218355 582769351 542607557 398157268 285205215 469076057 862780189 407403738 836676707 877880376 117895522 57215470 738504608 392559604 246379992 31357701 992526308 765821652 671430742 1044207568 860178524 204724552 923887227 576905929 830656446 724043791 471248720 482679812 1071306008 212279960 144483762 325649871 534208277 582257175 179831406 377004794 642967587 496698245 346800291 89613432 894224910 432248950 607076443 307162695 381412927 99221831 558377143 657822825 496701134 68143198 154892326 48455925 345043263 140961139 616412730 165435547 280776586 159943244 29253572 696752789 16207859 901516251 207446106 549840182 734425774 449333889 491651022 1004513543 783983659 955935861 67188849 805926953 132701494 569446445 353076396 95250414 733919903 128930316 127769000 595328242 435530532 1001997846 805482556 658497077 578524172 869689627 741793594 557040985 486244939 675342277 483763163 969236317 815704048 1059264323 935533670 779586874 702325741 844457143 60487748 794445395 318053193 1022639458 887726941 14157680 957247271 917980350 26478746 1006092933 477982993 918304608 623869522 868863518 1040071326 473606231 9902505 19413993 959961808 349186436 936021772 545807235 727119373 363543655 444878391 629413213 426144225 659466964 747388472 56920428 737669623 111815029 712841202 405913455 541738235 479562542 204650531 722460924 1044634956 437287767 1047710475 673364150 854679374 159637391 502031278 644661757 967180289 793995530 680620425 370214033 672397465 590215862 3037030 409115125 886981429 968479806 714051463 411131988 1039564844 11891158 270101398 20925719 415589293 292096758 936845597 1006896174 55301041 297036256 52240743 208533333 149701331 972928524 928211263 587760829 537598962 175439351 173907796 416662704 408360638 422552793 724590620 485233864 585796093 462455094 638809567 222006249 1042659042 487383040 34744281 242344499 935374798 136275111 763359080 486493795 123037704 852902493 193660346 968553703 774374998 370440998 899706554 430162697 537150849 177317851 516228486 256840638 230489973 352593013 644006499 479164967 726271485 114735059 346726008 40143956 273446603 626040163 22873528 963928387 865798673 209109015 901136302 428075656 678461943 337651436 655483848 109085531 737471036 1016250336 553754650 984069894 749121455 272958287 443190919 510018235 195680982 567371374 647179247 770137860 568735484 288578099 960431618 524103864 423410230 690984950 805839535 716733348 771612510 766613617 193226101 374711348 651733881 502961907 838573878 481081393 185656223 26127594 480923391 774697629 1055290442 246091414 738541340 505274840 84425954 4191057 822195790 242706372 711405534 769106691 499227559 690373499 206570116 729766914 766605479 800218480 443084727 504173721 291279058 1040376463 432486105 69591833 74948288 642908844 438462032 808295208 114124815 878574784 250231685 758789140 405504927 267464432 329848426 817458289 883303668 121653751 270748940 141990350 535216219 84223045 318332535 780927966 117876667 829314784 279027108 666326506 738623066 264815701 338405919 630644898 1024578837 672107260 311558712 72699294 547309194 632564112 194243691 433991407 489978183 1021420502 440205499 801824858 829656528 623852282 85701406 965192997 118538698 645839568 850499383 538902450 147886993 761691483 928796378 820914481 372328636 595793267 808952001 1067821018 810087459 743451858 1058415344 864773389 327251074 640870592 217205816 666731947 685396509 321371696 498931753 616482347 479577078 819157263 796054062 20193077 1058065955 787751248 845099952 300738296 274749674 574066172 860922020 591713649 492931103 931666357 1008565022 759562814 994963978 1039260922 16065737 137557450 1044103742 465257739 167284738 994013866 1006698560 301187187 985064435 547277896 817500574 286539159 302508256 1055407344 840559903 199502439 437749604 9269336 431241919 376010028 692645587 164406713 860216155 267135399 80831199 927411575 379446232 287706359 436931830 721044974 475214043 851092396 861393359 498410579 851514371 26257088 31732356 425819258 813302315 790208430 747831362 343718152 456772254 653837159 280454105 649836963 183601723 150531410 68075876 963519714 565015918 792456195 241239465 426486198 572425826 356207954 220907630 78108694 357781676 1047486281 760196579 499643290 297748866 573653181 459113022 621275437 497528954 297330991 603919226 516520182 985732508 972464917 125636997 710756571 173594439 694484809 232036208 91887164 160741437 371365320 806612304 622595409 12018799 170536304 609112865 1008084829 818216386 712352385 657017842 356641869 162254049 869817404 104535112 849976648 347912655 976306782 818001474 593792621 275432862 1060829108 698205798 447239526 160393081 535011066 683909769 318866624 908463264 194297347 243210456 867954561 648281363 693742197 643237917 213657834 422097464 339897630 646300081 1006004742 424756340 1038732566 803402381 234144709 654002595 983880658 764985043 308445796 490579963 933335755 295954622 342377881 36594668 204564384 606197236 357884377 681579271 785590711 66738257 791315632 261486238 819949777 388609537 550084146 708960529 42927917 560870978 133280032 762314838 47739127 597608729 48750755 173883158 597841993 657830500 678506625 460385805 864865818 355847363 553417485 1002646968 993341397 599462482 655952228 318652455 977553483 638283546 584990930 844643056 902721022 578362936 860087928 600062763 212397046 705972610 18505703 46133350 202478920 984001579 843259531 80525778 576115719 778473316 811283579 687511940 633008842 151245005 325442454 46401774 762715406 162124289 981697680 36510269 311643835 512497435 363501916 208802598 5050173 621813328 935239864 627212526 42703287 982509383 1072029409 1033640148 304532137 988404796 37346501 176385723 1040145387 201211109 339228477 134698051 570073029 1069026953 809044034 957401858 666875898 310722767 430674349 130541197 168054571 259486441 560078166 582470938 895155687 482970984 1030812075 923839150 18548073 723259659 64638816 775242867 193645243 228181632 377014197 748377201 546814402 420492400 756108737 1004356242 716563223 202818035 137593769 548365474 955263843 623250514 568289454 167930971 387230343 882385071 151084771 521232950 175853632 589493100 601262530 290254280 799499645 4956318 43834664 30483383 686107701 198637474 560692528 374156616 473476726 723556864 68604780 661276018 762417521 700026351 425323030 975278177 965574731 890429358 264427760 778203968 999977169 1021519685 156538859 115041723 866051048 233530697 741252412 598369797 1042732236 959534624 1038836568 186808353 773388039 648262972 262710809 628542858 266881612 146164236 964369828 473174045 651126834 864276717 918797197 233332223 977954354 785857081 540142270 309028265 136362033 688215611 919180421 796490978 502781327 282929511 412718000 374962766 71876697 29445177 122113891 417278827 403559924 557810134 877617411 229984504 905106268 401776208 119472786 517260896 249743954 756910458 340797671 932889162 538709741 920403737 42551574 730152480 151681361 1001733912 992088828 1060968481 619096433 725046307 654098064 420930728 75642811 352145435 77508021 78289538 1006103009 795255491 667470560 16828360 823659371 482122152 157895082 475939451 840238478 1060104022 383020480 922669510 881445542 735742655 220355245 943302334 415559942 892200980 408870583 1051044659 751430531 530951371 361000722 564898742 1028740689 633283935 198627201 296229202 429210407 276653246 155767804 566946148 414234358 773641000 439322384 456373383 427780428 465972806 160814188 858754333 1059898891 453780556 449279310 1017029217 1044066047 87661715 1023012116 229804048 490564669 979674235 842006298 894371233 402400316 649234483 513815480 835862474 564156164 232219594 412916870 277276273 1013447324 676905929 653671238 894752070 395929701 613122605 747588191 232881463 806794104 142929526 241321879 622694205 153539050 63484359 357570100 51000124 523092073 765521626 677275177 408620053 771761321 244157687 11110274 27972236 207067490 140725574 297261601 686577047 503386147 676598002 739877455 247073733 685732359 987644003 1018177576 443127115 163105796 351118785 545484753 558046467 685792836 630086261 280449486 760256140 796251339 948841362 67813665 998795355 391566565 633994947 598140206 527790581 901615742 31902593 741213200 883497572 85751901 1055156458 1021739148 433526140 568252557 802267224 347068449 312539159 728743863 863665616 198463273 512475424 417980939 508343477 2394912 435832684 230107319 818900015 939244099 507609923 715005494 575404183 682873965 549306446 316126932 135319754 475100133 233663398 271396919 587215630 266456111 85005705 988779567 779805961 66737132 30487837 249440556 457171383 238669477 781747401 257518471 959590650 948246932 833442178 291551825 1003013505 260066285 577194295 1024777174 314132081 587223941 964246872 1022138932 175116119 570915817 15348459 709482731 1046928483 139845248 321056867 1040590986 731598967 293410606 545682262 885129401 454581495 730858806 516127405 215720433 823489319 792715194 151693528 28417040 629123489 487093885 466193073 37036211 481969172 21801850 846203384 198459877 491184769 687867152 827129583 794803221 405303199 679083710 557863717 880748400 1058442045 261329456 373680933 505412615 956716613 262979528 243432545 359274951 246164787 29479072 434168096 45587991 753322312 925246308 623870872 708557415 839866253 479620521 189830577 814717544 643052712 107830722 900490410 349592334 433395423 75853967 420609541 1068580422 49051080 785258967 402796560 1001991480 278225762 510194885 884078840 407616612 678875428 1059237713 326871429 480355683 822288393 88453512 388258546 935194443 806095760 482744932 319036234 198774819 355091628 919324368 1005849107 210388643 693657037 507562162 170006480 2955309 724509018 866795771 978077548 369228222 767787754 396739937 914114170 921520404 805466905 506331515 960473966 656857364 759494415 474177861 997621992 410978404 8429202 904228253 285512366 988609829 859124052 1004585008 673564495 323456714 306063878 957304040 1015040697 425384293 161849954 273470272 519378164 401283729 11975759 185147529 544200084 776588522 162126987 416451681 1045201640 713231456 70690091 351727008 206712989 513311956 485610239 37457451 437718090 606242579 297978329 458224482 542374604 800801068 155034811 671520690 811680243 894991531 716750686 662236995 486682861 779290851 381504745 1059806077 21705494 780661547 627391196 952356965 825302433 476695442 661772846 1006216483 674191008 404653547 61237144 520589281 999718337 608647926 420921889 265797575 56200574 698010421 88011879 908627100 531190674 675142286 309889447 417315345 99646277 907794435 674589331 145617330 655029038 418843590 695158700 699387075 327636374 761935172 1818034 435415108 877593608 45674227 486145490 621698158 753643084 152520857 841427972 873497930 531601306 712296645 311357796 1062088486 748719164 309903756 635022725 721292230 629675701 463716019 476207658 80245663 180568704 393286026 835421570 633037607 857802510 499871004 373309860 231765015 535442410 88606459 244442293 739167215 899152067 703810117 407372822 521491524 156650347 711597530 258548488 722262674 774535832 580425326 919785654 725313516 177980640 745207515 208668099 575514444 921872018 956171409 990201380 992504049 538095139 751748238 1048397826 11475412 437921769 25759190 924687350 864747382 1027964075 1060766726 411408148 119892123 73288215 506606587 49150521 933667371 402825422 157044733 265746257 726229980 595027165 145601857 809281913 966794840 157154412 154074709 107944359 861040102 624693313 391076347 710390729 589805787 1015177959 263825825 689910255 336401271 9458358 1072048905 852460858 469395107 900351994 1032980565 469221482 468903112 962762738 1007527410 940741906 223943555 26135040 21295737 977495654 754547206 1066766778 1008382564 178870618 694694567 1029392127 756018422 888510017 50059720 873761491 336019562 685540925 475833334 885115817 369418875 737104201 717972372 165455298 701371379 442021844 180847793 867733701 685853063 818988647 732599530 400490268 1038310383 882511691 205355091 808458606 541190325 793495221 214939447 984630198 931970713 424950674 1007422818 228131161 2757881 108749859 377617166 663005969 401937857 737527989 7031585 111255473 792576681 239987097 251151154 59746168 787348366 1040472937 978528788 221028657 242380727 578443247 879082547 161520724 77262217 433551193 166861108 638334617 291722613 560501899 120547314 415817399 17405615 249020548 933914973 1020254446 707382111 104712254 540218535 224909322 700130550 829219287 637002307 690400293 782252716 187593381 226093136 178301017 492433240 202565715 937454381 60088370 268440916 838737001 6633804 121483259 426880372 1027878920 1000025725 601551101 336801551 315459409 439859474 51851055 10655411 831381251 477114088 1024131515 293050033 933297340 934048049 804008218 1058009657 880428203 788969093 97631236 370309387 532547107 963401311 443742658 52269274 198722939 974190449 726367756 1052984992 236489298 572388876 410895706 493104670 708531984 84048019 785474505 887472086 387579009 1071496245 816141399 548079972 107812252 1002769040 719485161 311359194 333196673 2360850 626196175 735484283 261684112 177473011 51591295 930745599 206199399 1068956188 677334188 1048800818 391367558 610408203 119722092 269287441 194381774 341105736 553623350 555334535 583513675 244538541 474077714 357441219 886136452 985386926 207253685 57441580 1031564247 1039059308 418918275 544245547 368517656 183338281 412281168 507298709 696219562 142490558 989834406 328319055 948750360 174266919 837257563 176958751 225673604 919716663 777287747 790201426 533254962 1059626857 528923989 979681695 1021515738 893153752 594642164 641757521 194036747 380555999 677409042 640103762 664309408 284004584 966066490 940316379 202444086 122773731 25697901 704475178 555781336 23486060 161980526 739359910 560797686 553666075 113031636 945577513 116865028 444204222 503547743 715004704 542007078 235554997 943305290 282388987 441105434 1002416394 987079395 300139712 606633287 756353669 245407082 923477675 626166579 883683930 84082082 180778182 214194092 213365663 87500163 1000051575 553125304 518180159 112607271 307483996 453008033 580988992 185049457 949557425 606133388 1068825234 711566195 747607336 587099510 873448469 267972900 73943209 901944943 437468749 329672756 863379274 714865951 253330826 1042456402 969136238 979976038 850146901 473778027 506684473 216970988 874628879 892916454 276952158 197931707 416876108 680547084 700219161 737168534 835905911 274227556 184989799 57854714 141948947 612238284 1003284603 539349627 500435268 873014151 941341942 401783255 763828179 94704100 925118222 494039602 778666086 523651051 824384132 219746288 585326998 270212918 238424386 875050515 987680821 917151341 867876895 557691701 306735627 233630655 266178615 730822166 923572077 1030271566 103731389 274085165 326718735 981312226 398033854 624603269 687475635 694584747 530522852 362461762 717273317 1011863038 1020478337 587361309 888685949 925481365 1057407085 690482052 821703062 267336641 327969814 728538132 528650868 648841572 526130586 646336299 499203683 699975162 238090501 679051191 45844347 980005211 1016923699 835751585 787708013 83854685 777542655 996428598 106647054 1034496063 858715512 335807904 392063825 53720347 1023422979 79725888 345675540 99006149 706159290 764096105 919195178 596226 1035727830 754141067 533456681 83805239 738718511 1059458083 458790036 1055855201 651240152 981166606 16054439 610961409 396500706 820393498 893949566 272360257 920769402 1052187871 75556844 786933977 294256295 681149433 982633546 580883260 633405569 14943148 564413978 629227728 417168717 924972202 557076609 307570435 866923418 539114376 1023308645 191606167 107951658 130269703 823055237 280487014 566970403 74210089 432298208 189612642 683842597 155638261 925756268 403867543 363480790 647139595 900804025 503845273 223232393 598477786 289001347 742933055 979305851 512209816 846298757 772681367 894149019 111010533 572990669 302981428 312739317 400199883 208601003 48675102 1058280226 315390988 448000005 484136414 397519701 470350291 957127258 280304356 208786418 81863511 739553061 187376345 44913800 83084033 614731619 498362609 1038120685 199540860 533557556 686831733 387748721 1031837216 1023821932 676073019 345165320 715600098 700225978 81124157 391805563 670314345 34571125 829298583 470434262 16790041 324581378 924745464 726566872 992870242 659785911 529263693 803512033 576465055 275846956 605793635 81314524 797371692 712765795 254582809 814312673 652445569 944638757 265481962 225064624 431701350 200466585 859805704 366700438 814960673 983077033 369855390 1005742248 726582624 82799138 492623399 925404340 484437990 8860952 597809900 734435103 89688818 86849915 465697771 768015247 809402958 112872639 575495814 772837434 284443154 907204178 441435678 725220488 402576152 515228634 716468099 569768706 859251329 386947325 126358055 977933550 898154842 1036737312 796722572 769540747 1051114801 347325576 931846772 164661964 625810275 208644879 327540936 286861337 852725621 256697347 836856130 1051754088 180548908 371577904 595793121 123476424 895483887 268812113 180187912 869970 829083297 757231858 178821775 891946208 738249480 109101627 45733505 1049304182 490306579 95485834 1026562080 340850112 779053758 989540739 541851737 563472790 607101963 679540419 158559671 848943495 167359356 697614575 118904124 864173212 612170008 1037934086 238573690 13405239 674415393 604410024 546160208 208420657 209398634 339856265 4866928 911324445 757247852 963653742 878113802 149622817 194358502 172450352 63070573 920728700 472748094 285637185 239888509 865657864 662265954 236830776 579903291 486666849 1012653118 197657320 861266281 234573426 185399551 859385310 854298087 935076345 962644666 51117797 436885819 644022892 160013887 264494443 696589806 442229646 1072133069 443346340 307757049 1052694850 687350157 797280820 620923739 805199714 1037554162 833877010 237699078 238000599 98359013 873979616 94516790 397443929 215279888 262209140 173298475 613914236 200919485 904056956 183442431 725796510 883077110 842196244 786248143 293421234 764015837 256680095 732490174 845089205 16236707 490731867 398982107 272890193 200226968 776939091 750959760 335786948 158284087 312084981 1065219606 964548563 210380611 313347504 1024517130 841806287 420758501 1061901030 608868751 932106368 650589890 880975165 434959888 409199124 151618943 604725816 269381763 472830154 113642111 226496218 833719278 580019372 1012462541 938029351 659149050 132881681 816376324 935277702 786683709 936315587 189084466 948932014 82424916 894223512 87841306 280135300 1064169733 280951369 558829949 1010579833 1069947549 42163193 1015488919 339804299 837707220 131664015 382631188 863807037 545584459 384799005 197326485 223590246 231735898 778615074 1057169791 862059632 779572585 784357377 84688961 736213900 435557931 985090567 646634288 875964830 967434004 508241601 926242305 347718755 428176761 435289293 8225198 907150460 561665245 24113400 1045751535 96011319 572987752 376663790 655491435 259998700 878811885 620730863 1006834697 452100381 427779597 247430501 157640708 115668133 691551297 109718741 510788310 82757171 274081086 1016995145 11260573 125450065 266992504 826212805 609031647 60859427 61170284 954751631 150263917 151777318 24659882 1011102145 502614332 471414389 170208182 704294550 568722679 501275908 41008940 864575527 290931684 36375931 719088488 612976720 687264642 707734816 77368443 304972360 802424754 1055922030 181802110 595756214 607943169 387733379 573461949 1042727392 917788242 790437482 268582952 743137816 729871264 857612610 868074048 271937761 816820831 984747250 554583451 459944241 702054846 172966551 398920309 581395937 562228089 708336695 829012151 711310825 915845202 233122917 729563346 434721710 855885355 418673920 505630097 952959481 605299122 186724040 666726019 67967532 690080897 281713545 770901713 369396663 355124810 420037657 138053477 445669466 765715301 1073239639 1003582989 640793391 655751534 556606788 397116331 6547919 926562201 828637127 685010532 572476103 613574403 161051625 469051912 704770132 525723999 53328877 736625265 510492765 271242024 730196955 177355394 547747011 236182309 548802111 47071408 540624789 335119847 562180194 945664862 216012700 20915200 113554224 865424563 357308595 578048134 947755267 475049401 670330534 521960127 273749037 1931825 986676092 1055122935 59693790 597402322 744871619 355615295 266619802 395390080 7173779 22335709 746638369 253337005 699092419 315947330 69360437 414346321 975902238 576289849 191936696 882138359 1065747932 800902852 857626424 107037524 287235918 894263343 922560203 343125937 72914165 480723758 384995123 499570322 636729466 262708566 499755272 140782495 740399447 250413545 105040848 220441320 839145130 311591197 719142011 790190118 856789413 1017734664 685256039 917927454 874347735 745969138 934011618 479847562 53528687 773779583 326815914 286861196 242184798 318154523 931632367 346049948 982359645 366515540 158290063 360928248 150357164 418745443 1049794188 241915707 279956532 1047053682 792967404 923166699 739716675 202405074 185393295 907393647 482973364 207573441 586785754 108654707 539593106 719395084 327848997 491627396 467655078 698925367 508815578 810813673 576466475 91327952 458810489 405655320 56436505 706568475 366461905 234477198 750228068 189674472 1069579170 860600922 127911293 272837476 940181562 514915722 150387111 808447916 252305366 25514360 207067012 704719182 56494666 414135087 1026415318 875203761 387785355 963790622 143377522 417909158 605403799 26626689 569217084 65235054 58875084 6273407 570882981 977602536 368393202 1035799358 299940455 56207214 394514232 383308502 898456665 271317474 238007137 198132865 49090530 632467220 38112207 700720418 169626581 972932399 1044474935 390740521 833125024 334133072 807022527 540563850 1067142627 519323783 459519920 79407490 634560435 551801833 726703075 630302949 827327120 253561429 839360303 692526966 210536441 230272236 827875519 184471275 296226449 170174112 989422326 270708969 428996712 365781728 438825601 886987207 411165620 844609251 866192932 865153470 152960007 888601468 662270416 778698803 568528417 753006548 333700027 1024729820 716984649 370221105 618127171 263331144 638770842 507342756 961935286 712380335 955504472 1061378830 922801435 1017330038 73254014 331063048 280182601 81668664 810313139 1031919395 917994872 1848384 210402120 33855487 220636208 953530252 96202116 983145983 132735959 837666950 874749590 1043829645 962665816 401787402 878004532 380480283 832288101 202423077 382644949 596421469 873241550 589211262 357046146 480987747 1022671145 522237381 79628419 987108666 647678340 613797760 195074969 755021239 992249580 900662409 454167052 892625952 699008014 762424859 983066816 515341526 244734015 355100566 495598602 779083853 162753668 654197443 498787748 825840420 850534389 972647356 1065556802 981247181 127726024 925124644 357946401 110906254 43437805 120446757 70783540 640820715 588122402 110742286 733505452 385461747 580558392 553669918 608352448 754892880 205539004 655875619 184437825 213568608 956868588 363379604 105689013 877320752 466477695 575564582 813331437 621970520 13062337 362152396 273926690 481389046 930202989 526811500 969035957 48822989 211454915 718705073 836528516 1032550689 311420078 923490513 693378255 555570446 292332713 661110796 475619851 72939932 476340393 549266280 900576259 507602403 709578463 990988351 371109320 119466822 862920930 223093493 38658789 18167194 958917906 712797212 135814361 61184861 681104106 853011024 264420483 980047719 327690956 66857938 531861897 10748762 939713128 140033129 390564628 971514243 42144050 905904665 1010647331 323104805 27406716 632463003 1021448212 361722308 1017429653 38813269 95398029 962481368 49447910 904653694 520753306 305267320 432969339 78358667 661069183 625280619 832335709 815677424 884764445 840317985 406564442 774474436 688548441 330139049 706204240 395475569 136378845 638119957 944635971 799835639 38770952 1071219678 787962538 131236877 259061817 977541894 399702976 498112059 459098331 903689702 689408498 923564023 105589224 21311189 937836595 512619215 865293440 649324505 746342840 252293288 615390722 653033079 579358037 464541161 497081009 455758420 644652758 906021839 529729044 266862395 644824754 106996139 419363206 937705275 857444297 837807889 223297341 273690954 175388027 110035823 247786171 561328282 64816056 646246584 789132282 183002617 1030962470 957445016 59466062 956003691 217475834 859600280 554141649 164797241 767539265 224118603 103365879 514126785 715841689 744268457 983063285 617411427 641970681 673285243 840694321 991013850 858080860 202636825 873164968 1004738 426230746 370373292 890522337 1022750790 648937663 913328289 705900193 672880212 598773964 786200803 262111439 342997495 403545478 218829517 719123971 897060850 940302959 857862266 499036088 482685216 919349182 886454462 462722297 502090221 480389759 197762539 452360499 365160076 868813205 672494431 138102574 191225283 268675151 544633792 620874605 290466826 233836223 519579188 815825332 996644775 937608811 461271122 80660222 254668611 53276163 233581363 818065763 696279999 258754241 528350774 923532701 574818541 923333006 114564651 44482176 775238947 476268242 467652091 796820630 798345769 352285984 20941702 391585127 1051876225 880844474 976201693 1028611946 102061211 29868511 764173314 385885175 914112059 839071301 1055720425 75557531 564634498 862590041 493401246 516081225 396482254 977777351 388222767 937490487 879987301 29184872 387412092 67704480 356944725 710801555 743850013 642830198 686852984 749481117 614443754 943587707 1046974011 705926184 161695781 718695396 488572428 835440101 1015643193 978941423 10000781 954115484 150889989 492845373 839824302 71549638 814903273 444966170 733152987 789775379 231637276 454245674 928527855 494248997 643616584 957787150 882704763 365243768 684294217 335982715 995925261 627015596 235988993 595975484 353707751 1046859293 1073294315] modulus: 1073299457
