modulus: 1073233921
n: 8192
rootOfUnityTable
[1 579554172 487125610 556409046 23633515 71079989 291901514 960501695 974983116 250491374 243869153 452137349 547792711 66312059 189972911 313080890 1008970789 427618898 566255842 995542366 751321829 372520182 684209600 551534289 606607316 222481162 804212809 686304506 92142056 642434968 535077632 369343827 741371395 174956281 203642420 208781603 672479563 735663751 676754083 825666679 486786659 534219630 1056808571 845764810 306345093 282208764 1026854371 603936937 3906078 759152906 257875707 97480355 137289355 512378284 316372665 570513146 263449758 456711339 628916043 62059410 636658785 434130857 49998764 520687550 802432473 182188588 966679566 496198512 155476 190906554 370003232 232633691 764666557 142685227 910207258 900828196 769473334 957572697 592470740 757881545 1068500560 448639958 830804716 39966685 433093678 854081261 741517241 75575675 659490043 879269867 298754001 28062585 301786699 151869282 819193821 816481194 351921148 557759061 2526517 719903547 135893620 389017011 34988499 568567383 1057187089 298687743 237427589 770059473 259719685 758047690 549015380 289896877 261499209 740633342 151799399 463468722 924217763 83517360 683834735 719475539 723537132 665063038 972630189 464784688 141979843 349461162 81393079 375879370 796722830 174597321 174541861 382862770 914025503 90030935 867140497 759142390 561640314 30070528 211098911 972604216 883251278 383205982 905289590 137910796 177669193 563117652 386566731 965669909 314434970 53882455 52228940 909148391 976477188 51557748 273533975 438679192 251580970 44686475 586192517 362576595 948255446 882226232 16173042 48708543 753879947 846951236 9142006 158252282 513494314 711184281 722358896 597302222 371614293 1017002919 411114569 83333072 824701356 1039615825 128548066 475102136 603623162 222394939 749436134 264331811 537705340 961087102 1044108916 153783576 572471296 618777343 918562143 951016637 182783140 356372487 169188093 487463828 766023102 387515943 350688351 125834176 1052390897 532852378 963989473 594999586 57945141 238451452 247748535 100085758 875804615 898600959 468491374 751645158 400792170 76488935 749492956 581861231 213060249 837820175 258829154 481673811 170050749 8272099 943554 70375842 792640875 631216467 916435693 346983695 819994526 344373027 1006035010 270884892 215659520 154431241 400813452 544157307 317048116 16093889 908051451 302317463 628915354 1065487435 929330768 212807960 938249665 915335495 377032554 581849990 1047747188 698303107 472034656 979344104 719165545 692683643 807869240 149970138 111680524 337501828 203111519 825358042 230480481 594383266 797777479 366322871 366359261 222896770 119171513 213201867 576441996 683492096 110236498 757812341 353209242 758618049 585802970 114690229 44594865 510567467 925113596 487395360 528735739 761813380 720620560 423082024 390301859 382068688 815679409 600899498 765841610 378626766 740188448 134586197 401234833 355219210 147218987 460690834 11448786 246895004 114334299 253940710 978605559 1035579025 617874208 371470702 812125607 505216313 578023810 830307193 1047504036 849035947 220935259 875072372 277139299 810262099 549834605 821844150 877570345 1030415572 178190434 514605550 252682877 951042402 492481847 750241963 862775486 881344596 131636540 6705785 1049109608 452662990 533841113 36971968 328574003 374903430 1072976965 943823607 350729149 360429881 657278599 938448015 326839464 638336266 452325897 869680510 340101080 313766448 297827118 453531313 292343848 528313399 20237686 593745334 852702623 87042059 958752640 437527998 52791015 494503766 812260260 81807035 665237383 517553221 159389645 882687286 589611118 963223418 266037801 629576133 524612677 58428559 515328219 841873379 70068282 94035919 514274704 1045419225 636457228 160314535 205452758 1034411744 314191016 112457144 856771488 1030132903 898582490 44382839 948713811 296915171 395306247 538261498 306784348 190735503 593377309 645076179 825053491 478491369 200865907 916663665 935604253 12815892 510284749 78199249 832397942 791571444 22877835 360227262 933202267 1065254111 212813356 808915983 22020605 924967733 393460331 377624114 291476623 692576367 995557298 95879189 825846085 7068090 353220260 544655195 492935029 317402305 716054253 209123939 613933611 135375889 894392538 318127300 293210130 120532024 102819953 136034549 57832936 752323424 1049041094 386731740 1038272831 569702165 611914082 736070582 373530683 615026334 583230407 278062356 311812085 1024014373 920489301 333113533 829295531 98728156 858782986 645398255 178078559 172482423 820338586 256439152 941372566 266593277 742644924 154088754 951860954 568384687 867123474 174674266 27654930 641467216 360493441 512580436 916832686 481638432 257060266 1054853248 61884102 1062707037 640786947 104340523 59374990 157543671 378159477 225099959 317123323 370707841 250675465 766860195 759304783 1000059657 966640111 508263078 1005504115 71850679 549946256 131903269 663637938 511293433 874795881 101611594 454143484 99468843 215759333 959893098 79767398 764555718 280922453 646818136 319381025 1018305410 59652066 230342960 222536956 984879568 796773442 14055734 246281969 772645803 397664768 110331011 448410579 467244114 184653647 860416564 726579047 1054448242 916059217 566665123 711562883 562305832 664046960 375532342 88615651 96540872 463789367 545043632 302809154 348298049 583176533 971063681 695769158 466483699 543932497 268416275 1023774708 3912741 832953184 516438033 500990719 915247334 822185830 556295595 699436008 291027853 601989146 652926088 85599550 510926857 99004522 496711898 211915196 837518436 1044079628 438888576 136117469 494494559 976053868 160871624 352655794 790266579 398622732 723186072 698014293 822189650 371653612 531647194 770419993 730367082 650302055 59339111 240625858 412801772 49103046 225036228 95578806 806089698 467748600 326506893 880906365 188223616 203034222 883621419 221088675 620504758 642102066 1054088658 924986707 499565293 408420602 194634550 503110999 612229887 748173465 799794514 3614797 896748348 1006530786 988264402 939009855 17672386 835630535 660987736 443577 886920430 311690277 797053014 1007976748 1055383436 491476533 838702672 85734483 304363668 280680928 359572261 575015400 382122196 506167490 85800051 518872517 691188448 547223836 427544996 973155966 924124249 894453531 1033318040 137671896 447658761 228644445 725996707 129360869 12160932 302672672 49006766 327376700 1037429627 214307533 288836920 757880190 306593751 432299823 306759928 213571490 710761473 277612719 21232768 124410246 385597309 992615220 469214997 446812512 600596118 314715917 521986666 961077453 474631698 643346666 97659284 104582360 864223801 559116755 750069841 712837689 100710459 995995284 788631466 412708429 153047976 160753005 215136981 278606708 380434995 626271939 586482478 429259786 60913846 696737350 215230372 89180088 215601236 383499947 101906346 708711100 893614420 946183994 624325167 449313285 302631518 627272582 96433119 25255078 1023797570 698638260 550250787 98382072 973748386 1069799458 906078120 106789104 768128751 248617785 488345437 27871854 155934283 57689342 955251438 754999929 285429261 972978123 364350409 456697421 820100383 939732308 991530493 985682834 280387024 25806683 741561439 336877224 491511642 964219181 596244838 265729640 419938130 638039737 634558797 553100210 392476839 508701143 260743456 578448978 649650015 733249778 583269250 819272377 617854085 835887053 228876070 935481448 443428468 35271318 922587447 543110751 425001792 143646386 796894213 254336489 502713743 454044696 911908894 786782372 98320865 729099674 10913568 636380770 289562007 1065557762 1030967195 668824110 335234126 550201271 95814939 321184180 907463713 493923270 717314660 213975634 407897280 505841924 61421867 759033427 757542239 292258995 269650824 482085750 250383807 279018756 311371462 332014036 371162903 47249352 947751149 806251552 837540246 571449410 705858697 361465982 789174629 407598113 109272592 441719745 115115845 854831782 562100526 940329835 941207988 991568815 84667123 77191570 794958988 615693945 396524184 424172567 606386434 333490496 591974644 252635328 83873570 691334979 345900280 788686038 712564864 640847647 581118385 989378440 588375922 18767600 380069839 720221334 464069937 387710962 15069267 501419530 999316145 1050857389 1023040628 462720670 328834532 983136691 436632484 1003693392 423753807 107577207 111177445 1043822547 845113390 770478865 1063998555 825610934 800192382 681759322 494856201 253492202 331994620 605021036 426951365 882362799 208808579 927296228 759990387 117559873 862418245 71553096 552182917 463978188 246600079 480883501 1045778283 580468830 502250624 830297276 776427267 650239998 881247859 466498895 491574483 534832698 205574165 678677067 217907581 576049284 303422339 764398665 528387347 515215370 535029170 546772933 513385891 482034154 16832197 611241095 837620796 130908352 168358516 861580322 551832025 197743528 367484024 493121026 39706549 64058761 821918613 410682650 704651044 942696448 233402555 965439333 606877371 948467271 936188705 396410668 992141115 286953357 966943452 894688404 109222082 688921221 361427591 337373628 269378028 657551190 10108625 517119249 99176969 112585499 469752275 502800914 430408875 565139918 859139485 719562531 1063394860 54757473 185288800 75328932 631764050 731396190 491158985 576797654 600797854 225038690 630069261 233817840 900336656 557589089 942710160 856257935 623879349 467771734 894580809 15363684 860679227 664704443 1053719973 282882619 631616504 817423874 458361374 603249512 507202993 298857708 606534347 443527578 169806318 513858362 265097068 946257820 173898732 1062372277 801769160 316795426 607061264 482527883 310304328 149546448 432734960 483446675 744264718 813870622 366998252 26036962 38957314 725799494 705322970 897206475 934502598 267531974 1010982145 385203743 434120156 459633651 486689237 971024935 563149929 189333345 1042041229 32778698 876762200 800144716 693723310 581410776 216561318 712485680 705753959 53936885 694404868 912082386 732834269 689541840 149050040 483119728 988080068 177998668 467946953 403439457 457119065 654692740 95868089 738659359 938525009 674025015 81715419 331989064 303804404 653010967 387395703 908771522 956960272 611633234 762431586 467825036 325874689 36377151 829476205 401697719 170318600 545229110 815229931 161316323 46367161 307591566 864483336 343884704 1012601312 417585065 293167469 923072330 938817987 957587821 668335261 294739520 971737703 495025125 464169510 547347348 839608123 264653105 657316487 720893091 138211707 330360911 801852103 131162032 229107607 586193340 819799227 463146022 535986823 148345309 592907756 584427665 366446444 714507487 251740252 523064006 408051921 797513229 437196808 27167580 33200428 111019062 1066193959 1069737608 420267399 283674837 114310516 260315437 157166203 933483937 916561567 219517890 195419173 677412613 846673108 915454822 863547321 397119179 53456565 356003124 466204396 904399127 634799457 726228412 554120767 659856175 835915977 413134899 68476279 876029577 1034285422 523996647 371245180 242748966 260785374 607195118 632389049 768068834 658041937 1052886583 605584616 775391748 823420878 512213716 397486397 490855761 384473429 536144523 313791270 364007418 832068747 30354311 100467942 1044392441 770925171 534220898 766262782 338299794 718329324 198955996 1004631059 469353944 872788924 672267002 203697323 232197111 340534073 731188945 687817639 1051765990 153467508 536837959 866548602 80973917 861287777 78488181 182664300 925452182 399394433 924777840 812271759 665815374 914793074 44536173 392996617 427232995 89415716 48699291 595349919 470041795 415767451 440691386 773829659 294921989 537542636 584618995 1010691405 677301305 702185679 788979783 122100379 294171930 162506565 466007166 213811672 751347077 484975924 370876220 135101807 587533960 402927522 836302774 639420950 772642768 481149267 600447799 1017147623 646198796 176905153 357306399 507264158 886611379 524355195 955191258 67659706 450771576 101691122 134363034 773368507 879806791 180244426 206070683 1058449880 708629159 99742976 29330895 1034118803 9454154 377742136 16477314 163405738 466826162 35625840 358747386 1071923219 351361925 7429969 684289391 255284293 606471890 189060541 874008977 188434320 956526009 398882103 978888782 491255878 500736767 981149846 607179175 271050742 445120960 106978624 968863209 712340565 531835502 446482321 3273171 316930756 811445265 870965679 1054602148 236046818 292012407 994406048 712307153 827477241 198012966 895441702 574093432 953519970 334220038 612674550 1042613060 1025574198 830194244 739874361 908706043 807544523 625948164 726424739 572210433 694790335 913274955 719993821 802035840 479655097 884470382 471465545 866500416 303500266 925730508 482012047 79300691 554544139 636809455 329711774 17502037 77143376 673987645 2833559 641711366 131740838 740072400 382161248 898766386 243872046 710972343 646044168 980034558 947994783 959810156 844954964 556401064 733666042 160956752 76861440 133721140 282021206 283449117 702471287 156066608 560440266 349065507 515329516 186655842 810438904 543373669 43159950 938047752 381146773 979664590 488995272 731845759 8475762 548877931 863061953 104925825 449646227 427875031 238443524 56688720 737131357 656303237 274796293 394147107 448775842 138023705 914278250 336633734 81507968 269453517 241651733 421446692 123626566 454814102 773504041 184276649 131552009 695018261 600017705 42949468 57511629 611145488 322771780 498714877 554459801 489515422 524511474 744576214 942380524 1014558069 525859646 472881615 1042262808 335072952 400397578 540239554 2809015 706502732 1019882859 64858180 940720349 316637995 722769026 813678949 557181601 403650590 849080968 939459440 221984547 15849204 166691282 258466952 770543299 883236008 477912108 8297420 564730933 973726520 211179753 190921864 919551645 223205762 56295919 291968500 885642954 966960492 599238242 338471468 950606947 613802816 932523300 905186674 789138740 61308185 638828392 67801977 859927521 942136778 344967461 695306579 417684227 513969625 87260861 616758829 561318787 101811351 713821418 1023264227 566234553 763930474 993589162 263125965 897017714 589477078 339678360 427793120 732688425 874796869 667453637 925449556 335838739 1027759812 353483444 851772402 1001444214 873413924 215259897 857705885 191461165 368954350 279388071 99836849 144195719 625600365 720596005 552181024 212997854 25758488 41035924 310125149 180289778 648153937 658850815 22498878 839462098 727527260 1011166196 263940246 574473768 120217177 441676689 592583384 311851804 541800512 801465103 311110375 449196941 719599017 748968989 566032173 32891520 560918659 49855647 276603990 1048780342 399222564 368998382 925749958 634785184 163360603 219629475 964558017 510207576 94507247 52248279 52209775 651290440 202806396 124430214 241933662 124535756 727495333 137914792 37338987 270722518 56430235 960610801 1016315870 960294193 332500664 29312776 612759399 56292868 761691536 21153508 145790247 400056684 266677071 70008242 51735701 190231475 798556352 495460190 769078792 348482128 590921037 798893400 910531078 9975650 9262796 677723095 366207389 232015838 612405886 477805532 201483740 210180106 517077037 325697700 728262539 1055463608 992412264 763956323 617077951 792657683 33438526 822105264 309841269 955563876 547474066 461195510 798734770 523133499 116773350 673192777 499324698 343126345 572371563 28590643 500001920 167517224 1036356082 45877755 498833377 412003090 987859437 870525839 175569904 108031095 1014693239 299693333 194064123 766294790 933146606 692449916 496015290 836264874 341729336 481932810 551619596 1040553334 902706233 474075864 184031052 1014343950 711454724 936240331 844844702 248412182 354466588 803820665 10190698 539299085 922575328 168879307 809533623 151143555 935782835 642788361 327269193 429110157 323762379 187349454 334274092 135733848 336084265 852744578 94614143 720162587 668037257 1002003757 138375802 868007599 143155052 844204169 776594959 550734867 895610906 1001616829 190101610 744421460 628356964 328519169 631070713 673104073 704101431 897144207 745914127 740357717 669943539 177197414 442055308 625845955 73860544 345567054 274847590 131662570 425809369 669961293 488366475 751199830 1067039755 28822743 176600664 47722637 264984831 86139024 412446665 715671523 207964896 933038747 1068740813 854682776 207366838 184997326 1048530883 736527526 485392538 1024546774 315694852 591227414 608154478 11257867 614718194 738656885 962021937 766959158 484856258 890538609 462274662 775094164 246103367 357163025 497273413 436812314 484375842 723100245 474630636 119852735 69011386 550065979 449811054 198542907 915265142 232262549 339375032 62934583 448965941 1051640399 89974076 570785133 231882647 489217038 1014144156 472950846 233774034 298679279 643168672 30386994 163999689 345486036 1012218165 219968523 322104304 579158087 703037759 183787813 112624192 1009784097 719908042 493170493 621435121 458614339 551059129 738029186 904141711 72482431 231832529 396062686 104823163 201352761 619518048 1048408297 374667171 440729518 300615131 909211762 765900459 261319335 443947507 956838462 298797452 948901734 77276847 1014022582 634191689 545858595 286127584 469422579 231336200 82168439 455958590 662044505 1067408143 260765107 254822618 736490458 494741499 339922198 754671502 302972930 604398281 150328437 199983188 143568751 294421076 874512337 278513862 896112581 112550740 346984897 915294541 956869302 111741598 774287976 868326539 72558902 124151846 502421007 902181784 153955362 247547002 856762512 916700118 814101284 547454277 241365608 857116902 51317744 363134571 7726966 205226974 1021058821 157686856 322271656 906275940 372717240 429000203 361627587 663322861 633696813 908782200 96386481 174081727 675238118 616526771 541615084 289437059 169992418 902376667 418279040 914552498 258431974 367014931 865379224 426224534 818562841 1011870648 516860301 297555027 312564112 40768996 231176236 371162453 43714755 680946533 485684445 934797706 782471990 284715759 648973395 999446118 376041518 911247605 894357685 452197725 1064955020 933004256 647572986 882301521 671936574 699211421 694905848 768821053 406103721 520339511 150778268 234510168 27722249 376041971 506976876 476071289 295524128 1038598105 935221643 871186545 256597430 166912670 409008217 624538294 599361239 639166053 509152450 349793271 393275766 967073241 905296985 517966183 698516267 429159708 219281033 717567274 652715869 301827802 66890482 891111475 282642422 483589688 815813966 348453600 238055226 312300428 802958380 857196039 651447294 533324742 982323401 917213147 185934432 80884670 825687967 138844379 878060608 609793742 609323181 197322315 257236206 934274639 773712126 638156262 1013206093 595957691 822160458 485795232 710293324 399709575 910208405 244432460 347675163 584565464 869264420 720850932 1030553766 1006081177 826693086 800115756 36958788 10402800 144679052 1009132878 691932997 449687162 642082146 39036694 490715268 118071140 778493121 950029390 606336097 1032809075 325537161 476123163 660047404 899821300 545002473 129771952 901428181 8658517 589152222 750170553 945814568 899381948 227884942 534357368 550307527 114761912 414458352 396815441 329317970 1045523767 40930318 296283705 114655411 71616811 86732050 820457939 786087497 543100563 860130798 1014816331 923104287 953717894 772682486 492615155 1067531912 438735419 242466691 726696025 1028824809 540630302 839675145 662300057 1014073087 708921116 10386641 168008350 643977502 158714900 626994153 420835365 65554763 852791265 439859976 253496746 110110054 22213853 210538513 949662859 152868374 810649488 437335760 131213089 394031520 635577856 894571979 804594173 1063098295 837718601 577163197 488423534 1049126126 281900766 839961356 699528273 49827529 356252158 662178164 893767474 173620711 660180158 1041042340 708322558 331651811 209093487 288884791 425556231 270034573 770289511 478203759 732195339 822486747 966610582 641222356 154375667 7227934 277930471 456457564 245450583 209572045 98294342 70012280 641534457 1038901383 226453526 409774791 163383546 635950402 429374953 85459659 335111787 598109907 168978437 729578932 899055302 1053610862 563480768 705887398 93214975 763018372 182882879 130948535 290800213 316481833 54251250 51256688 699218230 598135479 241049732 479556805 455854996 105924998 162697302 869482851 11043509 734041973 688258279 863848041 398057908 622550633 76628818 581810334 478686650 382457026 131088319 701886297 283398307 947316365 224508610 544759988 478925956 373232591 763517722 885405587 1055809148 57516149 432001767 927757009 880525894 54555501 874123323 914865845 981027169 94351297 973781894 603194339 696313511 41426860 633315673 490818498 70320555 379844966 649629971 833387114 919755668 130027464 203838586 290000704 626266746 309581766 398318853 847687221 316560949 289316319 724148259 721563909 813817837 59713416 712226351 106946290 328526421 773891421 221959861 422960063 569967627 1065712275 119611112 940088389 289683098 20471303 475441703 244286837 899565605 361102850 856092499 998680734 417249743 1007817002 1045584268 22457499 879343655 363181371 375325054 48825092 16552477 775250226 913835677 702550731 522496076 25443767 423811704 970167347 781643577 195752152 781482070 236514963 1071400626 303395813 513116597 770865327 321742766 401020144 750983916 916565542 787357124 405725439 468259282 345310185 124655953 1006196870 898299807 163653934 98136086 715856908 483543727 519199973 301118371 139761608 205045565 819639475 195723585 363915892 70233779 728553554 228909117 529649366 1047881059 1041479908 625063164 214454165 667853002 949947476 435152403 389540394 733100145 674368937 507849883 657729463 787906753 65039143 237120023 887065169 439726025 768278709 696687823 276970873 517637698 372169511 784610353 1003785944 163343092 146480559 971205415 48937908 516319588 321909260 377963844 1028119207 278677388 77015227 246967138 1067286555 894118910 186552165 446849566 1063360117 618985479 879154740 918462727 556501970 710590584 1017411533 1001947843 171413268 257097197 1065892877 550803210 595299476 910951639 29243516 712686000 991318745 481566923 918868054 69747734 881800842 323874556 617703402 918739347 368143393 585111550 264637601 363820411 672537728 226619521 962345333 988939514 317533833 804716123 947740161 161862909 518901593 962499899 743404759 648841338 198294745 597352567 15793406 887509598 345963418 769461279 111621026 1029257902 958838265 573466300 20041521 18846484 312807129 1069533090 187587464 486587445 514918239 626674851 1046669767 456499310 401633792 118951997 1021810376 372756071 454963686 188331872 237690515 731715323 658190247 500636934 390177680 844818318 728044542 8576323 201122439 12439039 104529296 919647048 564735000 125619607 161217457 729406478 446004260 605596276 223036731 80889625 542637631 143153600 746940489 731363178 789942588 923232598 823929217 276502077 226823699 548414331 441343340 700254487 988832977 575420520 129853508 726365052 124854020 608660076 676997777 335756210 744422110 633462493 356158974 617119236 1009613929 757035678 670724290 449873855 198135806 357780647 926760477 265237804 377446333 247342054 406058289 936215021 216749689 410507530 617023690 430850012 788954625 654291909 446219449 213758900 465629030 1064394717 159545347 45064429 506908347 302698827 1005709143 737830059 864058997 166153862 544798043 455864866 1042037629 4501922 888793114 382075702 398549069 123123574 67119577 866077142 241458029 874718046 670801446 240250222 209787546 224059902 969812038 287532778 516828332 840642503 18131732 1052217997 248015585 51204869 13156784 697972809 109982723 374346881 500721877 220253606 221684393 706225922 562808698 1007822441 79465878 757333261 668487629 117798936 615173665 388190579 755778075 859614489 329339193 589747542 918624276 172634200 488503149 708564353 406371660 542835450 902761485 993920252 287963934 941286497 384743647 211641699 427931442 617138714 218161146 528571697 889988020 366126916 222403458 22156881 965064815 112139157 527024239 197369842 179786385 750997297 742627928 192308380 691459988 104316802 581388988 560576268 429939769 915831327 279194145 680152539 946111200 310129188 276408785 910715534 643157035 1033680915 304846841 233663127 736887886 525489621 249545851 952220587 1053529679 118998011 911011776 480134526 1065620875 474929109 768547074 765459204 337083276 49370916 1041183297 506146484 736462843 170511671 280167862 1008913169 189680173 675343555 349999958 922033278 204196538 1040982832 970706517 509058141 832514811 915344602 212453480 85750846 454354148 208706091 637440116 926009785 78411839 999692622 337496212 545363960 801196911 694456097 949569230 855577867 948851535 262527087 357182256 369285560 90521815 644547098 168044706 113883741 664461639 48093600 1053769905 975587000 13989480 627395819 1042953175 584683513 143718940 465264721 499591978 510698812 132286248 87206474 211032114 40107602 659896986 18844550 984485926 194752067 546115263 928428038 420161401 610189221 131074967 511152163 1053048768 698935335 200589104 223533024 995512100 899956901 43180699 521477775 33360685 60437926 392896110 947130066 413973545 44634516 328324987 951799469 192764309 688025971 842180673 79714189 496869863 486766034 908834228 633836802 999508313 113298352 294971725 327191010 8191380 161116355 922659850 703982809 94196799 919345268 126176763 502128861 925659553 246654823 653302867 533703115 112137232 1048520979 487017546 179825993 332305604 214357070 656468534 907742996 347946331 267524567 115680220 458252875 330573074 343317169 955065925 349627631 594757373 280447542 200649499 1019885391 385251677 123755719 1061438115 461729430 484912369 193643480 445877344 1068312380 902371097 589175368 760257086 559609602 736108664 973157343 484181869 895217876 919554788 484004421 660516803 787542769 39406129 65476430 430694289 188279080 166462159 154493284 51017664 1011163177 1034420129 272728948 1005627589 998767611 648880793 186230179 665237849 134849281 707566574 446693840 870489898 816246741 1064669279 684820946 888796150 878145375 395557891 110795576 985032331 944905625 1036469708 981300709 740387504 882445618 65130564 246866507 555905084 916200675 947970551 468970537 243836602 690147915 80010455 291106509 404147503 480692627 662691188 587531525 491124817 608925129 204602242 106431556 192037333 301116911 772234157 555744588 900510512 34277157 690822289 1041123897 39579680 934972924 785010387 239345530 959811783 406976249 1063134836 201754560 1049498422 887973996 688091336 389689995 341243611 423046805 907861690 1022671204 823651874 8423488 181212791 406934459 90948242 323526188 328364547 618589466 966844354 202166021 997288882 131206009 123773743 86847229 287016369 903799649 90251203 150297406 235286053 648542126 552635698 521676415 91082858 994524887 636907207 110145291 277523829 825559530 224714012 97513733 528250267 297085714 897741069 583044881 924357190 727910793 610803641 449552696 1045495567 892662827 748270505 59483231 84758752 432006678 901937209 915986695 125817541 1029052020 114433578 668843967 255092647 346109068 840258587 608668058 1040199171 245879447 959462184 387009127 1049120884 584161493 551011795 1053106419 658076735 167120407 946013122 484205695 52058441 149483033 900542225 304836668 776233345 329070613 411964017 230196060 141921323 104453243 730105481 162436669 88715278 428318837 762263138 303815903 163785385 636951394 435754474 117333323 156178943 262236184 626534830 655186807 950076734 720630979 783960546 428820040 1071511641 209470364 651899399 542783862 1012707567 930211787 972549952 929248933 750579172 141483018 203388431 295858171 678801995 254728695 621232901 158125699 785643914 471790785 845388624 99010804 846560370 545088445 676264711 330305839 498068338 777891349 645038687 874001433 386754906 833869673 266904110 844482508 880779362 671721043 358563437 206612684 529060167 219171322 993452627 371247275 581174655 143479453 752108282 775842608 501130770 448378797 990335733 831060973 743432909 869950017 74407628 736154393 967443557 207937283 694683342 910003776 75274693 141341111 398102578 758771511 159879243 349518715 125623436 899627338 652812470 566908209 946675847 860132599 535274970 330980519 645927526 407286161 792838745 897537336 249207462 376363851 30179858 211261752 255449812 39140336 961353085 793664999 46561560 181749377 800922291 898523994 829867996 409633801 558482522 254503055 351434908 387504514 625816975 704819634 764386088 880357535 1028873389 63622548 593850895 544220431 769936317 108028958 1019372509 349168133 291117289 703467522 361192974 447822599 1000383948 444386643 585389677 925238455 244633683 232503817 860713722 184387195 828135826 970715146 211936469 382134944 520439982 231609425 618407036 392505867 865494284 686041361 922959137 886847916 214340387 718611347 718441178 176014642 939676750 211706438 1000828311 736469840 633299617 107127936 510342643 275360794 41487244 420741753 961579891 686257314 64899796 881235668 220489986 146547866 190533632 789317549 242305415 490232443 81963649 349930258 374563476 377504294 638211967 55545831 281604177 592429408 132727240 1061146000 206409874 653230846 676337035 855456912 320761311 526632437 253741394 872644279 287393451 946454286 257474231 120795283 947143220 689011170 488400086 950808772 589218689 392194424 329571789 98524770 935500024 632265989 445414727 461132792 606611702 729154626 528401558 562443908 718282430 88195711 447050283 686638172 180142986 911821462 872762162 1020142230 320560890 733961934 1068419033 259031339 889210930 57812350 118404468 305757537 775749617 693699254 134882934 564070557 36703895 991895249 888591575 881129187 736392675 993105307 4281390 1002551579 19607598 452706290 873947891 309635555 885207195 914176217 801615237 803492190 113216057 399836225 831767173 924224196 1014098203 519834545 863741922 358722345 724981929 615708001 764505426 229330747 836354683 896895747 511519577 247036129 686206231 930076226 1045392344 704356932 263862246 1035044209 23142340 1042620008 994289662 399145690 881342527 909578350 983704435 345556746 923680821 502391049 323437025 679788740 814607906 105074081 798488920 738533180 312331398 831570416 688110242 795766338 517750170 53576839 184551223 98840225 944853776 135525838 419410712 15557930 68230244 124065617 190021063 777157192 480766133 424398046 939313862 22964704 248360620 507546248 526571008 136137018 68498990 990022725 175522543 873654499 495043845 396561961 270139811 8512017 511678453 464648527 210109439 842063594 598231905 1041372534 897840179 717579881 515628105 449897110 58825748 479805042 237739710 366861577 562352188 212499799 728611662 1028762555 953162792 619621981 598350648 63702047 638742193 1043518378 323396335 789476193 157590034 763789757 768356786 859197865 319530445 904068002 717009967 804306015 602748166 1033953732 494445882 1044470830 377804228 160754008 888420236 544159483 377069213 719541222 1046272659 213617895 753286794 888700667 321340980 1065840480 804647621 323821528 72398421 215902895 456208237 884297858 232511461 663178602 724078086 792854527 248771157 491008359 423986201 602143001 466200705 725154828 320990622 116930499 254764503 172693500 954284487 93019717 1032366157 366774124 283267497 563788643 441056043 182273185 965755207 898563045 642912720 80580186 194173302 185725260 713165641 616052787 725203391 723901154 175842247 336836384 600020896 218266437 432615531 983505940 610943675 862602445 445147547 294345791 390497651 503279503 1034255022 285214983 234343138 647579447 868656444 195412491 324422277 991829481 672511794 709786478 883259684 706808395 222524714 158923754 292720898 270211189 697950009 1004130396 808287310 1072653218 139539948 181155903 475250843 462320703 213749393 627066240 965589562 348741634 740360734 886823154 577924935 590294646 21488003 948637078 960619572 376874705 994780002 601604343 184726088 506434817 661570577 435778531 70181416 295795314 421193094 364027055 964846027 1055253929 783588464 425438703 291337943 461879255 51885922 661831967 986380619 287757955 761524939 451229668 136711413 609210913 689234765 420165123 510636195 520502818 124153845 1011810076 169875906 545296160 268650963 205549030 588573580 841504920 545902625 846615048 30119694 210916913 702164440 557760624 36268029 101148067 483756508 838247642 589917443 686217340 867080895 205130231 25063986 939503657 762476154 517386025 91073260 1004994574 212262303 108112679 968638111 103364943 767750371 281626513 166860098 124861102 964792276 53511782 982895991 692483664 675235642 554149276 733531928 652993727 681274933 918686947 1029793130 998724614 976559008 479579245 202819998 317128013 1051486549 1028002477 220390063 1057396270 589458636 538257575 898446191 626580774 758485165 228914040 1019076104 489445654 277013053 1063594041 266981766 638786205 831136035 774937759 412799367 352182765 659385910 254522663 848883936 164568494 198350057 473727882 369947021 928743354 364029320 16726303 37055870 220479 293654128 302424878 506713129 143067230 283180289 608598520 1009154106 987459790 543307407 80776108 531052007 409828834 823984399 1010443423 575449353 163144814 606754055 366226230 530258236 249531504 431700890 88462640 32319447 982891107 267757293 913359259 480656584 143474215 152883934 288927645 933877258 77928142 12290017 136034145 956176147 355384527 565675999 497896969 226039221 697221819 6674783 719740725 59004161 829409254 369507981 55994838 352588274 474566720 4178498 537804757 861922020 1003427082 49153576 836578982 1005907892 646155641 159907477 957651397 137398561 554496504 369976118 491885365 57508843 117039480 831732385 92894645 178756192 1008941453 798205588 359018997 994473399 747638755 463471381 794850555 1030405624 185910990 240190585 836057787 883063881 649905214 11736996 793512289 564250705 292612550 578267122 36890746 892624800 900339596 151388221 324719025 17123650 346208584 162324799 497895169 211900833 703237276 870874197 35536644 903094481 218071423 446303712 897080794 226361894 462765009 741496337 812898356 629181051 340574160 1024594022 600953114 800612849 957864991 484296747 853099657 372271586 1049757812 349632843 77614222 980903697 326542709 775864656 588451600 741980630 560030990 311114087 993505721 530706452 164049816 288458331 939500043 133078417 149061925 469148970 378951123 905323097 164985426 554012895 1014580283 228120138 63556712 677742495 518587793 644175433 361120868 697112265 47681855 717384510 762623635 323524396 657723851 228674119 916146531 780263981 263551272 781846369 371945587 141926745 18253139 696483320 151732150 514797009 533041556 432238571 813021501 845179412 87037236 470111368 339764037 649998578 272856547 355094112 323709365 243165434 11792654 500887889 966139783 742504363 187657846 266685702 931994914 575607054 908144947 864979327 97042437 217799618 779805869 443020672 223591579 60237619 128898113 412729432 983424431 120970942 30164350 819250751 405059851 48379808 425569526 696432454 138561226 135052876 482238411 311856101 983380876 100831402 35605049 45188401 278644265 439320998 184155422 703347309 468729974 479299192 557395633 238836835 935151022 1024816989 398997354 317224677 265292557 399683642 899695613 652472421 621953090 513189860 294552040 357733183 1026169820 13644867 45581036 35633539 912908017 499440714 868028368 585329305 579824992 253210005 927306005 386027151 805741366 650915438 391136236 45654562 656084627 274863344 427122311 980134159 163405249 398591198 89133012 876139826 247473594 1009966697 7701116 2184013 4401493 464856998 66009955 865033042 626278891 726946788 873479751 281550354 792143717 675710240 976394726 1035162335 993911264 732518532 377467576 650310059 293925237 135173305 1063267727 322587010 335290054 45050845 13846434 748769473 458499961 597104678 150783400 575325781 394550760 1065036183 518742783 359041697 99540260 969897692 58799332 658680555 402338740 204050536 881561970 722872125 1043940223 739113796 193572773 126609362 100798842 423797672 559445260 861926906 440793955 785281179 949655845 569998714 215191491 62823872 716996634 892761939 968679928 625005366 919563161 1000529736 1115612 692033866 447785760 646632093 768432894 727201262 682889301 419686152 676517991 387913066 701010978 641661798 42906549 514590578 263870978 330902677 377939937 3215392 227995889 740403300 834800400 687286475 571578054 385503516 19791632 138127158 245803580 170370588 438424892 400608774 954160979 925939357 469669695 712750228 551361997 669981011 342739163 450384860 670234400 250949799 88322940 8257366 78402954 1037227360 578854755 166430376 98030731 210299380 337770476 80923663 294842266 533821251 439044350 243505998 68116315 667325512 455688204 212499323 681943487 975499131 118001462 102408051 34527435 638991113 637585719 588609034 218467542 617022833 660230031 810302124 327600411 583741593 472541824 369535125 11625588 648239394 20741111 791658821 258436215 550579293 789793309 115596341 164311382 883372196 1032470262 862513327 45661455 946338261 955988186 16642735 754397062 723101450 162125325 47257998 843945112 51135687 242484119 992375110 300406858 969007755 602748901 932403515 71639618 29761818 576695017 889317715 789248826 324985290 69400245 234466700 1060035307 905287821 918209004 259303666 431020835 435001615 793538125 166172705 928914864 1067241704 1035517158 1011981773 853092433 358458879 115144210 111718684 1066529222 504877399 534660338 568919241 944645139 664685660 26134079 994960435 752428184 154721002 465925711 969214439 466077818 854617824 684566169 411601607 173996924 416968276 750275152 114623911 897428942 728619508 918672790 81472250 289406269 357441005 748890742 616833623 891224086 29535583 1053487246 1052117250 122087185 448113687 625161094 125073882 704285773 928419165 972942677 257651558 1062880330 91588163 348617998 370252986 219616030 536981937 1053000989 688547068 1050113641 633181281 851883807 481288514 1028780609 193454330 33402326 537766572 669315220 329094083 381666103 980536268 1025114136 994347057 98700156 638852506 858220244 861621716 619391680 356336120 763589488 1062738905 590593754 567846659 805244077 973421070 1031675619 824154804 953712663 1010635579 195877699 28972117 233719369 835214819 1001745874 452442465 411543098 937915292 1057892783 217928431 739818945 859796416 234321755 672805358 396941119 372030079 462147823 787656830 870922468 779588470 388205681 960257864 412048254 870384376 116195379 61463233 697585081 155424803 134186065 177530283 115967184 93566760 199144785 405430659 84683665 936922422 986520740 680026381 684982070 1038207110 761820443 797562702 203314728 124775055 954327378 580166688 618930639 877698754 815537938 198027281 41970631 976415845 406851798 579302148 696959977 439897596 334342271 306357179 849363110 665686225 479917907 158345382 171529239 459675584 622876589 748010672 358233307 618608757 195387428 106096255 198517426 994161370 808124425 973804237 1014802470 878624880 620234695 645852186 244809645 1056543861 483732035 195262301 647258381 879624230 957151719 376745375 837523961 550859664 137209958 554146875 135126572 889378007 919387132 1056015245 1010932980 964939913 118451621 268299430 857260705 773012526 509205731 489256591 916990633 1056853384 145986446 288352883 197100569 833682039 553206466 411423812 601975315 823329105 413843678 977859122 560204462 471655675 428085864 628049029 163585676 291791770 356076029 716878207 413316366 613786050 113962361 1067348224 584314836 918346465 201385128 1066931934 963493756 801064673 170923850 1006326391 134074916 957272917 169621823 889210531 634224658 10625779 457969830 1005082421 236865589 648676237 468404049 602353934 856591676 175852418 781625664 33586949 292207870 404698292 578411305 976217083 476959427 316990343 184782291 540061383 384904697 403400771 754264684 627763119 708268030 847798761 763376157 739371173 691189432 941317033 23582549 57123599 568356747 3723921 637716988 825489296 359919531 941588552 288844955 713668991 276760214 86469547 239648936 380837133 50075157 283606133 476180449 508998461 149101918 1019391850 651337861 940181761 894300341 259356243 393237047 383907841 901731049 1013844263 27749674 54839061 310982518 754269061 211384719 341261973 9192433 103580975 618645936 122516299 126733570 346611385 686034256 115888033 1038784091 721833521 226978948 115062203 776926965 196403493 681627313 681457059 245686269 386560525 659347748 512854767 646100757 415682027 885878188 1054539952 992469733 421162677 1005163677 59446062 587001996 989689779 951764105 387215038 455619902 663385543 353314188 337981849 45477116 507257977 43868624 22108190 432360816 1021950668 58033256 1037888210 403437211 611194926 195938179 718668738 246246798 131490023 809150302 1068323580 990343289 74753004 272193039 166199115 492416082 126356856 6341765 550970901 989474094 438189076 7952404 387579612 56593597 612448208 681442382 581161671 728364257 480684495 298311595 588473416 526973681 530053008 655215113 356752960 388730631 790625947 774362847 748078400 1019001790 377957376 204586843 565023964 849876733 857842821 666035891 693593397 612757574 578575074 395139874 927167745 1017216133 540381200 943672758 818641781 129390019 241124271 56195421 661683514 228161668 604407526 544914945 386715122 135015668 919781288 116617069 797933398 796820502 812989602 100936009 621146005 720538512 937715515 1012704540 283960057 1066735936 583088740 45368053 702374436 962256457 247919395 798192613 793721744 814244418 984853472 763515662 439931419 1050768683 68709017 42487312 462792925 574402814 464414125 429570554 54917485 884047017 258455785 489648205 301060766 9264095 108379981 1007595310 720937759 188558162 512594037 529976313 804065709 604117941 524114463 910285591 249691251 1021054230 1044607284 548087510 729077734 267875896 363882688 710944142 918222505 944895748 336413557 949318582 45915682 345978820 976297466 915158456 1068525209 62703155 648857458 110265080 209585810 313737129 861729443 1014792391 91123374 926400080 246314777 300542422 488360037 142549890 941879737 322212893 423247876 705637722 235633370 350079416 816349786 49555053 319584305 683179637 1025931801 11513571 648435760 103531144 506281193 571069567 705911379 2536757 371041697 984109133 218761462 564549874 775056305 98986543 720392499 842602287 772658043 64512238 713366256 152670953 1041542965 884242997 939224915 1062955213 486586562 701164680 861563542 205384046 1052783985 958804844 1019290096 753611281 196269285 357268170 571887894 243429960 1059249881 59273884 179048197 834103428 707766061 918897800 131675023 115794560 927061131 652022337 993267771 808157947 35086158 112158954 17117912 816290827 809938824 693704196 903499730 675150374 184903625 806228990 145171125 1032021551 622136782 539359289 493940785 962212422 9362834 948335290 178563643 76080842 527651493 1003018489 896618704 245797386 379294965 42948483 157098181 527982325 682395101 830848864 300875501 593214960 1022660221 930566249 1052178964 134606747 562648096 733723543 118919953 1027691792 33856255 518623235 579125438 1026137282 273222222 544262105 1054342061 361084383 517858387 23532765 352956915 300667423 976512788 331183644 631554457 995470816 189320906 879943078 156033874 990195535 888945985 874491043 368832873 849219706 440813056 441625436 597837385 303666697 880714686 120783696 877595953 501758639 292947531 783920322 155803553 962670698 432192594 902646045 516471870 745304171 1057954186 292399229 684271505 715806840 390782108 355013218 1019124561 633947451 215838349 120938780 335624414 954160689 279721153 870120367 339215038 137046173 448228700 476779862 945712770 185651983 588357967 199707356 896198439 57137072 51706907 221640536 597855561 489362354 695953796 328366209 73562272 277997819 899594492 566535735 210416417 162357719 541823792 125734451 805701889 791595272 338826744 564406727 316090321 756841006 343663910 609149574 143043740 527967894 848085322 803353504 698129597 826346873 205733517 942957640 868308134 249964061 373475830 592003559 587076214 198907516 409190358 58978828 823609258 60053509 399950934 509280697 691724821 918073947 507822234 1020102286 264390492 719583824 393521677 687758659 373851359 1030288799 878141217 19463360 908152044 255318818 341037066 625203721 9136227 477759735 507168907 632134763 444983678 874637534 596488699 1043546926 461772455 286242155 661004442 389239668 474538147 402222972 668471676 400322435 787139296 712440332 435419551 255570548 386469570 266897324 318957860 806866582 516868965 966618797 813071780 875204329 4271285 171916495 539314175 611808579 315209278 39839859 467223133 298895845 884622837 273743638 1033741529 308726277 53753115 538834705 280083296 731040203 936168577 109524001 119731370 81641104 714180535 817486505 671265765 946657155 1056748149 499958614 643021098 1060640598 443725971 890993421 256884884 450015691 711198366 725668390 577062119 638936061 119312263 245511341 1030240332 304267305 575551569 579652529 1023574941 388096613 404071305 1041275879 460618193 363859601 551068285 1067522594 666051195 985518541 900277748 824685844 402622057 476123507 405173266 1046539464 914076359 747063665 668564214 612024680 445687634 222145184 182899623 4890821 144214453 85879856 823743482 1071408036 790892412 828210374 397171705 508959793 145883423 101617920 546761420 401490512 925357370 212760048 46764913 297955241 837418242 514665965 834545553 424188890 112122375 94701837 78159079 731523034 156665416 241138761 813949797 452273997 462023656 692419077 189391395 424770321 107088690 373796084 59505507 302658515 173919807 691292276 418311624 483619030 702850545 258742342 357876706 457784592 65253194 351496326 569416524 364516238 321094380 202115245 555531309 663409936 781024372 1020247188 415171228 672973795 625257886 541907278 180477600 921409896 373406985 802513236 838019172 83243978 382474419 503815883 95814732 555669728 956451017 153280295 118112739 525692805 85383458 230266444 7894003 422547217 718621855 71178879 639355273 707530510 635646307 938543707 735032734 893317593 138700998 30892422 1043051091 967416190 873030618 166647213 706513042 456924051 668380921 9442943 354077578 538687573 970373805 600267984 570672464 141099061 643349967 703133834 401807312 194011895 227273537 346884831 515674345 383803020 786732121 197303949 499341732 863286835 25335131 171523856 610576055 336186962 993989565 853858661 66303846 103997910 566503448 1051511609 580899904 625559209 139753477 420220144 234473055 787981495 308677286 591926639 197542551 312870189 920907597 227267202 404448952 122457870 32693174 247929615 663820454 485296425 248147159 1041744547 621638725 83104119 507416196 492431973 401428007 756372023 72845768 917788609 928209383 97904816 187190395 308406397 546259453 558463974 194673535 702001527 329903642 150820523 244438650 1040235861 104773354 1033606671 1052495526 989778066 550529873 616262796 78032092 828781924 593566944 954037315 426823608 114986464 117628836 352329920 420034305 856844702 59747134 676564279 236337286 126566448 235946888 365683370 129919624 859319541 244949491 910035295 601886541 168968875 139320391 839189622 690859407 1032167669 396104573 412366628 108472779 577399414 390542019 551269560 1038618404 515117069 256595841 90037580 168070968 835315104 608893139 382625237 314700576 251235578 894886366 32830725 834658349 65211771 648608419 236222215 1004291176 139338487 809610122 172470873 729617263 921091455 941610214 974144882 792721539 792581836 103091160 956927940 57170869 724999741 197533566 349619461 745231585 15592910 557633035 42939700 281292808 14158801 175786396 391833372 627474136 778054767 554892096 987314080 42745251 406742264 405819529 778010673 466124859 301127713 942938908 420669145 47833883 967066910 61376031 1000018227 426574763 1058125183 970117494 797894102 659881210 925233998 445736926 265882230 115953210 26735098 628631548 725179500 385992723 406533061 243663904 492756477 975546181 487563215 451975596 758340703 725529707 754170333 380355697 89271824 335145330 24456309 910101363 820322720 518181328 563909427 702903587 331934363 367834251 646808945 96936096 305508391 63743845 881192558 525815946 129632973 174694922 447476928 66824080 283687628 365032221 961081542 571143438 577808580 1071569779 150972305 663906231 708287349 205349836 354782498 494778111 69415371 396205644 497910581 848109135 1011861201 34828438 448970605 616051608 7608359 582954699 988736665 377004145 508959703 574470072 262903781 911941567 420942004 967561886 772471813 533559964 554656323 831106923 31120615 925073141 491605266 583440591 168882583 878194846 75801388 307385752 793341189 293552300 447046410 205458827 287888574 993299672 565041852 475228609 974549902 539667385 595744843 309404421 829831841 447618745 300696582 1055294070 175901199 885743014 35723498 396018706 617962353 312555963 556307689 536854125 607162824 636306800 996433512 66615795 901471004 795776869 321426775 988467290 944239910 1066350939 370941077 408420028 233055332 1007064240 1057145941 61342907 782769826 949871358 137776891 521095043 1019561140 478525763 213442942 860153274 161053105 425852605 408554377 708774731 41139550 93767582 574511324 672782929 585668483 153039169 327688477 889105869 370221872 447449064 320184759 205089475 520597243 329213155 114914187 675822 886628276 1064904275 212449358 182162008 543255919 191507656 884378097 927155560 1028830493 971640401 718126205 470952334 119498301 118390375 1032184272 118686603 268040802 843505470 161033873 1047520207 267719266 1065428350 572561574 383434488 811234827 806432941 180215362 450005770 268372751 724837843 84972456 135828524 49427491 948943726 63674875 554103442 1060391151 223043550 413491371 593186726 414527539 918791124 324075877 417443099 637670940 549656626 862013072 731234377 271942129 985794569 1050704067 1020770439 811740561 872230089 683067157 1001026781 1007503505 321810874 206186261 1021829923 934120000 567915244 163398620 711422190 294332611 72326448 273055125 970410935 33324373 333301151 929231712 250414539 820913665 115653953 58752415 96981366 446442065 502733758 718579108 400820759 365439845 900198350 286900263 807484275 238579322 1037477125 501529460 1004191782 689442473 248607855 195701879 1009080422 22332811 415114091 245646765 977786530 333453838 1033837584 741235467 51733907 433716356 507623706 405178196 226675801 545818461 657758369 199295775 88878283 313463593 387442082 908163265 708355491 397147223 16156509 112029555 653513001 424130609 1006619676 183937640 838706089 305755962 226761567 833117019 622748941 904471667 775282925 591128887 285016639 7228517 89327632 43699129 515280259 35870317 755038931 677635424 385915880 640079881 303111312 918613418 817147368 175392457 452884194 296572909 411504087 695891186 480526299 300687150 680703419 121563480 949494832 357065586 740763083 247889670 28095884 1057026626 90074678 373604431 35199165 763679054 306651250 304388601 283339060 74122434 900096472 431129062 834329656 467030312 565920758 123675105 900465479 946974280 864572399 1064908966 399548317 373380709 553194833 513232658 544857065 790674538 233047459 494466255 582018144 393789271 385574564 491990802 864215951 497457674 746491864 963885059 247086042 26486633 716167901 1015931625 839911948 1041244298 491600995 184993805 655975092 595060474 21047397 449952376 106557176 964092938 441771454 371019710 832873402 662505972 592320951 590179764 965091297 620651761 315697839 593224605 347154672 638968561 374588713 554267670 332666482 1031251290 2562156 1064229810 173602314 107849088 894435520 956241794 205614361 822685553 639272417 872382581 464171194 946938807 135185798 324273536 746500670 217395415 159225465 451696344 625520317 177704895 929403437 1062639067 321552491 516325594 626660489 418708858 770419489 554690906 909562524 816467229 134907429 5206709 1037021088 160680319 245224160 126805959 979596403 1048108170 614497718 37197431 1047739968 856239246 412689573 820598287 729380684 500977301 37125083 565329740 74870843 188938433 644691220 98052023 34105946 483646052 786311097 152934697 709118429 508443927 773231283 918122205 157073350 611984082 212662861 378092671 516019323 2574225 364834600 117170166 183981565 647105069 233492235 811258105 44827866 773789577 752819930 913567369 398115603 324461497 12008541 28674352 1007254905 515610240 202250217 413668487 524774554 879159109 158586635 585426717 786881493 168548231 312582694 487229786 344371542 28460311 249016796 338345380 475380859 23954045 656913101 299912050 1031959979 267297727 909690556 1049386635 31389797 120209964 363556348 723415808 828267546 717450256 34084763 510442895 75430961 1068267622 207377370 568228103 324079102 979391338 403302846 521714064 880490556 292139808 428176062 177431017 795864637 710309076 609294893 490281975 771526166 210632856 853572589 94561463 91732314 987187488 465076908 76153962 887337448 67017620 301351035 421801376 76211242 478665236 686480262 656987899 801566195 761718809 686131897 1033077639 889559223 883179066 374086913 905734966 459415442 1069452324 1012796127 981880124 32649115 52113899 928521622 468362193 16013144 1025090674 294908742 25663065 987230298 157394550 988433032 331720113 831441188 617514090 1063073513 342558919 365439585 468862570 275844341 1027711650 533268948 801656642 806744211 264020754 477037669 588119796 110523438 435867071 336339444 345721487 221450271 69299205 943359343 396017967 547763724 933327629 418614438 243429276 667513082 641106075 593302688 767287983 384580030 879771530 1040909216 778842078 235154754 196779440 822690303 676582052 826696405 31992271 516573352 769682354 238239104 812153749 382827300 850067497 810772335 736852146 674057641 380910913 844238756 1026799406 64882158 184613536 609752332 928002063 830591331 617691295 1059754441 158779018 830113745 687128403 531998230 780209583 995366112 268423079 175701321 260215133 270828880 333785943 100737504 457160819 81139720 682551158 747278156 357102999 1056094156 493124099 514602166 912972417 1005280818 56567617 193737357 732491014 461828540 619447369 858148316 167863661 516334487 932623443 854653432 234455836 373691285 889125232 543776332 7703825 946443459 623190074 956537528 768400751 238617463 414080540 133780118 874061414 578844448 321583858 955884820 664336082 371231438 478245083 1013851952 152538190 1050503982 629728106 22599326 469354351 639874308 384114887 209821714 191932427 292773729 406139912 954860260 773343432 146234231 1054062498 290215233 873185647 1019447765 124620646 964983852 527971562 576390717 645612519 315592583 582132292 131290366 550257834 561562751 472608777 487599286 26966649 880464401 408671352 17722703 350801647 844018308 454347953 911310217 828072018 126090146 701833591 685068377 406773867 246221459 941300679 796643933 220293242 1005234622 938665092 507913325 812609948 166867257 30839864 286791016 614791265 604270358 841246361 811730181 576051934 324237188 546858202 388951793 896462702 7829924 284127992 132017029 913243707 560410119 777676103 199305889 769331310 958185743 943085523 606369592 544637167 222543148 690080768 217998631 217982156 625193593 874030081 525916492 747670190 603059226 686816077 182322176 427581683 166621278 610125827 963946713 903074677 964034230 710439141 665000717 118220390 877567205 361811587 1035346380 615024498 96586326 992532510 463496421 562237673 278933938 1018894329 671515714 183907408 300738510 440178404 736960649 45249004 346831335 267198881 305006261 197972319 168344447 472032291 853444441 247095128 570076999 722770157 543521750 927245038 787203910 747738408 838382924 879783134 230538197 661358611 230455802 765437645 317997410 775495832 954095600 777309074 901019180 509484089 872631052 634258110 359238579 873253007 904597310 925043513 130099329 875637119 827928176 412928918 876074219 1041498299 919770965 658009088 301181253 934183836 468314324 434211526 962667151 1069737146 974720185 610766427 629472304 73970717 588462836 229224594 410387850 535565118 377667853 699425632 166598544 45193775 277925851 634815819 296664720 1068254241 381314984 90042926 38344553 270099897 167224043 85793749 383513736 274608288 312635851 668648485 565610345 883723615 852086081 953918733 268130739 455231427 295131302 56621921 791994241 531931646 944084611 426076413 363457135 995900668 431819167 566730014 298278453 671589129 867880664 326681098 854023313 372214117 319317537 1034781038 810825843 427340227 158958194 133941820 83566517 833834794 357840957 756534669 105423450 602002686 329984616 743914405 187284277 273089164 228935821 911117634 581814058 465008047 672902176 856908093 707914635 969732777 802592528 44162097 631529229 668525383 586061197 618983349 647777530 84881113 255482774 813197921 943017824 654163282 959890265 250697252 916524994 554725084 233573243 717749336 451435418 679573787 607287986 1061330116 192980322 259731478 13555237 200154997 269583361 1003956065 791251318 685169354 749155623 271875157 588540350 365847784 949112768 1048007456 295646416 410742564 703032218 1063246314 132930497 275081323 701139789 515800451 558664994 485736583 829171687 456785705 826671477 780637157 17949466 6944749 307399813 839391528 387870688 239358126 887031653 562833452 300740201 603713383 222715831 780030994 601450123 261261128 222862775 603416091 377490947 125546930 41122579 668800535 686677477 166900221 890771872 169473054 514873719 491632172 1052354214 437901991 6788572 604674746 282722564 769642995 79340290 286034503 17343791 79126198 21083410 754286925 952711361 572527545 481047796 511761982 755840889 880774177 738318023 1004925621 78488822 337951886 861897181 743931147 1048586061 225486105 1031983594 560108915 386571507 1046113122 55207602 136297755 236334875 172022898 967244673 405874714 30912772 129659501 511851413 106016247 299880855 464963684 302981216 68470998 40356016 1065647649 642300419 57787301 501199407 966034417 301254469 49672490 147313412 665750144 187786818 77694920 455666415 1050194022 985505887 629167453 319625207 17075733 849888656 329018258 322703469 26549233 134635696 210486331 239285493 509706239 471075929 339031259 131658067 798268725 833473987 979637872 579639964 817557746 307858426 170169709 298722100 271178680 934878169 362712255 296644348 1037027178 852455551 421631416 458407502 21123418 338737096 1019344802 367650531 491631515 210071244 220084679 418812411 102730285 805462315 25986235 91272223 442778128 722534907 842180827 252641234 387839333 315045438 255459854 847815898 876516787 997512205 189622649 266441450 853707 30063236 497257585 183700685 372709226 838275883 961993645 888169972 123877699 87728484 447601065 1020413330 303491374 126087805 533193083 98439469 759177275 728326736 894304185 31973415 110889742 265076112 524079424 570672124 567722045 298666401 413228290 952283580 711195818 791513430 39420515 650696494 2215619 510232018 1016289913 992522246 855099116 901814572 1047413356 995362515 905574898 575875144 438139336 46555184 88738708 827000305 272555603 395325296 108338599 382048272 1041682882 29957724 226578338 832048976 583394216 341239686 928834225 369455741 74960968 360222705 60286123 681597969 708546057 434380228 227154874 466596554 35166054 567997442 723177249 177954381 141552304 146595408 220525023 400286910 1044719460 398887286 826417379 1017110316 589276458 51757176 895527259 1010003115 1066480547 659168784 652610241 416601626 16831905 952382389 263820248 791022912 780009583 497668033 102069696 918535890 79403217 329546446 736586580 47725136 778301230 365772000 1040724924 747959853 753260442 595855953 538195341 23255069 489934521 17143545 824447221 224029119 921204145 324224360 317310553 982748696 286795264 562299147 718861950 132545806 322913327 945113405 736689905 322690920 507527422 335769822 293258103 948101875 384312629 346349116 493427455 1008468704 884171008 309381761 222551677 392173630 423818130 1063570749 427465880 738090897 251232678 872107852 817635682 319008212 214989215 577553151 503395284 591400671 659683922 963990039 213081112 1023156625 708432635 745510973 621704455 814037705 412962382 666699636 862885270 1056790880 556555271 635564213 551299390 414335775 958006950 375849756 1036337854 847148863 37442730 248466052 562950338 617828994 488553030 821321829 702952630 953261916 282044021 569976577 62777561 417633510 995656649 382559911 831891621 742628289 130749877 533442154 273239181 527216535 462838193 629462065 1002386739 227372933 955889189 977693911 400156185 554535992 164988650 536406962 293086579 717002451 58400681 167567937 382920212 1021778028 204532243 136159528 674600955 956532968 303289933 540052333 313820024 761577739 865955716 318002648 301486259 367776642 344562586 198235914 414295884 494423959 421514872 873804069 381984636 69620813 593213928 714048714 490411757 1018191227 429199450 188006076 1070092896 549313717 465300057 176133248 1055628774 830136905 225101976 526148278 894025496 998273802 140133505 314297182 559990766 38097600 884664778 753428682 414796462 262146339 672096647 260820816 542145123 224171542 344178791 81388266 316610213 204045364 969725739 189229792 636496512 855241210 687104568 452105801 385852611 937316499 411401579 620524765 563138786 938931327 345307496 39140737 470815200 802460987 1007167359 1072917524 326682013 968533719 700070052 720716073 121534922 381746597 281979208 39427820 386104609 684348554 741454221 868455707 786624127 679857859 563321049 245542059 971014280 801428703 25200751 1047835703 427647808 149393710 821416104 906833741 1040665076 363732875 585983206 929371733 641897499 327336241 869890687 466977787 689971702 820920416 748227080 255011581 95727412 84447601 628176810 888221166 268413022 332818468 550804728 306717352 909456050 23079517 98408456 494116026 342455802 435542425 104540763 129664619 251546065 92489744 711785870 145860381 264065699 78801618 476672846 491502687 142616956 9062232 647817913 208893742 544453395 1054332483 157064379 176620394 417341863 443507576 1000072616 918175901 407119746 451616030 466904079 840819489 807285591 438087685 134541744 459900522 801301897 918074436 576057198 966595114 820231973 470799528 808150826 687487512 1055956737 207937678 1019756109 142513946 917127979 890708168 570616287 150606073 706474655 176871896 332195434 636889883 17000518 151777012 309091127 773057974 780325605 704657483 1057666639 845688183 155224308 383863674 361632175 184207759 19738050 489987189 130327280 25959275 523450942 699823805 525168564 110331580 731920700 747364586 177394126 355845626 388203790 795151953 92223962 470120970 501043196 876678080 354057501 831747811 256989987 867735131 449984891 469274838 1067095970 577695847 379272499 252849903 159436358 197832776 982638006 919890438 973953208 403350716 683069854 356805768 73720450 575986378 624974877 615688397 438805244 254301365 269756022 149287638 117044679 293022445 900121396 583969251 457685023 77365654 402225989 885351291 801049956 935378634 108082380 236962164 870623066 488496685 56780835 494752834 321631377 534937307 876989544 181810556 916563002 123465935 545386952 638356399 417281661 958016542 107756800 684696940 730428962 277761279 544180705 414972737 36875649 366214108 563832118 245920426 916438763 156450717 207531352 1004975936 581019432 619965159 202983465 721053904 349573903 43954130 951304889 386295466 874120014 1039127524 6499100 606226519 43323071 437739437 704732585 660192107 555351355 151448944 179201870 345442999 695641841 346503767 141236954 889330140 350226016 894609021 752111634 888030142 957381649 250946291 790567859 833253639 407971885 769868657 220523015 41079898 612596611 366034679 592611783 1028603897 436757212 1038943574 708102235 296799151 771889299 723269158 749615578 342993358 622502493 127799054 516118784 719412528 293001186 883391928 414729990 942053371 999179218 426100606 789596387 844096897 62797942 298678516 615710888 765717151 624530307 558090748 439882608 731768909 478079062 418147832 613757335 854326328 713149467 531940873 565801312 430418735 1071880434 122623689 540951939 124857982 81698600 994074639 405922728 1009057413 1065091609 997024525 437350960 250603921 462482541 969779576 590636444 473868526 143847760 189221317 33311308 123356626 910288592 852809403 67175517 876173254 638827239 466574444 505439874 123157577 999606612 305857258 850689779 632921762 680877321 500129356 567472680 379133560 170371183 765068591 467188054 388261760 1035839809 906140231 530255856 16190629 165383770 205591674 665951560 310242884 997734781 907576889 352577706 692064171 363851055 655659788 93205172 20614109 781476499 901091040 429979604 48164395 858576815 807563457 87798587 590407405 756918861 633218288 906449747 428566747 992337625 113298320 1067448799 837680305 448078565 478077796 794568044 1022239650 481926268 843669265 696324163 210953412 409305358 962264728 677784821 893973489 825887962 958473361 755253783 304615706 671967522 856438725 541395841 477714216 943825740 174301033 508920483 481057091 906741223 614473140 788591448 398886143 581328040 167709164 1041452033 942731477 143643907 69088123 58110424 270277194 894426666 714979207 522591920 520689659 668745202 445237681 315448006 970521281 728337258 848162847 875669060 155832699 1019885191 383680745 362920530 322722778 27962114 220955542 841206335 454410203 327028881 172856663 110871213 484436650 470927344 352503916 541762378 115571287 869037224 181254947 995631647 100318988 775925909 661744199 597498318 666930352 142248953 746054441 297019634 164058352 827728634 262263128 580594648 116768817 830769709 1110065 240635177 765040168 866410727 607863551 323351286 1015177932 49967831 470901458 750189183 233559747 783460272 835202904 800834208 399844083 163690025 531871369 921387517 562527082 255422643 619930180 293134846 216071510 814711204 830586036 254130694 710761654 1073227514 185786656 1023692919 370327840 979286177 714926902 433724105 1062177070 577829929 659712598 158925705 887591657 840256214 139270703 964059558 1038170040 685294981 211920827 602707207 862487462 808411203 135434230 429660085 479112230 720188250 891076075 4587458 959638316 997737679 844480980 739989371 94896216 166806581 584555078 315462996 658969066 457632674 245728375 974864980 996818177 1048884134 871038580 60293192 1016163380 191830658 287605937 941214654 657563767 731372358 3461230 570583591 65507537 438917735 214898751 339212114 157008504 274358227 559353594 528285854 555144821 289298226 345922433 554861431 639127539 678861000 396222732 116978729 848241539 77099189 348378462 163024065 237858032 94218666 211051303 255224708 245775366 420982136 510056678 68347397 636433710 276094139 757463453 274432748 436356324 551724760 321123952 305605180 888382567 1042475397 996047381 532430657 506316633 420145149 396676573 612296464 820354917 105672785 306653103 984348317 337366829 795520512 690409006 134576396 817938914 854830129 956945663 647137255 958525247 561789676 645176616 519253378 398626312 965952539 602576468 844416954 194157553 641568537 448001059 684952298 933146243 668133996 753015825 627758324 348634759 437510907 841528193 106228453 77795134 770590387 737943956 20042255 410976016 476109176 571648953 362844738 70837242 123845315 520232884 837251604 794167335 171527287 358484574 638939875 750280932 374670630 317646038 290844151 146447602 948450848 356433377 218164772 599982051 664415914 225556232 58815168 182055955 118074552 247211582 583267081 523194800 104584259 299593483 483010243 235436010 517057992 927369445 455033213 283684571 577131988 393540199 704454601 236825932 573295448 738666279 778232472 555500354 742239112 744356872 636192466 785248525 521452350 370272915 11252016 1062448182 2773030 531176184 934438702 1010601967 489948506 19667573 387172563 658610179 879863752 563259679 1051382280 1003198035 1061940140 648646393 491565717 852342960 460248564 1045150776 180661844 1037773811 84418279 526650540 1061339335 544433252 660004604 563641852 211043819 883310142 373339763 403295352 720427383 429734537 76532169 402211617 901252188 536649719 890514893 662357757 394053048 933461047 92828047 814744180 59296740 616150447 848349134 170957587 176620456 932981134 594745608 80714075 236985989 521143380 304533241 990143514 115439184 239241964 532700277 262975436 79563132 619713871 890821787 668861800 201982693 501755624 161942339 284210100 47148386 541061759 772809959 871396555 188980303 758919050 309908039 192138819 497243940 827787594 81433529 693600367 452857770 131950730 972033921 374743461 610667961 242419564 807287710 733772529 975911253 6589817 438725895 210588266 932626868 344938682 834156852 11230139 268136111 368638590 589608824 129547048 36400222 302356678 1044259238 132489785 591221807 800224862 78291542 720205619 233310563 586308305 756899685 439667971 140566850 820343233 700768647 90508926 478914350 24495266 979983890 850520368 439883913 420049064 822518880 1025822266 331710701 242360846 646583282 449433120 63337386 1058549821 570650562 956441505 636648408 803381297 79311704 662512188 254781306 970080383 570793850 493533824 1049767932 214475218 425388269 582065730 166550126 1038626266 18788767 739511533 76495236 305297565 511315781 964473109 573083171 595294786 230172931 325150425 185922211 693227258 892167944 274016669 752798542 187490262 710473991 938735618 31566512 542335677 819391930 75839441 198450239 487895007 568186250 403166907 462799324 45118466 909885931 974139951 1033031030 673714124 709221331 329328943 509237277 565322268 144968894 795840545 864509462 592024908 175219033 206860916 632875784 190947693 757530125 669330569 943342863 51926386 507440004 1022870573 522200561 816652288 364996284 700273304 256582299 327104629 681972735 46139592 387541467 508241336 104929031 732404408 597225636 371068298 699363340 20750918 632578009 535111114 932839051 745147978 668233735 527591873 749370444 177652764 798972976 505268938 454758332 550096437 1032483143 684648383 585141699 995135349 580861337 129446431 126139712 704793457 1009532900 485479966 766818138 665072810 920597856 863805973 368133569 550876727 292698700 181712160 315413304 612090156 1002908709 892921266 696147174 902838800 635292761 479745352 198188623 965822330 803315714 830595564 457757965 306865409 763048062 1060028087 1063223960 858863921 100557849 441235974 243295273 22793968 581532307 892105183 918678309 403862938 284675754 656717898 247721665 103677828 971564431 336054469 790424556 115486187 200605658 525276493 593177646 128560442 615240765 915238265 471911099 244957341 971694376 605464518 991155426 1066178729 735464352 763322972 428944473 782474522 605109256 905242686 671012317 115001922 582481025 530819564 494424479 210952511 895915913 1014763807 553475482 1064854894 103619212 897519892 369766914 823409489 358362958 70051756 994534372 604085265 224526236 726135582 683559816 427507289 913091764 204071973 1028477638 668522365 862861331 804364139 1016363067 665605550 382860172 979477810 953722935 962530576 533603917 492063304 446319303 96561626 798522408 486417752 19159878 370366462 80626864 689601192 701098534 513726629 496795169 157646201 324910630 126911682 114305027 152807173 823624045 154735688 1053502173 718605513 286252880 208628710 308679490 780955737 588465991 1005269791 420712528 195410492 888267129 650901438 281170996 688682517 461239245 1034934933 195121078 160475406 760705379 23974476 538350840 665100527 258253652 168378242 1059450702 928320172 1032508778 778679200 973483214 188985548 48852997 987000509 434553890 1033129200 156925391 673303113 764965468 279667625 320888056 770907574 1061407477 736230639 321378615 180893296 795141449 911235107 882048858 812357778 547272271 700662061 927557052 619277028 443158849 858166687 677061153 876482499 170109984 366219492 992485819 1019735663 153634995 757692799 830916252 315033047 7880013 741954092 866736305 74254352 562528091 113095246 588534852 408521577 451141883 627747398 219885387 270110286 313220141 535818524 479194124 32627714 377703924 274416685 288722242 801569341 614712142 605261769 1051411204 114222943 194934971 8013581 417345900 453752160 288382993 862897950 297800832 848074716 462470839 792005631 192102655 685410941 478806848 167478814 305365023 311376369 134445390 604589106 39343050 1008145786 794733250 430984909 109885743 471189091 669798655 799286485 671054949 750367285 645115195 745146694 271784140 753684576 20712845 956003213 757150385 262363391 316357181 62527379 298501306 940960863 660336844 597512680 221657340 901562695 592997327 579643028 369401499 1065577276 712020105 805139353 193779013 244026951 532494353 834909629 107109678 23497406 225476741 357421562 360061125 722951218 828066388 940455547 297317446 871954796 431090621 382135922 656909910 124595081 656856077 968171196 621518661 685499067 140702051 315379595 497570171 964712519 736393048 373559421 325601271 335745063 249037325 134694162 283352671 116638176 727610244 976107592 539926021 952997770 525452270 449854049 858224190 720898777 655096229 109829270 650088551 357088197 853970765 45326157 545013028 963941633 648526220 170123335 1050633375 808943669 711707647 153920986 1007839774 22428594 974274884 826467841 855390530 572081694 692429147 53841037 27410130 865114290 105361672 1061203351 163194876 441892405 827361088 766733454 686778492 1067662093 108988172 568811974 982151140 701789517 381811449 877228332 469022905 354663939 787024146 881210154 492309116 745773427 708440976 961279441 472792559 85182066 65069533 46529572 445646795 910208610 997306410 397670560 885624268 347965390 266973783 769264560 433887188 3488639 635619218 661374787 400442139 825857023 651064000 999958596 237234352 346947138 768963183 663899410 289811180 253783442 43824388 275660446 334542694 184902105 1008936691 245649415 998601379 115913375 894402030 49248878 597768582 171071415 126254844 836387749 770253723 712253469 19443462 837718733 878705510 394968794 441979649 181822983 563414615 594106965 194448591 265952950 456787981 887478040 827885124 1062145303 135128839 27132706 875440293 312231431 926415435 44952905 747088523 134016286 282107417 896213175 645106267 546232219 1031419873 60308276 447773362 635108732 472393581 42259221 667430764 295031671 626329031 691485872 693991033 988574320 926337033 416507059 154092088 291178681 842245954 313433429 622737043 896875636 417948545 143124307 280742471 5849143 30082416 862556748 751618180 60101082 151145000 195869074 497842635 486133834 236053860 3890068 204106231 567763514 903432116 616288318 149710654 906859480 233996284 971143543 764976376 708781111 305899065 942958087 206414136 128625768 98049720 423845554 162813667 817579833 459879623 143459754 103691731 672938879 737368789 675288526 282665406 1050485405 934570334 198564228 374399960 552739842 8882064 606398949 539114958 1000312514 570166570 717985520 546476805 205080906 174249842 1029813755 624110016 326296856 325835742 395866739 304365052 677915989 550514113 63179786 893889326 143351534 541541131 116390278 1012782295 572728969 947001554 1035871039 292854126 372225981 1013516219 928353493 585899516 701308806 963319705 1000874770 951136740 718322480 402774844 581514845 239794828 110100414 375788499 791296409 116362656 924608947 322797126 526081662 757143677 939473398 675054746 378224049 603502994 652255575 163652836 175370383 322429786 216512268 327214607 601366682 528841615 563128798 302397344 977312630 904066148 530730000 263152636 398174963 146773762 719918559 768960058 102736637 941213829 114466712 242230562 310116468 391144294 452382267 24566989 920867995 903582164 635771707 850284150 1031445177 430780020 582626117 253799117 703563144 983483202 947496698 374546985 97720347 605676142 463992795 125221635 383772541 912229472 213899873 950448340 677344141 437636899 414483740 81077267 599832967 180281492 110847299 768823236 230068338 340730430 964161035 311245205 649653612 96097959 183095427 641348174 842127781 7700367 575847190 46852743 129242892 609483877 214583410 931764789 377904303 410192147 479447403 583914690 93520954 655012009 736190510 371078497 199926700 215026999 187463915 95698374 371516266 697792410 345790152 868113892 140927969 716149254 461636890 187335701 634077843 896588321 200331357 1010890846 247627457 93505085 251325590 1043818383 211395590 791549515 215532529 79941285 1035680382 104653598 908621788 467720321 469284496 413157210 179327563 495596320 979746521 853494601 1070378442 473995192 752401912 77151445 1016407716 436761947 968811997 868169356 104355906 1060255040 291565879 577994120 1026395906 115228611 280972239 436859243 488087648 85100714 413452440 566437777 170788699 438448841 9173709 1072673599 20584954 874444063 858408083 254959389 29211852 936198971 90682396 553581515 631292031 1037742296 802789198 301057374 326055943 558549201 413344396 1048598954 562867699 977567632 846411029 295046838 938642765 783300578 911670892 977966711 396439591 596845772 6056499 843135515 796835072 712785214 225154136 291906991 552763421 902421480 791734597 896560288 173323779 173842599 814648753 833742268 661385250 504090125 833223624 64890873 360390290 196052006 88748954 735761724 823823013 343822260 779701064 1015017128 761657499 848503045 242248206 191127948 778167766 862914504 599544301 445740262 764308301 290831776 585863145 50727434 663326263 746277080 1036933396 888558250 82755682 1011728471 924100474 171092029 889181801 193913492 935414240 645331545 298034543 472933282 568037711 245283451 742769354 272856961 959356937 225734757 924451384 136962575 950687468 537933506 220421402 294713574 939658122 1009835682 1017767286 168736049 414089807 399751358 1045217558 1005717246 393647479 688515389 92951479 1011532150 90400156 912443687 930575336 28855660 628334613 646647267 844690148 1009193475 502496798 574513148 644180472 465094535 837083728 505862997 677701364 474558592 884781672 340781246 976939226 1019089021 784086403 108038600 751672286 742661457 90767742 1052227900 991205314 942879725 148988908 775677076 1046895535 856090770 276765639 665698038 594169684 966125831 547057433 601568819 1021860424 680007381 535743530 147717893 344068293 372556680 885030267 468912783 691715062 991673069 2030353 514628711 370210622 359084139 89472885 776783168 805565901 238608050 318679947 748957621 777245896 275989400 943614105 765771298 384431551 78419001 497866058 47637861 629402739 493471823 1056458761 888534390 539283847 244804380 907865684 796466575 630239441 711936742 128886653 966655381 413556952 829262364 718264463 827122850 483841168 859282805 557411697 966025089 99198130 214403924 122974280 225276029 412212604 14829905 252627963 991934528 832215232 386868 591743265 946599327 473740800 170908021 173660590 608516611 516039509 633351317 513213858 397189457 734254431 554010646 503227549 454456589 90364144 114429389 571546761 976830099 612691786 576984984 140390254 678193044 258248921 410258665 701418179 126697838 838677097 421468514 166242886 127888017 163123659 762558899 416056122 926535634 409528865 335256916 299915404 156788015 624565905 751842221 896885791 175742441 368551968 38010536 673029585 634175799 850341616 23222936 430722837 326655200 736462042 657907692 749701496 717344538 577445236 621670179 501882022 1068896940 557015110 18901564 960088586 26872969 1003226989 387847472 443368551 444695470 413894672 47589592 1044459257 909377922 353856491 970056878 708140243 938773923 10469087 643876221 715461821 621436113 122971307 824399799 1053567424 737442329 823626654 24975747 182022278 304311414 771760018 1060085599 956879527 728672457 755022865 937806668 247617552 337674854 531867356 868402088 86424293 785710646 223219533 529361975 786737560 304419480 160983573 652430809 853186617 411372467 949941542 2178639 5119907 269362177 1026734578 500126110 713693881 42969133 319296910 250287292 486836775 541499559 991878344 4544803 946567970 463553689 711552844 419058865 63792246 767678353 16455107 225088766 1066328572 2073791 340667150 252471366 427323367 670468979 655354633 164754418 542556585 751516174 74536414 73479719 37400962 220898111 669146176 332121000 739105830 517366763 497858438 202432136 1048387278 1003763174 199139268 168914394 1063665400 677229700 461722926 262108233 115210832 506223772 828381523 88708671 612534561 951886947 1008662327 709304246 14687548 443807513 114809331 1065959294 192434348 307156380 193724107 628416769 476296934 243391218 25145577 657392049 756325271 692999911 845073509 736267989 614750166 860998004 571363305 351503374 538917454 350502239 295303254 419871210 327052674 595854051 437397064 784452593 408575135 142022697 857782189 962520569 691113797 454553216 398578129 780673562 1055162108 770700116 161694489 483900461 487886702 824923475 916858027 830936120 170583934 869233836 94259799 340954927 988869689 305699159 188422205 754043411 585448532 1065554293 724678560 100274674 900077431 131315732 363134928 847653538 245174542 37578937 8980343 1013447546 1011426101 910201556 770182211 708632662 792662881 1061642256 68972484 158645282 380673931 828788064 212500988 802344888 674795505 338189229 815789370 326977810 480045710 754365604 132574701 871843904 976740440 58703574 636333089 194084783 284631713 160538068 694812445 443001135 91599765 525606477 351752220 175332907 1058373112 406148118 203657820 329743367 501765773 735346887 806585864 758897859 1066441111 950423408 181006260 136978415 645811714 55703916 342750790 90952745 1024300753 164851853 127318069 65170299 451648030 718253199 137636964 946008201 80653380 511511145 953534059 509278378 394469045 315869249 222417602 948910972 707919835 1010577009 1023710968 1005784202 103906314 18765438 921169703 397129015 602937926 807279740 885817673 471891810 29054769 968781441 370586224 175467095 523988025 432310372 883306340 257617632 753473778 597292782 726759871 285362083 316529703 215607040 600805821 480798872 745945795 688593592 299380565 184351164 824165391 1015405270 247244323 990689253 173491829 420584291 282851057 941789364 234839379 402700845 579824177 139485065 1016484625 890603244 862637219 675356137 749332788 697535467 237946627 38838524 222038001 607429627 177656920 15959163 880129092 71653753 33464045 228355231 1073009837] modulus: 1073233921
