modulus: 1073730817
n: 128
rootOfUnityTable
[1 759267682 487485959 52037194 894549948 846995971 968730911 469807916 818048062 1046079855 750136928 962883709 276979830 848577976 752708493 682527095 977402642 951105510 975471803 1038905347 130142376 1030211173 586054263 468704008 941612725 249301045 361459 687704472 517799579 769384657 905153569 375099662 2165645 402146809 399672096 671101895 943025844 654356600 43533256 980250313 607451657 873794417 257126351 661013664 263023300 440537778 985993814 663199271 382425421 812528961 1052131481 321338747 731179824 770493429 225583674 432208295 460379918 1011002634 42110462 52890505 1037105616 701149799 740843210 584179823 1035788186 939315654 579988416 788892219 641648223 609115302 791265069 990806185 384043535 350554603 78599476 462801723 896110000 1024753715 203514385 706231902 130977386 965421356 589030885 307363592 1071153083 1045580927 592445351 999267780 275006858 373362988 58266912 749066433 385762962 425786014 447372906 630188951 202851381 414929284 850903354 142531607 644308481 881628525 17579695 459398878 807815045 817708170 15783010 943585855 430958285 408965738 253195250 715863199 903715446 949229573 926040413 333352396 943499970 546067759 663124304 980179731 954728020 843867044 601024400 129815979 777827104 653804136 1032488113 1069571362] modulus: 1073730817
