modulus: 1073726977
n: 128
rootOfUnityTable
[1 673381090 306650108 932693291 914911382 1037042896 391559340 295569818 1072169709 228012367 451454875 687892406 467020188 375366400 277593318 639982205 608109758 853652636 466359951 951652598 489020842 546826393 658439861 981819644 820375638 404887574 24529392 236485699 54949686 442452744 62223149 837520052 323918087 861480993 73712696 635696013 357541144 617486347 372242433 97900240 1072472468 651135756 654709565 370847091 184050620 571537009 343735762 508792933 497350249 521340928 269868907 41779970 243426312 692024359 702133502 878861727 631578747 1045038490 673185678 949576332 376921211 165514378 505549828 699897260 833656712 30714500 672132292 547159240 543743180 63883500 450799059 837070273 261403229 607658419 421620884 720600639 124353684 295321981 633275512 454355008 782809776 384987555 893288726 927400080 16161523 46899801 957909089 277708569 571815212 616258911 659285276 633997525 337741716 423398849 201848409 494150752 167366686 784322797 987497708 782313524 55821792 193435812 430603161 1012699663 628296155 149616122 711806495 285751308 519400641 555861780 522078869 308483882 694997871 986299419 378847037 819260405 50454151 41716636 760998692 887644263 594880963 631434921 435986573 824059722 410449484 794705960 1069510283 1071858638] modulus: 1073726977
