modulus: 1152921502459281409
n: 1024
answer:
[398807564762254813 55684180718175248 794362828227155748 652958872874215665 506236978461832084 650951868169482381 722974165040900194 1112892660091772959 256075507256319035 621487192894157827 624192587083122590 678625239140565183 831476631879620730 591627513575346403 1143412161332390394 74772375340384834 517992788949771855 654099391141304491 33227166475896719 55212812049045950 872103741290233290 594353593503482156 296881973932153840 84974884224723672 1133865563619892407 81277716066596873 382716894770733241 406104640703053928 1058208960721192473 1042408871473515848 1130757935934995090 163125480371094777 1152850191001322397 806666850334053324 982403595963738890 365070102784723745 505754739610238268 1097040782798937528 756565417215746604 471039562096047941 1023747316522503154 722838231602421837 135501092968808457 640721339491412039 766301670131661914 680255604455778649 299342114781467160 110072792905407817 772686597438547347 1095804912992916552 544281958466057904 70870576806591956 961672838812104110 350824854843986673 298766807858257737 375789801003626197 906118457734222608 1085444658163977677 261564694294767488 72292570416295850 422883439011652993 40645147106182116 1141306427153549209 837718230501969520 230340602234763767 740081613675449143 544047841804714327 315941923905605249 142910828903049361 505617262723612344 450278937469518552 84409659102863456 123740420785100482 122080699307019316 755242508852855443 185410633915740067 452586661928636485 702110728753715351 981516476322873049 875010912212809858 48806724186508377 997060931396213660 344013238026565210 503754114236388966 289104357458682657 853502167150194982 393906158756417417 150982330160816810 642364482887390387 160841130997448130 60190008381919438 195221271108683543 887231572645996270 169508756521663568 640434766347393814 198868645410261443 96411347698102159 1104018922547486407 179725591592915963 143217501103460115 679263832689097961 403830260803864658 361432395873769592 27974410187160966 830305946621230585 675564713318769437 612591712423440577 906827343256306852 778407322267845927 110780075209534500 236256040639153551 387067910792816128 244139018589117194 353310664384192264 129128135296039468 661542177535836988 21026163286299017 1001241167176516918 1091736360870997960 251102074290453734 101409646111852240 878505218075411931 960880055971647273 317993385426776634 122857730947663644 318159510055814290 326539441981247829 634404392479864629 267378498531965714 3649580411577793 176880692577499535 743785540246642408 39421800554609385 349525460442408646 512691873627175398 797098503616722385 6824887069456757 677022769311554625 880261339786660363 82432122046898791 1072920541595892709 654550790365845362 353933207465240458 809715821396988066 314999849908805322 532081664652759633 628532543455170724 993352513949703879 692452689008744795 934697234891466381 98189845701912607 644292707322630457 247653441913109754 3693420340082089 585134305140278272 225148857226410676 985849685108111662 271751810330190485 390566983012442594 909597361537931407 874742113119637518 485305497456761336 56424637233534997 150476482410455178 963389892968862316 420801662997484185 487163982046468973 948290156142835894 1100434429673966573 787284872841553347 949993563262048954 101066887924055547 798092665680247100 697915798491486014 11027354085358661 499656621882124525 171263446658014372 431382779860294528 622797211469056546 385071805368177760 112604082896383881 113600749533652852 39134853239740825 1039618146678446737 368452668656197215 76869403014912673 233399494734745943 795594092989567607 134242113094028761 999563644091492234 164325616129624459 419567791709889509 928569124097849207 947044582680520525 107178747510040231 382165531210998517 719713279152085268 236015024310829681 1151796183103671256 623779285407986748 994397191868619036 295948671900755607 1037985547214955238 1124268957198430964 7670827734576453 215933350550419421 926557911917402333 828978424735275898 204466794166145224 1055142234446121839 966821679809799640 486071348120474640 699137134193302662 458549959753886520 70879533068494268 271159579927027222 919840630402796640 645144542086610052 360957991177074952 836322769566452314 788392116335792964 838774448497165413 961354820558033919 187318955333365042 1015979391755804529 823305628981451012 788823386199905214 277437469888706025 310937387025651237 683180524137246048 1063955815927327909 531525102756806490 703581127254443724 140722550080809195 1103884827071070810 590574385918705491 200066817136474744 762849074859983969 108274785037031409 863364846416492032 785442070700475590 1131758100787953089 144585843068034535 326733719839938133 914678247461680083 1006267664446476301 895194494125981458 234603245085235003 318329000268488102 430299194755087974 1107210903702578680 93527266437581211 739002496119116032 564818394296963110 151591232271601292 621735255192216205 106305477840339000 796670909870296641 80873337603602412 610248745626586763 99600800268309098 140297620934288522 735530036216149263 248263592136560661 825969006458894815 785639829224896334 136747686729678532 998601816512667405 691173516421888015 1101301893051414643 1063131022653264096 175666670567317120 108378195232757562 1040431665909915427 252732644377003505 496467667459954557 363287785559205420 724981231095530224 642312292735756548 947844002666651098 113651280695167568 1150313913719730638 426615352378660749 758376533307857037 911756963563237104 170013850153080865 44479274275820422 318460024818108037 5240326797782868 1054276570529434934 662314414353832366 1148436739641376641 896563025730922522 512085946450876932 1010495962250702591 290851278388753166 828476636576732815 386336032001118869 1010925715529011101 1008684067961001707 1009756721524975275 255687817352492237 219374258662940078 650422990656444040 1138761496111849631 705012370725140250 503937337775956658 1008370000283835368 711687351502865379 61650054934118603 728036118843332317 79599874329266748 1091434097404890396 440068383189661245 303421586678905657 60265327932175510 675494566915558362 930948643628866002 614633310871235610 1025866099425535612 250010031184804 402211332117089271 779978859777350295 465591041529268022 1048460571806977761 977849687881134549 1063600295436754818 354759523550393541 893063151619010758 1053242737114214631 60599435525118394 660596946254806020 843984289948276988 42689683914794085 361474454992090714 280487867096202519 1127517166524291132 959312516162016331 608266554071605114 234646881446377529 608197458068393628 1140516639988089044 955171461618720402 745806299517622659 342368394807713983 1005740401020258546 1016323503605938926 614951024790490260 378765003397933815 3083968411009473 179493955147241850 853196056515565618 172863214655795012 699701456804362893 801031921276895372 957197832727392025 902176137864412234 923294555730274881 462666791859646023 376154259420438921 129492774439523246 654703173746918021 664641193402295191 399333111094490147 651312700357253589 831849716753016758 847577371159918948 301990492960301800 743955607977781257 729735831478043495 508943426936201621 15547938738257733 672717008398052779 1003795261706080136 529067816369306835 445468421428035101 517842802079320647 802506278030879444 1131997488239695183 330923232424781716 630499558417982356 99492210777554650 1069990794140297978 339599447528911553 51229049734044431 708086895454133213 14867370624205931 1018039479727509081 120029129000217568 624778958937803761 286111889950211099 135057621527695610 132968686256311946 197958955738024227 1101877059229283022 244215026964933926 533368656411346408 109570959368654678 156304211896423486 766876618190453233 1063147447495393532 1130392152421443291 149008547674352300 375183885682514409 1088381262448660672 935848768809184707 657200695811316218 1060270360908118819 357174452778370933 751029608574850813 809678059695876180 858183562908154308 238059230688106890 685788167747608029 804959726141763065 235880992798207949 727937347298044480 425723853881425552 810183427792779316 197787054051823922 750431417130524173 477290575264205226 639913115881249204 338438734340135959 470161088690273217 261907265435520478 821561870638547368 261439269524991921 623985892797095162 1027645158430721704 516581730580432330 858911358274550205 493647790147097468 425263335614145964 742070781387426012 165159334759994049 1091613535013833573 151158920096936783 344451230053110985 428116290156220720 897652420890648257 966942123857996421 955966628829667915 151854570567013471 940439822537376222 205990910334854152 631131134150528792 420535151694706203 745151102619290409 741122753630704590 843819179712634601 240936187903726478 877905224112265637 982962594844336250 514164896439813048 873196107772162991 984696631306948130 408292331826343014 646888940607672855 353075559206547025 492418955128724609 1012689820378081775 290638386166020397 120983131490855392 816028975646516393 1029733318605172973 913252037017226367 933593765269906707 668778536619513377 756140553127880752 782378989685202412 1118691336757037674 1134727751678301251 1083785715313609240 231647071842177742 632554488921004695 860329782320503421 736431491288575390 551782880856452926 194638862964853635 212261015969781080 1005517634677308301 451573086025661254 1148519175862930267 756116159480712625 677745721556387370 194994160312090685 766982675215396382 241891096067107170 244286824024245326 980046236003522809 449430153633669881 165964029242252102 626002591895582800 102296770791800968 94582015792881737 925208493320338465 742410848171262861 610668847208193611 561399185087340504 755261140492535486 248876762096850678 192673018853940298 827080915832154045 916653509244457481 1125123288355819171 688313300600134968 44333984835779747 215732820231489745 257855009760856677 304079194212115667 955918049186924200 592336492773708007 669862011348870813 585460637979096801 583129269453431337 1000006243978847548 566347066029109686 507207156400722273 727328914586752626 43535140381129333 984431080603889417 941976961523892179 1018672318947926938 427019815459747813 967856461032767149 234699763667624726 429508163222319055 531333301750627872 565888981264556562 717520514456436581 40622859192307005 435054360716838981 838034838793102129 760277875292109991 548734541389039552 994723616948266202 318318820241161173 1038922092630325491 247632477434977246 802219844899610014 356750770780200965 1030390776200832524 549616691311693868 742268707359626808 957379409870751674 385848256424246683 415205045273345150 402524903359725838 131130873499791145 1057921560711017272 763577883200996851 97666738297675858 230689782618762319 817204485819574689 631588278704225342 683396342900252207 420298962028292280 126625484476621499 240167344841037434 339179019002346075 514990556971605426 815931287477886909 1064640278632325431 371342999389014571 846204524433954480 495018210565669611 1127150268508531223 718093965154884030 417964147476784382 156596953773059667 104020630248662786 304044376056255659 273836509078305334 1125923456760117231 837136240902489547 305801884364465248 614869315813709388 735113077958695690 526739595757598068 286652287202338947 402462601945863598 1135539557628033375 114985678282024065 1072545593614430140 410394302572011137 141596299757065414 876838586022743446 389313107484411195 485458909727911062 77547437788131541 46375540272054893 833937010239258594 296750935597104592 976960338270190000 352897887867598532 800872732371514616 719260584326307301 442738132938445926 27521995344474888 490101654145260320 790464123939617709 930125906320692415 69760153422806704 617593613656102389 383580476513336069 714757710110601310 911065788064017909 709435378809789878 392095124353539627 238465701512001916 680937020607114134 806418731162392268 596929433210748346 559827406474621478 996678009503076766 765020825300348282 52030035461503829 385784341212365289 273414599302576102 806297256606508919 330898544529967473 444605834445871972 636177706344442926 1131861267718924322 923343951610848570 943431242473013409 1087479001305592603 730983946028021858 838489108140289641 1089860963381532471 241468606957425151 783769302369951450 753254063984462706 455938163357016056 161160651256735102 24396438567497311 685945084889253237 147754391660468970 832148094691260197 892889241158122325 179389392287658725 448177661752411128 543114199781608501 233860581154363414 808711688091049728 852533903238572089 629590762377858619 785960436997531268 648584799852113462 187978719902372088 505643856110240399 336434546987669457 433409044052894974 256783637910660023 470498246049924803 1120930430871493664 9149362155137886 16325441799433564 889771564248037204 95075062557619511 1140897747265445343 124473281722968879 760438173823972694 731770146771173309 743345104553637953 121938513424835208 1133220415428925723 365182030741524122 934828485199303582 639402809849443624 821213422883711496 187316232525072778 1060378500245650426 649313525559961964 21928497923075844 381861448194492984 1038004564237031361 578922058770798722 196248180292788339 292206161545658391 877104582610577298 255622414832714948 812228037013215965 602602987932800769 54653947011068408 791173061194794271 465878688284331656 581057228516607181 568706649400914167 432603022386099196 399249064800852714 437620173710096189 473423617433801448 20188669072214568 1121660126363603495 717992204960453361 876451330264365999 362770640565719405 62599908404508198 872352843181866566 1012763161438135761 980703872306714803 649456732063916496 427359123947630025 244299340507658509 96313812398210694 996385533570239850 368093932188533339 44742323772772426 573429370717363371 769994955048556634 421031915048613052 493313730261354852 657955819317533511 517927754610045901 564258061238920108 118438812921351316 350521408687312669 1112917527588958193 653014683377740068 410531098681752263 919753497898159960 230954514932780023 992717642086965373 505467388968040620 1019579483551510881 153863673394912163 574218152804334678 950346052044342329 746624118604624819 538021193984221641 885059204118710001 1138143021903852584 505925729112426805 466148138772196987 586922705948755356 1106713731626762997 605569607781665994 317548808365999149 971652519263589804 492861096795997769 381445144432780223 1035030380842938587 353279500802434731 1134834020750281921 512288189391976521 823267418679442095 783215349412896278 916325904830018052 917128890784301970 54590896420230288 84852990436491721 60306490418034233 663305740124513091 309965576407165361 869933396080355849 1109489774168957618 1016480557181352558 184712518332575092 482440056147027014 413740418833615800 190782321372285396 379631348447709337 1145603813933561625 1130021538255072887 1127991938793222568 606243961888250344 829593490610767793 355571316633020153 1086077563589147060 277924003312500937 1025309128563464915 536951303280455295 720799015366040659 1007304733843625723 547372756404147380 173652702915713541 919558262526529780 1066721422870183694 1024299703510906648 118346969755828711 647958068433124372 944504039020883559 148409615543102839 911112233327720760 114233213136131290 541939642459499485 190315428854989139 21946002296554652 402931484868409294 997304193068167041 760279115015104807 1078249180672648600 986132035168602834 901395982945065718 1084964816378929196 821230786747825226 439983151191429389 142233552135388749 223227450611257749 1087586328869031471 948544797977864067 175853785403645148 1095555241010080316 558397847911643699 3968875301757016 749507763848814829 783396217011074417 36620030790182756 901171167859904071 124156404657114935 357324404374177843 511948010308903309 237551805949941821 530768856121991756 169148541671130858 326595944798515554 343057240408522340 230838099145696718 282664440714086916 900722405232538416 18193282576118154 629064989649181287 143341563724483679 449736165429800265 1069355928817315870 369953598889839442 423914856616506744 218389484584922256 1032168771392032527 57173591295426018 1045599596506533105 1018254694476868153 1030670452448674441 244273052885507258 605617156139800913 813459688593788869 555273786798418546 1044928128940941119 405035285177561243 965240133515212859 644126685713596249 572423576226078643 360569954084879105 248049702307699764 594764615990676334 672074411611575237 469074741336606768 738256680385916867 788458857886659838 859464758138395500 531825641217746032 1017217663902512344 472086590457760349 124469134297300640 539795773106258513 118935972971939073 149017532206753314 365288369010471394 27446630088107227 76099207316160913 815471460482812033 102168827772849663 982178068293572479 681531408230649786 1077513679172504146 183857051578701694 683250010555165072 1132740336381969248 14515501463537318 923839874345906846 764893628392479195 1056440090605664957 357925264221255101 327047452359362071 204564426303688989 1127322638828412956 706219465137844466 913141448841832954 326043536678506917 96638335836230285 493605079432311034 414791938829100217 737687599583738710 965700947018083427 362667338856107907 363341494632857100 160603863253972327 194907681783293280 68483769497737727 27581312490028941 339034386886314108 63980041935020729 512484550925500572 1148500013367987625 667897852314944332 1143195871220016335 1055220078645941639 606327454353418650 321740803107106742 462904923012738845 209980541431295567 760911738346009398 94158043258660011 524333759894062144 553981788093046863 235206036850290901 897003773534640973 241461158682462818 544697594394237667 1008366313392233569 312117777301489234 375815169022979989 559807561676037932 592013395368896086 305092582140860637 446866054530193654 1056803068997119792 570315517585342432 1095197340322766202 686068287613744679 392129800475563207 389169409822078946 11774807096311827 996186937239380552 774303057893613463 875159547974426630 845542442213754037 1078413731734023481 596614572008083447 473623945590470253 802364119965897326 597549504662943351 258622174303618168 696630766313427186 1058940085236639272 897073118570052705 323881523192746311 549609407034635948 1152788054952395542 482190736279557359 95735411197127023 1045248305711503343 727823818427392342 549054670867134537 803679450258370736 314711380221328224 941400987899090756 352250976161260650 436460525121925626 882222270006981770 805054802683782725 906211567518392535 864291259167229123 299822535010337335 725442163624194477 91836182025512097 1095510309616347730 973258944601495082 213537734380636361 140173141483330539 826485952226314018 261583612432861842 615318032492612513 884149948428628401 344785710515167678 196686506197747164 91113506408175278 214501503756602202 601511491266796065 470393429465402098 681098184393097544 760632683026399461 645683677873551459 258932498569335891 396750029055648157 1016711419939852135 646801733187229318 512780489387902310 120889436138804477 1090203726235192997 83019931165545895 310406575436760291 421046647128011119 861884303893595344 546488123946038683 387684514807970753 1024074328282368906 873956239835730563 188906028333074469 924792693791830537 295224498419417955 1048016636490352947 803833113756148759 1003165958004941832 950096394862978493 1132294792369151719 364996297335637324 704575003448034960 183287034231421527 1063554401148671986 361581882626452022 1010598954319028940 614048808004742467 56973823269159949 351535638767695623 662820834162608606 868441410677142984 474671700974923528 324248667521264694 1092359515574385624 1151777370714914562 485276339941067365 720101129531395178 487901864599811093 529656553317965920 750930645410557341 157065273300410461 139053928294668723 695119019458369904 15047013445860063 421347026375618854 63075477068591190] modulus: 1152921502459281409
