modulus: 1152921504590070097
n: 8
answer:
[674234413634179955 748633488248302570 479397795706647921 228714253581304505 399173741240589114 470701526332431660 963166479177859207 878976707070422381] modulus: 1152921504590070097
