modulus: 1152921504590069441
n: 8
answer:
[758554497230460671 320508492016466171 196875648945699125 264102779553814219 1046729502917758235 561067606162214590 777416707726898608 970235030322492438] modulus: 1152921504590069441
