modulus: 1152921504590069537
n: 8
answer:
[112899126324333504 965133051167394257 231030675309195935 565851189313488311 787962284815164240 381225450720934139 865886763872766646 842733978643624113] modulus: 1152921504590069537
