modulus: 1152921496016576513
n: 4096
rootOfUnityTable
[1 187788886326338 903570357171824847 638985113955749824 1118081598982667284 1142031553318154443 197447500139981346 73867128973919582 39889855454957630 418472655939378997 191099237190510278 164936697412067578 974082763093615778 1049768074312262152 542786896662418242 782525800355522165 479818745117548095 542535165408987299 526150348913229965 25693582979575614 326377281770664045 359493165938251665 297005817315828587 327642967150496844 857264073517324821 428057938572368089 483859759020374556 843129597796109281 955335002514674055 752062635783430391 1001098743838652340 1014925181246771271 1037778421158936313 670550917694178689 67179129445874415 1084159687124115506 895096497785968520 763689364838317384 279383023360888930 191345569938560979 916816483571661104 1100661593789683645 685706775420467873 567248119525353320 928747798880933971 1026244123886578718 552641537477879830 858815950488561096 663142327947992648 1045193351659767618 1010313288467236857 469517475625012749 933754896772912672 1087054443733868472 473616416128667419 101058802107754872 732995453483082044 747019106387425702 288392079941392389 317981297318297001 723571141166256094 790041466924812617 150356129045274727 173704127448548338 340582978051446973 148007434008432589 185994119957357098 84745556564468969 748894585290844087 152388191113577392 1144469387791895894 179083679689149778 265105505368884554 12415192049350445 78468916481479028 682928140527379812 83220939623911931 407990030722707235 620742564540560067 306654745533297537 151132405499394849 215159517363240166 1104345662641328971 111927820894648235 188455634915823686 659919223139509297 463217925840276736 593293588445211785 699408689313655839 503682185826492649 424997778811446355 937683266118317670 240501755912544245 664882636216424220 981436594412671699 895382809886380690 865406676406331864 987806309239109849 778694076095463164 514418911333472521 582679928141843675 205995757054750320 983970167156996985 69140113844639478 684968745682856599 829114054061719701 491908349624859935 303893989397741429 534957062536507976 438667784664684039 16915798672041964 1123189995205429841 826380390265923520 546556810608246900 874591157890774563 10929523638410458 1091745198851650188 973319854588692438 188713803605912568 913666987079836516 317015454233206708 349772764192390698 360793792512672847 797775097099993618 896040441172765844 214313063788537498 523815123726396748 1048811533192182578 1101814046078391233 22709657654692157 144589099391913022 530377992581937066 301861730151774007 1047747221911618742 224874976536631620 418023644637557533 871185192620817656 888979113391134743 873206588363728636 508387770790865037 594419323751580897 525148199370477034 969253993364729715 254487577871544633 1048744017055657235 61777980443856368 78669600125605809 39893258132637215 834301812340324770 881336416002395110 478202632979958361 941975665024772987 780160928273725235 36771368997696160 372924432900507649 632516189297469547 448853585712398349 856559875581629764 123016781589311573 423607104993893722 1002677128199875112 655315227226612687 834427124985757155 1149784059092725604 735864028599874497 466684044521803136 697779830015766159 297352921585657672 876827079880750256 85821865543680274 505138239727409931 492755748859132482 980834979546791340 803601141968881321 1031750252577071048 297347946075078256 421906618916201221 556799364653944599 637898124557210200 1131615022392062128 874202735166833685 144772698536600289 1068864080904893251 241171732281364341 704072852748885106 824305488511214459 6848858149268100 509527214179611824 1069663715555294622 275025272169031111 651543364655069278 222785767706716645 865239856132650791 337505056962927164 715217541348509755 37592484982181878 1135928470833479946 1137280388636919505 626523310449837516 835182882819911092 680438124879405067 1083667717706983535 832854436748219101 1139248469763775382 608911887301264151 184646697895396233 1033916022504478330 749858152249804684 1116568438910292572 1105236683423997864 930615475689431037 65620813127564142 529478901734144196 135502341285141186 763517750210795504 219819198769968929 35235846772055550 144630990117424339 225803679972632921 851163338208495819 53701722264313180 84055102218776627 842600288339976939 582012581592845368 140386148185463299 1097004921286525036 724238622974161587 854308701160422310 389752387132355197 208551934252793957 123980475846432623 739703256536888809 454746878646097690 960959635968676423 78650615988830316 735923242160782798 490320004885945720 427618026625981938 728370432790635057 1058631206419228811 959593945366162403 446301853550525589 1035663068218365877 501017191585758826 147159376307242257 1150127242199707236 36909453705934016 570799904138306899 248867704372429624 716146293641817318 265154751698562734 352568893352277333 364937794528214172 747447152841934592 234221096605735507 643974524153837160 285917409889340745 289719705811497848 14121148334585496 540966046804782463 310525081097135439 683047594589562133 61638756248232050 428789837696495354 793313125169833767 426795378548412934 875187410035076627 280675277502123765 271714580026894671 628991395856369845 583778768811753281 39430549443997292 21717960810143787 530654588663986691 680526981711217878 255797551230102148 567800345503033332 879100934153022786 238486857792000819 247842925044748976 449311274996478958 319302732521236558 395218909998603608 3770140652658094 686083095319055523 365468944157998919 381941406086076427 268902820883633440 592969964047973633 542987160429321863 909701476325154715 107064526422014807 702789450650629371 921741038679705571 899691627754784211 306773200975174251 1082392473163649525 1028396637127967648 900228634253163443 649698617990419964 118700727449611996 248942349479110983 373839052100879967 855881935273845026 649657136036162886 610955652102567559 222015787125934629 383348892584025908 1065202381970925311 199785440678703379 1003748027715176615 775708909599160232 408668582886853917 643629583410245570 1066121952060606960 263675657626314505 137792932628909383 1117548697487200869 402217343979833187 162736826840884365 1087019555311754054 292229086983080550 631260862078971490 472458497671130702 1048154289251569687 1131030347798397042 158155660223960256 66253170126682906 416783368784361751 834138392707505188 927939689107374793 1073558303488685684 496347820171280583 296925582602350310 34125423648499530 100111366320752999 566279389246199930 535323337949447617 774688315965540795 381712627114162588 585112239414486565 301267995458546406 462762371919375498 1143011148642748105 297559831696462755 1016029772771952112 331784861604122735 541865141833860052 939895229639642119 912885513376461535 810744534826386546 781432025973966139 173975556504365032 1130428222777601885 484084179586824533 265332854207177131 68146506598956562 406486979631011744 592005772904176883 267660439390419187 636054888826737396 469645721098103290 1051651967653764633 115959460345710398 278603317778292783 397081854862539948 164617868108487453 332639664412989952 1015292520329521191 1121295652591213975 740905028738829960 632319690424859201 271373744879827121 929178280431962947 1107297790914268265 457456399599722220 110424324024868865 466542209771599942 1106547849580021213 473151994540572066 309893345014763836 956211140087695808 226365272412249659 695978886371299253 471521667297473639 187310215487324876 720220005508404028 229504204728311610 253623477436568753 1089037087402311738 761315113354584850 389312273056816939 1133882938153576006 487275712736591743 941742357985273648 379175524289576025 231312002853465906 309709342545565178 639955280031580619 746251149705391478 405402568534968969 524441470987443316 797698872091864671 746955074763464870 106290637859569378 203163159011552609 964125043964044555 167231554456472210 24206277893591814 589871971547989172 1110206356117563945 250628284940284794 370225244000164188 648679876136228666 679590798420754253 956895175867451524 130953986738445742 350408951792307439 614029894624711658 357212694066975927 1036175730661945666 1076669608964847272 609457607098894083 935171057622930189 1126208582804164417 310637410613321853 1078519741290819354 690668845573921870 372125348965718783 1087402977738867791 581147567074579825 1023849218949609886 323553872692108212 893360950326552677 45371087099917298 252490540448518272 1029950276900529066 405066924359167756 986102162906888161 1000262479642774439 426180105591430805 1071474520900957019 246801325711566151 797475593251203156 688489585494980016 420426197109283629 757890955797802424 89980196029926516 676922176754965440 393594860443907465 1007593306912981983 502843823627165574 204280249029154943 1028848111389694239 495997585797618483 904904573808518362 800654013477452176 1078116947819967829 290929491617427244 255281386444477843 657212950864963921 546735768838481466 875551264902359762 133239774741356378 901396038551732705 858997215525586641 766217564824120408 291989918014077061 97181104446116870 939686100027422591 623507941431287696 711727546834015862 776888394001520754 256317300303245784 232614701296317602 145957098452521210 1121515226817057191 730302328490145005 551360988744688721 303909553800195729 497140368011914742 451221158017326949 347475748511368227 708576232777110887 119070927153935688 500731051548985216 764022457232041130 673696836790521415 218579930609578449 59429335284260867 810232441509002225 982167578444940685 249581963518996852 1057371301639573086 977847477128718891 835269945490196874 833052753576791172 156240023396105299 161630702552125362 620441048255545628 825810066135865891 827466918453958127 167798779459275250 727577117390380130 1147514287933958475 1000804253367581072 867107275321924600 622840549645367485 215528471960803279 411590958549782854 74671782654590490 669281381104490495 657737664297402918 506454769564807984 432759046739149499 682402490574262473 998186438063443081 117438573794501147 41053472735745096 1100430063099654676 746771945967525114 77819041511304686 560007515416288579 652112358691318326 692444037480416376 959710189179825644 107858186374220183 1096850104029808379 371003720129672456 922922152639006568 286847739531231093 1116400644955635684 696392352772317099 620984347742098686 563285216629738103 132817044142332976 558608280265173066 768739446273625194 453286146192398850 667662047735503489 693128725237824398 1095785535828870003 861329403296077809 415515204869353130 6612676883505586 1092955690010569614 102264044161052061 877292413496232925 1090128062677395737 774091702063598397 568277689150425206 442849006468077659 568713329579410013 487226981608273452 758265125446275775 682496823442464711 1111765611760603251 263900392760321556 204450764501868160 957570469616535306 48896373251229890 71331871102773607 310121546474765518 960988400668042171 1000074967998982062 1078932869845231633 1028865165011384125 1012872279478570098 622857454517806462 418549513794524495 463935056244800033 502210011736584478 300021772798511997 1108352376741646555 1122145966967916662 361346364616816035 128635027526347364 973431836659078965 343995997696495162 212506041027167965 483139781309570893 674751652545237254 609281986680496930 779482731007473905 238693302020757002 882455812738884350 767048576495289066 794874290288663996 184062011339165006 903674801630874405 205791151207002440 212813941665094127 943155684241471327 114571436542540579 541692515071977536 228126666593488213 245879125328236414 469301499525198904 600667257365225129 638079954074867004 96146478794660974 512896570999800414 623824131638886004 1083171935134930676 511129522320777708 270799828810351612 196858367527023764 635225882729743819 770213190909966399 893312163083461570 464950658596924442 228580326685378569 589850101136456849 1127712479184745222 392728773010005326 442915095896623589 382569878371434933 40109760876306345 59251675705729731 911700168992219677 310123457715368898 975141854923382045 1113078206342767129 596930071455623610 616695114848918330 111839956575856404 72278705432236470 615804379213899011 58901168141511262 817542511231941793 545319050782223240 1111258042821705451 320307655714550514 213583747558523013 729414940534498286 312439453767609171 610662778844363258 1050620872198374764 156067303228590873 579742599109048798 233022729773888346 733247211224379753 395616072793162026 529917256404285354 865643642134463714 1120623899527087998 242072061415151195 1152481237319659803 109384809345755540 535708176415451441 180781703273031584 295301962561088731 1129941547713321622 881336162409620250 20987495856143115 546954783233350519 59713353891089723 1032973662344039343 1147326024328567212 490719174630981746 1052562419176890106 1099704381556419832 336129562530277790 1086188851357418157 301705342116712824 435243878905727015 202408869123812202 469047963102870668 942511551860379759 393811842331388743 752632495788042619 237795718543784759 620411697123125625 665147713804752601 1058930937618861612 1067907553925429896 1077133808525517286 420210465354727875 1092529800325815377 356729229757668987 275586520401832133 998659214091783499 1022748581161922897 656000290861338788 240714166105186661 708404142717308276 188344049139481477 540226107786172210 697399979120603118 398297969292057433 37423407016216929 297195626932388419 160741976773560087 719040023326907498 728563586860832295 1122226101126089917 444101652544621907 744792207938250670 210850857775379148 34365270350512184 407773461596788509 1055852492439656858 60064541458625819 758397929173628003 209694066091112371 789296654921358799 914494774479294230 438423641395762516 884917164584965929 853074602587806435 236907833876446347 1058501074335817839 315954932616398391 811277073280495256 783544284763102118 222826615380759483 798283293151044798 211775197684244656 767037720331157166 472033486149770929 787562312981674412 247413428872901530 390626009770967779 802573364262300950 958726428883963660 1006169890918053727 570940813525100399 616395970241549284 610148715601802852 331610575870884381 1062356818181799548 766594211629054968 901198694105382866 277773671696122283 622995786472306250 252305031168142252 1035884138215310836 849498139518877524 961438878423676764 403879024010629743 733513852665128438 1028526663190887312 826686536051418607 570366001240913152 707935750174729985 68239291265509509 663547795936195692 1064408209302208987 135599115816890872 206420988610891087 422094345146579713 391699612435656426 101836476887641532 542800514281983514 346182973103214600 853080100503650498 228136156531593174 49006490897431146 363063519564989669 363565068843891551 369111844473584291 47299627403585883 684839694771120954 464766642626847972 978495328082692392 523162068777252285 905263694326732159 25430384309692779 228787033290665720 604160226909995282 38421436026510747 424209423277774384 143020545249643780 136976330488447454 522647269011773287 268393671165561849 353501813641510697 655191529658920423 1111417847142546042 763498220538361688 1094156465756229219 285083269437041020 803888736015948542 949696262349228706 382075534191899775 1020744543094580797 691896553927856184 874962680203545600 267028885643749364 315055125743036172 278561600041576991 723214730896981133 1137306330192749494 703024760698660644 679627208863746248 354238511124893294 958223861638412635 1065604317437807813 283707105401259646 1029194841774280198 568216975557172726 76054131635312529 267971447998460747 217928731002126900 363598098067532559 260745219780105949 57914780847696509 75684103862180042 568904384891578826 291048583271477552 1073313503552514274 145932656986540379 768484133218496240 216686161358739842 712031255484635629 519113579727992102 490569890475399778 303551966800934234 158419491575788969 450009459833089569 846956876567276397 905907244151761281 391383906857807169 617500747821936405 723193447492922020 248884339512119799 1133396904819005514 1043852262217289428 312100073725544287 513836838285623477 542919006281692473 669936765639894137 1124254719821603078 1036220888159330996 741064360486121031 859812548825593754 1127369547766567492 977442634873480809 827697851189696363 497477859115453058 827340683352654746 108847554239191315 270398219154961906 1132472916863412974 844529756202735598 685047848781271534 568022941607793094 440539782634974881 61344249785592524 319216287972987352 444304940988281168 1064956284987732760 1002566003242208883 365155442056212073 242425057013764190 716448503225162939 208064673540185707 34155355020374746 697174107754504297 91363680400803409 9432262302047586 355191379664378745 488647874974216904 226126664978696595 529970404919843622 784054721832083917 189011271437222413 451625285177551861 938980524390426899 1110982152581881949 228149897427676435 431027955973827306 329063769897066336 522838771297391806 61679378871623909 725969304134816335 916482169091057612 703327296505569890 1026247689029532853 383794242135426133 778400524041939621 396682834612291617 660259603848776223 1135305186265029303 577244613933809067 222876411667733815 189423394014458068 885761103538495236 396671605524343877 19342566544059881 223657437032259833 335238462597027578 720906167883780067 292102408366811467 552276591215047274 988264402462457990 55048240144370904 795092880158041088 1075405996588929371 270232209776591396 220542926118549468 82515617149294472 905051686763945647 787904227160367532 1123520647494043307 326088087310514943 673341520273360050 911702133441953562 155680480120830199 413538940409891160 701453205500634641 626572593391277381 654887102452763369 490161214198044785 513907329096575259 410916566937017939 111234792712937352 350481086297647501 213025240243864869 455821130358013690 212586271675973197 99144336265876238 903324574665570989 929731274846682844 597691929086098928 657437210595221801 1025916111349077402 418646790910484256 447344335044654208 1028562362017608406 413480012415626887 512121040255776458 171949094917740707 138625492262863087 990123716529593994 42094533197041363 1064357385379505042 243627646783441372 216116519628949770 1030432362473438051 137751736377503646 947414566433033209 758761364001334741 554942078031373797 1033838153332173 408419266550195003 9158074465571668 1027709120030492292 362840189296509477 89378823229976288 122454231048419441 318140526581437238 585617562752444985 86112726918592917 531863935482527994 783837947924064858 631429262356002846 463847681235693335 330525923293040616 855520943359975397 1132858425715085380 695649473993552869 1007300769465572123 289143082211783635 71251504967352737 284216950565619382 756247556330334749 657639926950990279 1046214816308967282 75343640061590025 868049688007132371 690506247459322796 261225308231077058 104824247593104954 91364896199267752 317440412901679561 1095242862589039451 315896871581779461 457661709979789875 338352426975208545 118211891547085197 903144079122467042 182706713672347028 786780995352541547 53368540225008407 193528794079079705 371619459369139268 622224942950837913 680200927048934560 1075715576011653301 852724566086901778 882635915590624137 62988883110763762 135449192684259859 272909246446548520 843702750912950698 913722515237025446 279840564975210074 1108422238895238195 854825037384334694 273349304905854024 120219560484341483 867419719976996529 263914471461090060 374754992511164364 302731692338251592 912572598584614648 981744273372285554 41596422558348951 426939905590055275 453687502789965313 887436348633356863 572407632894425678 112743819419015064 288129777362680358 21384121944030199 458000677900752806 20108406859487714 1049416156532846065 463959975406737469 212990146653940821 655399760908975302 1009093855391333961 745622618700022116 653489983094059520 411537754340323953 803453883364311982 163525181606785446 486058251782983826 632044713091670806 1009624487453140558 335367620328678419 510225570970012032 819957611555654403 255496652570056365 287691470589433897 588766965991085913 740140141607184880 519619061757758919 211686853592488243 232008391178230284 552044278390760730 252027980575828345 539354066658994656 821698746024066102 266840347252942363 113866476019741737 504880673421804513 726354173121274083 187061719810349626 792443251803089366 246507187943738726 1100133669617331359 721490639883663195 159672093555241620 866186956603632902 789114853159644184 490331563203076384 278457401778531207 804001836341130991 127811303990238464 400721564188396137 614068718680067026 240364962406312299 99932079520514730 1012013689634356718 737571031990259972 1092125782021466858 555318688506989103 526836646876279702 990909094966696562 1067671483416247580 535481930170510284 169775888898372818 235002634199267679 208962449653590562 10680171163652492 509729467636824388 444979260608808373 814421119843259998 896873284917108371 898128638808279795 802581192745930891 60296086834895641 777444776042697672 603407095569412329 813911291510745738 101076022933454577 27254150563290061 3550324287809016 420875689596541756 171734381441340745 964117205053133982 128886960262639865 106589683368040539 531102052505275165 936177104985756247 280051446330094704 141363628588914102 289763933193054353 124639231782891705 969945455812876464 237334484296303644 1068985629248327898 130786127355071857 1035998650525610345 86782323461526849 946053663540910901 603305479112531903 428694206875641874 861795187403875284 141654753100468812 361295041589055946 514404763400251519 530661534257117519 250035479806783613 1116907895404793144 312849269126290843 565626759635138604 504889474170354680 274567140201047999 383066192008175220 522672883262784606 182641734000509643 1048918290078543166 12200084252774460 218746162687769548 191775313011095844 50689043361754627 63198703266801604 282677028973900682 788064699110170476 1111677140996229743 449195184653144714 313527397786346445 786182119451247505 1138332693394018619 155185730673255480 913359280689749967 51321523265080062 306454988799730746 279018633352206267 731674189186587445 951423374837678357 1121518297407896642 1052012204498672312 683342032228485834 745524239101350599 726361569624587653 442796110271762655 1145007845728027250 62442533716315137 574806250061798004 803323741279572272 227363448941986328 861949430548356069 31337839997613602 198755723833261021 501916499264125896 559024952337839424 336775518008673074 96449708054012102 962913257883765620 659575681447349408 1002513058137608626 566262880286209221 706220255574372523 1013600821385863751 892886089741916135 1050548269682952323 1052658861513531286 622068346214921968 959611249124934756 1105200682768711874 77370835547408287 1059731408008224308 951773959990646173 80834884465246374 1016640118092461420 117477081189880817 409208102581126237 953619215649648740 569239010763073609 1137842806507393014 1121303467588115127 453869005676196262 640977335231442979 1070877414947539434 234390819403201268 1070256354487941114 527792241664618058 485370079775128593 676459173824292484 744485705808482119 696776997105197339 1042853879263718597 64530712615494702 87217995168941199 564374122238166161 827768538332031545 1111988632974274021 213174577228474795 524984098605604446 888932261935625057 1051231737384141470 1026848827040280945 220369018898606439 260312178340267713 1134509992089433874 775913391938254498 985650980398994843 3036567839473522 1144481759515111208 1074584119384571204 772839986905667625 272670511276303283 819078264257944364 497878107177021758 355425001975001594 993960377544611635 187683340704005834 1093881125463458207 976931374965260277 290181857912493975 662847459235505853 116100516538528721 491805197482625456 504157581037164642 222916664135799497 257262637171286726 334657108301534951 495166316556474447 1116089304246936140 255102343112130079 135188216476131402 118945572158809653 176464840289608450 762529388357460709 753101838909187807 41418787964177256 358407893985289110 864049848191997791 1053180737632478744 781194983927814436 667096808951420293 917586934972839262 422709903775908587 1128747973383072973 512827552429923984 213054653981513216 257915082528393704 155561317973107601 163645431066432158 120909681564040427 56786549815241272 65726077229304410 1121639951416935537 134272928402683335 1152232666284958923 327351747650915280 870656045186202631 420127991590363472 113462448427284457 153020196948852026 356023526514386462 372517445705007970 918759533864822546 402059618201591310 780588249830669083 68105902332121127 522529224120318959 103553004220858981 285633600792150489 830925333572330509 76763008166404537 1067640201329548171 112546157809373585 708855058268492626 80377607178596621 56163601190987298 393870096104755011 952447767787731264 1142348609789979486 1089457051817555481 387571640180684143 927368438844539822 641323084009408683 153207752737144532 551728046419141901 936220190497557739 564711321396151016 811388841393688613 551291035565250759 97326498986373184 403223632317775 470602889237238521 48610745167014170 1097788529890983017 622325106871009436 297279360283447450 507609195159824341 598628478823277518 281087723883258898 1035357623197172013 812486535353818927 1145263448595958056 123049147770459024 939889700481105542 55641420700366357 345620083968081092 255574778940264355 571422514787663638 960500914594856608 30399728711242507 950866921325730150 465805358411215814 932449791697968635 534692498068873765 867583024695848332 172928207146056845 753994591188507899 888477238965539882 67034819025213386 970177354530307816 250823314537905128 672990447004083611 1126199411182060429 1037821665915117760 142647977949895507 809534007230400188 371959595064731713 326219664950133500 575446821149540909 910430501654482490 468931127328435934 269976790455800831 928544591472087853 676749712610210163 137141837424280942 702474463096034127 268142308942907302 700056432475012026 83435717533664582 989482157978808229 834221087934438723 405770603485108530 544017180478864084 796357520678343100 878300595220158049 558525661846347908 731751948696876421 857665441162633502 822619961846617089 778006616500851961 20469254039993735 623547189443231967 686436826900753371 304870985436675777 365799782633379454 399999779697264201 672765526777434212 558401501888172243 716745953043703258 852340818865146945 399705519505288360 986933471690966522 298637913433519754 29014440549771997 300134902073368309 77390615625761970 876899570966288644 1080767623210875860 822236827697178816 587950544627670480 508849086856666795 581889747208591125 215955836798362088 841474707117953534 1094472617836294991 1045093456369351377 518547672539946755 407377779106348672 800767479798077083 961104105256986246 176661580617247313 244114562415425327 1126092683076230483 535551345983742129 203495746376441274 1150618928128386299 993208681578196633 522523641624327360 1014800782665264869 1109578330365408410 719447351210057623 179292496183821414 826393043192915668 448759841902300806 636844958136256448 770225159966690060 678879543088320096 50466175305131560 302497116678836838 1033284205295605005 685834289066976264 176693536122174478 1060809440817323022 326196340567653318 832147131583486527 1054362277059028370 962926347574266602 184993729315399590 556550528115629650 210883702349660676 936033940487866704 1092686983368633731 785710200936276024 108884018226247477 992153112377401170 637551150337892116 307263708175561382 460606587123210773 448426192099569331 662771490864987688 1119727154771416844 29535137368432251 1068925983505625169 193184955028095663 79406428159603867 601047601002130132 1048337157927981591 269341822802112771 489756929586644565 480945686436608240 70879185267720084 599302249512321899 280926567952881500 83464832428763909 610543144737147129 573157398539500189 273801712255858690 650201829160035571 769490146749948562 1136653864589226679 475165037855724890 741679638785470336 147664116930877640 857435483218746144 626923191775984435 240417780046475484 218681235672648032 526399946025222636 598104636852556188 819019661869595281 561770400338283516 377101677942164471 34257811411573554 375105480039725462 598432567260905616 1126057896990224221 346013512702705727 950368747989348325 23510235730449781 600748309446838235 1149938214708422018 825018605840469360 420396586005463793 1118777322832651955 796733774197715740 654887580425234046 839207101785076019 841482085731680492 316020279970432987 245846331433328677 505471391539614129 122582041087289975 530619429987229741 115722208476101327 1066017081517405189 123047019640440479 600560164898265744 1009209039005446075 567613199803809573 649563567232044558 51807348717670710 734466700793187841 139287436834031060 649176685778929480 341401186114379992 800444573274503908 562114445122044718 769711554005077245 515835332950266181 799020156516593916 421140532326365498 622246089138196208 208333957970886485 208048061086064030 451575449162208789 51023525955573892 714193348814401530 765018504910870486 490570729935546796 222716198082871545 247811515046823675 1080252348666688611 857419545292337634 259676765730087597 555561762204361514 477112919833644430 902800934870341279 580930124444970949 606548732296957296 1056729133629707601 617108960635811011 532478751622162938 780442221304968083 659167467861170096 384221365756028627 75163751542375560 157890903074212236 95507388907118312 197265248339396522 307899099437100149 80321698133740376 623676505460115187 1027553446254462118 868749378493648842 961937615773903437 181620044256933847 51289287191909818 837550112609420053 798824283355004895 25576038655581284 633310754035847113 202056741069077098 1110781080529792478 883735091201155393 555943883226565870 1064519382775075901 839393146553980929 144649986910754466 635967875747323000 970028918974092888 973065079872444664 339201280543762353 636751172999073303 858032935711703877 420284441842555119 678175770374172250 462615831526783304 711360817953963383 832474833544976444 9060720076823756 1075467596624104972 312758931327512009 908814810764671155 404135354098398676 617438475180854904 1107524954552072196 1047772321554806075 743038235450769338 955301613823308846 845866614091770820 921931441227806728 429527915101354931 664030220128812708 172625698762781489 477092531662918896 627192403230966495 1044491298121044147 914364277583505509 980549709750669926 490762775089608928 619518441740518125 682868612234532466 933841525260938310 578259753352859340 43368322620353340 841605010128052130 626774221226456406 721353622576618352 819734514044205358 893379051888254539 722484323954418497 9261522581935062 43598371005523433 80616331501767160 949927227839988874 1082821399482189928 789327424122417614 527888536204584693 260780797010424334 765839620144627663 864538392251339362 962846966417671461 975130193182034327 1094814146304663885 515874435777364712 1045271305448260199 781400130604953788 151228366679392086 547522385299286506 711477203671476672 777976315507071724 480556028916777863 321312032622272346 337686025314869337 565669878812800095 146614176030739816 115478295560644867 543200992578526108 849499932928503206 712912325967755609 970055557228391488 855699272336487487 962388273048577021 652743121537297113 749786702675899901 248305932173512952 1051844647158517820 464211245403068151 709316892189653413 1098430632432962979 1149844158276039626 748335056312152656 817285209495484992 766580016543137007 236942105871678617 199029383383637790 762209186909667269 168624694512764038 731904782350923507 989273029948814375 931656499515795414 568730680688889891 765022970381251349 308018901771698369 249018794355148858 540206731623793939 876724030739273490 1102725514416641866 643842102851745304 845030916286375324 654182656886286195 558145877824622935 271560118573850888 332687945422332553 1104657837253224010 191904463762682865 936015048030255392 1107702561338599787 1129893758617893430 964683356626724246 827136857750536349 785359215854770333 460054428684602329 1067847556310791788 997458244026924798 534314191342007495 741491166919226983 563471680254611689 1149823125407287196 136971897036595920 413223075547155725 81361560286147382 1041197474951059473 996036407136084 393395593863610717 925504318199004083 1116123324596685655 878666477821585499 805124686673138989 1142089854961197857 289266442195995611 76625860338505206 886143580779983054 1069802633225246396 846159924186071495 1011913233274454703 730751196548818271 644873987512887368 887407311541891739 551941630765340954 270475281314457709 991434202019317231 897364262955167530 167724045349795501 434434057475688276 145070941308577883 993050586550787368 859729911806491689 203710222107045830 113341991241299400 380753388243693291 279248822301391182 759441003873458815 554001999547015746 996675853200782297 860309596493225687 856905448197578171 99746322818504849 532439910686271311 1045583984454236390 736330183145699714 58090803589036000 626196063453778697 821025432037290516 1144854621671636509 452273955854032966 92570739950753181 509788233431418742 1127085816414031898 380813553906100666 629256581771223393 65547874216882454 1141016897349354316 297321379908859639 609479921616026129 936046734420454152 658310091691599503 855302997846314274 680442301956266469 1062777596466748125 135850387113676902 1085901049251552156 876360023188347978 696902574082156051 1147340475307306389 11222921790277814 447829057257840693 662836856307959493 901185107612695461 434731221689870232 1018825132913118849 148266895434987490 346462692622424777 553818517354919773 300576498417646525 910679149016947858 1025686970652589796 1089781045299555934 308264539049222216 334289695606829938 176160538600973604 700464199901437478 145595958318651601 1135842845454114123 872062930259895013 188044421600325154 768444536306994738 810210198785714704 665220451241777174 680466746129732352 944568659185128678 592348657319636595 1035627979817130618 1022475630071701326 259652762269359714 279917701775258043 987168150351562800 1029978841663922497 957410128751564106 1041570966078280144 1038968086332799389 101281245076593903 313537238770852969 1091492878105856755 478634810194226190 693049775695965924 789681397956622838 1006314238265540174 6682974481839098 512919181564284192 530349264609024429 61602026428862798 455860163880737748 904861448202581773 919230244672036975 723545858938146149 505838714103028791 57735909260447325 183044472041968128 59509280520201316 247459633218780355 782241493446831788 796200766044185137 994166505667765552 1124376970963843632 45833434672724578 612641699450848231 472052133668300332 617223188380956275 573281204345802417 891767681760735122 255486988405311281 189450406209807574 116894277555467185 58830659178879013 973801239202804787 62111035205366351 821851785042461297 436643176063400501 918807780208752829 7552160564639474 1117990863086530975 1146597331935693346 53438870069757017 749118747853979195 606197776088853076 835016629369328613 250255410408939652 134827374415139741 644205795612165608 615813231946310002 564319298189253889 871827894926925852 972530612672216978 247087395338307134 1098378366487489207 279360737418140080 350196993105541891 326331465369462120 641783360065761768 276550563150606509 1030669275110040045 322816525566847215 297435851941048028 43079925805711349 1056943891599326738 260389913490191531 920139732499646509 394493882177414845 310116038312519332 786556475914215529 905589747005839119 886262579128783421 1063578101862219115 348920024638527813 866410388865405725 939990039354645358 124056348221008488 776806781484779064 998993608600580179 53093111598193851 697885682196772154 589480592380870325 210070961224976223 838045214407649293 674887218769099716 1143711165731625904 868108376523733055 389671924105660265 716506013001922459 462907030982123370 680114080772589961 964486598375757843 596614325314850482 687553584405151330 748621871279325848 481164972715342351 1050639114726567731 120379008733027325 598394580193145604 666090795712208407 440424806155736993 139643293902350373 1060540170011013863 284659863829571767 1049399556524609518 791327984132701391 362986435292998773 488160091542929499 328027995524741359 733415440772877656 955230243435649466 674766480727303376 1143492758472213113 679832170091299666 154512125738433430 53956903329634182 105770675753754893 178537142893661753 456701660245766636 924631428195252645 116041215341310935 913311789248329095 618841615436658755 688029664138489709 841140051162437313 976228971931191454 182553553630618646 674230801027023760 16239552180126776 1126879843923520343 873548781929249145 1136391390861949695 623335842401872790 218750896033245655 629657143840543834 705892936989968041 1129636463979466943 652845340937967403 847112562708524972 230279632824547700 1093605875839797074 353945022897259665 1001050036256461429 54091029013402543 296690030436192222 920326376401555817 388266792895108183 730088252541261777 421108268033335006 1011408686010441879 537971412846450148 781465117403593968 1070947088562661030 39279784957719023 151283263860452360 267516396786220085 857492124390522127 862370765420240646 387122507797640622 522143482885094055 1112402832421423332 46961085539793769 707653442547853469 688081186133840500 979919902926784687 691660338327834572 436331924152822388 1151615001088539266 398083639142614047 1047981256756103218 759659631656435272 334378531744822255 473081819723157922 1077114633026831984 728645584318047103 587817621261696069 1003253397340111279 146985308315111199 125111999854450496 1044067220732589879 264222546540837159 949790564143771384 1058116216620274643 654922115237810832 634196636474869366 688991309785650301 26736096967834621 403895370797676469 68955138410933640 671560570340161373 376490691636932540 290078744451424056 566942017871345347 1094451353601165963 742620303253933136 353750806795166183 1081174587653512542 867739012656324422 900968006101293229 191732164709822507 416827370375957383 780777022706669146 675466412540784464 531355262264673611 934669854399037060 1007942478191278441 213310212787510564 84980744651315298 408935660786122103 973727323206450879 913762668470712781 967502100690611951 120842642148451570 506675118532243159 66994255596920321 364361379115428944 268856668063922001 562165290273375928 466220942354024721 291390336090033435 1099609669647129724 193256667389626736 989606746346243415 917722820288214092 324038812610257089 925550035143111033 1126306443050386095 945126073170802347 116984497795495893 226402429328890349 974280050150304085 1062214593347160021 577847880283859394 761895877514405995 670688237286878894 1024828469461249292 478039157609609352 140364295095842858 570720152762487612 1088157460616511820 415810235969574651 632328849367619691 893040312964064802 586933124251033300 33963742601055599 1086434624740818761 573141288183726659 509790623195100942 968812590666581448 757808254042688205 705222172271634695 969430846040057032 326473385492971380 912419289247179182 242406974159992809 592344953800311186 809209593968600474 635751747142235852 1138142083061167479 326598648906405664 69263377300723401 702316359527824798 412512130944045228 1090305196203951701 585354257621090930 189990479610339252 38404880843637123 1071952776713471245 338945564245454464 49736614713637195 740193890522783057 989519846580140316 1045098653049397614 893732153411615135 57331298093719237 833379640258491350 644443886881426455 301862224525810213 1039041198096620252 862709695255782284 592327896411830801 48326077616419191 758792567737468371 564280257572691724 517153700006677473 836281424136533788 972525807135180575 930999953882310747 310896889124966329 891696001667059028 650425001768559027 1018763322762205892 600251550899454469 362696749883836627 628044098877793307 65915676914487764 140686726130905746 267907414824755056 230376199518225059 17355153895532694 823346448491690854 1097435919068897866 628910873704246874 287802029555438827 948888401435471942 1125372902015952582 184298721251620676 396200837928980032 88804011982565099 229341826502488923 56726859990807481 296401516575866196 106843671441187660 274357199067379895 446862248959050626 1116770741599324334 277962541537593040 943110706828028960 439665937859706272 1109836664192563552 189913027796809960 44118947285720158 911679894654726087 976817092301861832 1071801785062887573 917404810156707261 31869962094894882 61298355596495609 559476633990355941 730412061032588641 720147934933090308 600495800159215255 498194406527918090 932197702524479866 593397032150648797 128696782438261792 1009890681352038098 130620717410895416 864812174249646247 732712164370811965 967516807970772259 942103035418884064 581785156919263788 287921751512953728 712357162308080685 339618140485647492 1002585355448462183 69681925691598938 446998757525504597 123113891786516959 87388751258475535 982350543311295471 639894080987781658 390635339429457830 268714817122135933 363687263922853957 555549568510734143 509088093914619704 1120537713935209026 1002561314190481762 530804241285784986 822011878118422872 695197727335948758 712834581444206415 607600648279049957 117172921896585224 864094319481513280 1058527045593796734 1116376633739746891 930458109302939232 1004473564097525546 994523110927229617 452923049184805106 1132077615135347289 217453360505274778 709765433753622998 171106952025946685 333258444583095590 973696444808742633 28615009336722751 508617371043510166 747174267705935059 740239258385365411 406414133566286051 633380151839061984 579017369665851686 101532682129112971 408750841446299623 483640667690049401 475419029067969439 487016997777513343 125976164379142511 301113357709980623 639293306865433955 221099330426528409 43705360121363410 937187901237847197 154289288956450093 687919683465019123 668794781301638078 829297920862095646 338727919143445797 900864794181070278 16902837356785180 218144942375124195 619163745356961111 380523331163774283 470633159056575586 468006661387109292 461151665766472710 98841841154934838 219667399802946584 714178624640104898 1025027000054583509 646245701285086582 842959234765227963 72626040793281131 309825159720576126 338875171951047897 364647584478160880 374093914663213766 941400004316363354 228452297418321229 950895651107399010 515033629960780441 348831771497833923 975698559318990147 988974182899094439 863152341242476601 558935650382620753 943831666490614568 727873003847981291 1108911303398012499 369954216694820856 1107094910946480922 166888205241214506 901834606296646704 346598799393078384 729923378728075059 246331757039919834 158588189829292828 254509355468247941 437404112805702794 74030106755745020 178865181528690393 169610735489902965 932415802607593880 1029837218348776023 779619109687009004 710658956635201678 284331079837581524 448768362650919192 441542760573328706 1127344265239972987 194503712937688224 557380279058419953 805894225765617005 997484041574665870 1119562606865040348 168423720201187706 648189445723877128 196837750314613974 635839219048516702 789740150079978130 917930964623096422 10035493593094619 1043475061226142299 1003260478553980684 200737494598682109 326312788118638101 1056360754448499896 803297988198678716 757160398327849996 1121636400952811882 373785000404811059 1107923667989031066 1126177319170891799 683896153279417282 973920852756316305 742687571612576886 966158526311211793 74664245483404105 220898051147071913 441621002570425345 521713967741287734 291576281057163100 889838284556055827 473823413406157584 1128404193526469713 1122040693253259170 263867493146550375 3927299315149392 519640910519294289 306237720396383175 500154258167020590 731584875526338982 704616239131805480 758240087744769625 778665442657692339 971561745534480184 205781951881366165 753026014824839916 698397032922156498 1146401488598205716 70540633437693873 460949963247049145 412623430859756116 322263209364529845 566593725344921167 631010439559249828 487778236948997633 607121192709765033 218284103931616941 410683923562690564 719142659569556573 835656015863036461 513159594756696198 653862239154780883 219296810310887235 870177386225417287 750341849254144251 51625396265975030 150057465424462272 1037650846610966271 319309726889875385 480450707205520231 1103145673318494856 478176428293271594 28676444517056252 93955084153629131 354011534328352476 773383523024763638 732987223488586325 971318834452261094 118758520759137209 423835956909472457 107881717533953145 1084511629774845569 865453240156042375 390835548949745979 9879534609112028 574839976870175756 671293482690189951 876465402636350115 697874157501733475 126445370626458325 137202789005042424 735837667779213386 1118741123640809788 905808158741589233 883285330607136554 661161498194376490 26579139841659242 247497106584244917 1038302481135210272 999935398646735201 332205674360589591 816032161851671025 925811118029767109 318748665368900049 672445681919812121 695326219557336998 627486687875401046 21141851155555410 135512250014079041 695751264576694070 675198843996850991 529235590677645155 1076443928493194002 693339193485715543 986340443548079074 285738751908312048 1078506760047813704 256932112632904566 1000374594080868020 271010705855737928 444016357607134707 798685859152925555 867131263818681248 848953126100661511 70322493603949174 781021419428463936 1075386658893197555 267344757152269292 166216032164219929 1114632341477222588 288272179896116424 445526458442367848 1071758302831827367 249173701954557461 448592370998687031 650531335974951418 1134037529719335442 450137719144876361 94726581836394416 152881725972904678 584166815359561619 442658907911312719 150146603376312673 919237864371522725 420929476248264409 373518359951275608 678076086637525498 585848922285414113 867609036261084226 1130850909535523341 863745007047528838 265558109663665484 112133244657001719 773839282893634064 1056515553281680192 1029057282684615775 614880811253743918 68187392694391989 168567949259767890 34558116296261472 273500747680310133 192239318814511412 764218379635195299 208432661371715510 771782254181593696 175830298452651461 1133651519753754089 18351405682170470 320497157206574276 594680925729989909 687553925142099179 30389262734168790 232737303512581703 918477439417188428 1041871109927015087 575323643932934350 139562092511473391 910607667299813412 101059695848234816 956450939739969866 1017548224212025273 323531890839045820 596264562044792680 364213949190163992 80439376234423002 152931499657780996 2129345961066007 769141819082250553 478378666375825288 311410390874590550 963057717672851017 543003838616161563 504086696135118594 870869977178056466 622193620636011403 962944028504233845 1052964411270333929 85128375875415579 215379699117748249 285521850229327480 1118501381905215432 904480717467489135 907244131916003458 26428057735137340 514246685529048046 1066077304330727110 669432690705782942 470635409389776823 686163208051385654 994375351154639572 420058999467384437 100425319796410157 62565652604280770 1001658761913812688 469406807661129994 566970064899577529 526408041844364309 497751324437220074 1097179486510836295 650916637072751153 1060236216598833196 134633449987509985 726056029126878535 345399758287479804 1047084774379230599 322669515927665736 1107543581825690954 663040547034826045 370949286207167659 754241619400270118 1052547612617279203 427712394017474666 252809389400466942 373419205184896117 923559623432956062 353767754647476096 3781670351261813 177288750295467225 116141191475894094 651766307224840358 346152096216417821 675331377511282040 377865854620252612 211847041940033510 396243078622468964 679613311563724063 300848932979965604 634069706981030987 285581727209498656 1121749730714915554 1064240036577985621 444117187685454294 480363745620436409 109905370034839694 922080201123519792 946827581657162672 478228924611613998 51028264397271994 235417570308495816 587343745671788897 978985888621002139 625650119267341277 43620748455595066 761590321263641580 847658080811647993 968696266031761104 534407878091432683 452305763793052018 520386882459359853 305469554224399138 922285515501798719 292206612697293759 1042235764900119123 461545409291267612 788239844743725589 697665962168940447 1143411581265071489 1088518346385448335 145990913138975391 793915061456294292 634712884138223875 549737096239319577 273449127676470912 728758262635814441 1027633481619738120 229524800304231875 482637147715582143 749167006846994399 541338207042575716 820393810550500466 270539400244414482 998155509975524573 418048678142152692 56996863478589818 173833821621144816 7564775735455478 96592489346114576 193342442158125997 334623545603170 489388591196626727 154972135370810613 270149861137593171 117085219538746309 901532080894790687 453313538772928989 1119735078728373178 226492580198972926 7901417404111637 787443938890926102 109017971878878334 235202832756578252 398886470644573549 241755869929850155 359238947300439542 289772599301304208 1106041212574093507 773012565882623295 175635718470771004 348379423805427997 604727192388238600 937828543671636236 172256439926103799 489112249134881094 611795756567001336 103570038198778191 838059436830349851 928756405659099431 499690656671917578 274602526627044938 117922740633997540 511110457707352532 32891255518913745 426596105995541095 352170958415275603 955509394199940758 593528935492582064 1022120778999289739 834571173597794037 929297349228676207 150642868559316758 284959817361716641 908235011902973838 523536714296986986 857696054400215260 561230042861356909 746444726492449565 541793932013662024 744216450638911815 696433232829629740 556305514978770099 876011613367284974 381653123340843132 1058747858619791345 718904152209160519 73117025922551132 473972941600650142 60064726223037391 656674975097117130 926718247991568051 418679615152683497 448450380384771413 899531231289123533 5636100183693198 24263414344975787 59835495433849872 534808225098240641 243827464618255813 48958499428076114 979844832066794256 491564735473965627 165790782365113056 909081828446563622 602986963652614343 908716640916700250 545181764674885699 9131895000832368 579164323994120654 455681718262111523 999888188407544538 3659039835572790 916824375100957552 953507002541229850 726540683715099187 1099105847680437945 625128373919769322 826816389193611558 601038040702202101 336565248440350947 465310817182695737 499711167746809147 192702668091519419 863759717584745770 281325043087019721 214458066116731472 566010453611125601 555396573598298223 531922319324277282 720555527336213248 270978559253972594 515129890454892715 972201844593390106 2225200585911856 484739324867812123 1116593594314420377 410175567916251509 504430957221645018 356905426836917119 563096776464767851 281219027657977247 548078906464210248 530638632545629416 410793539913025543 225541666842256 1078741199422858797 1005971333090814864 643458746991472800 263369300171993232 31747865056366767 779599483737061746 827277387842365043 313300158748247804 699138131659750154 947001353128231880 65962123617781933 499279418434055418 476540969400508516 478684814139503302 574642178004187424 213991173870675573 309501969026095783 1109064320160928254 40748854742801170 713357678919909982 548145783705627888 863402844714147658 604763566293268494 328008452365533236 588901475042778261 895470077993137272 374303090987856068 397537229221854499 614944081964606416 1103997291484202812 577734858131965918 838684181049134943 761559753061031116 506261114433909664 416525228846586485 124735553888585038 1050140088212330039 94606118667510108 391135099317891605 507929184787683806 441318160993316197 13590245616821865 30915031682991560 614374481394385593 868523197863169992 274462526921411478 270616911950132534 266767129231192596 885312009036057848 71226699114353213 960357484040796602 335755135907313611 120625735372660653 102761094942275161 52457440307814665 568123421330656453 536923103008454914 350551830612813392 706015463014845768 423468857449127309 22902014578503563 676956994775776846 210138119857301129 145736479445601791 152400578422671433 763118510252637187 434202505742873804 485432675130016194 176413779016452226 477494305806596009 429110369312683364 166279058345264071 1089183066820130638 356211086348073649 3805196422378653 910294530400941586 1151528164513779338 61052541495511248 833811237746918261 1061984686940435053 600118868057573613 713734147336864561 1133446163082163037 9923520818403169 1053506685548453048 583433738505310206 241900745525387078 704595621997477934 880909706630792646 380693287042111825 24996331157127032 631499115329308642 1137189156506781917 896113266826725124 262797403261271615 528261846744035062 331099630055879924 1069058004477527318 777370125224424451 714836467192520841 830659914742264225 1113755980422204803 1089714784081940664 1021647531736262430 1033285003947422306 247713180758257390 622222162701423697 932227292225531260 115593372271096196 298532194912567567 115047796504457251 549222091932726569 875463070062947655 261735279324868809 665981089310824101 464071722580373019 52069311788838198 956163311447686418 518666643927454972 1065712584110983931 729343444672929449 370701588055627700 260296012500391260 909723424991925052 420399316695995083 570037579329106302 922042409884741221 447945445530781516 984748878862639275 105167267336889740 682513249024403508 12913473899730572 838395692415289496 824821484897245318 295597695556825264 1071242523408810460 96952398518214383 124676170357860017 973657117923272963 641626879537648763 635325895310504522 572455596978129516 182051239587750705 616714162603079798 373720474146029643 20077123065824969 951993534275628214 744467950747461053 439248845783016255 722254051224794633 20681021154050459 370950943769271935 493716888727307293 859993454625578725 12077365750549290 1135345834429866427 287274443485565836 729170432375145819 781700001012287904 403444062746090974 140463092012062607 712435157592460167 387520458870641930 11867179997666635 215885353158960943 505041889162381457 403042623150069515 244586410459989304 866542127746751939 932719999026464222 437568375921621031 1061846695363533061 902881403859661800 993748469799609468 1127816441587534867 475217334198834176 585821267077454579 389507620591721410 1116576070159863905 1135827729906112434 252100728671305157 450282603122630424 484473478587537689 1101244926031679079 544357981379124672 952469939572952305 501129021547708172 830308793234897440 891925132385940041 553298241320161021 584065017226922787 845397223980292770 517141534592660126 1122083179990728470 838246021160459491 797790296264639389 260827159079275701 111241259832342088 803259569832542130 258286731319030628 554572167765125549 987768740130032896 89553410488445487 497145262860536968 1064271385924541560 519591715251489635 788133525903833536 978924718163536824 1006226759283970306 1029612101118348953 409149918758295996 737701215339963343 170344696741055319 756926593337095899 80200043834903166 839037656708150320 890129007233464684 853183907664256241 292173790213857966 1002298737176992745 951363933228062795 201220199646436441 1073255583270414756 346482596984627606 38105408370853912 1066123809744297079 253977650196237335 86461404279211656 342433746890437764 25945486728090975 480384492157726527 555615122300478499 380405752228369876 216911411463419109 226454998535591409 37665498048930969 184104407814472649 592004695811133708 287557525115288477 234494047469950977 952423667095424652 98816845515693771 806838290024131959 70600457977293902 214151910104195452 1013828773246056265 244151899749071234 792480200331690369 955217320094090455 829180766492977047 151423334195921343 1148550121763309615 440729417499507934 234251716303354936 64673811359276457 434042629864621485 803141613498436324 413413914271834296 484641808792193731 771808761795897943 821813223323288850 18448394001348738 833225519664722544 497155813030084357 111690985128044132 158463753740433773 86584021413736827 804044272087227942 220115092880771378 323263254187987638 1134490665770962780 105248044932704123 221069113395140544 160896813555199964 1059638714245191408 461553062991380800 96823123271156704 608137953250909503 362665202144995905 424140214771773881 795296699092192389 1026876992373297510 1134103750629797595 640394878279138059 150328923607751757 521652289262399511 18477745932828017 406887092471527146 899880165896100558 206731986593182415 328162841192256317 664435210125508997 288466174918336073 429185686201661125 258328493645693070 763849624913110014 813050573504848330 219748962736331089 378952283751645339 308799131384751575 497652326193205681 277700325738633431 452794995092454862 394996131934372743 794132843115918571 695485130887336510 674320440454860442 1032581457529740567 854132244095781977 520676483923867043 607875823411799455 240496511485843104 366575854372672522 1062074310024109032 618069958361675253 515847469075388972 64635792704277619 247119377869777937 352195404738058629 493856562318733066 295711869790525587 996769945241989777 172604879008863161 22937662018152781 1057363299708359187 850459610728088467 676334933601547640 789961940704751299 534095265624430009 67950895799511774 169662864746650631 435892275219991851 943152498680716807 42789691718998689 1126902340949312497 980592852650833350 560198664739011172 728254229297407767 1092842955536716578 174149971967084888 827700939490635163 647160479516603546 301959251108445022 498805920517318847 953719567784867842 874002433079808446 311343973399157863 162692266939548641 298897498611875870 497933311486195894 516551688546500603 309732857457997943 841833351452519598 67004992551693187 439415400264720070 895200524250135269 274071688299677011 9268610321292544 495144573444758468 154634174390895972 815985415911337042 370040752617686766 416265050140001974 45995134598325961 1011236368695294675 427979259602288705 1122336517075942662 786910114230412693 475674257892137969 369046139144151021 965961173045853252 600821353335668808 485624669635731373 418412336465468116 404677571624359467 654293572025389613 254652443840965586 536295803563286124 583838387493281602 743416171857614819 153412464641108241 704971698261982045 874095183523728457 433273343835532712 478424478029712949 258472827539742926 422498982899163959 978226505612212857 81149231340015200 290277406063250444 45289576167132045 818755380693912255 815228099542105828 971976403848343347 629533999854084542 121961164902879960 579233116367067817 268298914941898119 345899578040459452 1139156815580109763 1086745691366709722 496642964551666214 499459802599540820 870104865687321840 1041804038590183103 237769358746988991 240009691859939714 1101816227701067064 304282901396364507 1142170789772489271 714407375026808464 1097877455291540415 437964804031812461 439576646576784488 886420027393395770 862209720285326130 900083820818695115 939708662558888632 566755149495443108 980083163283331272 573031451008062709 710500248368529512 1055451557511680308 572045331372056079 680196872417519376 1090944926054670083 311950136190653094 530735705921410659 584621371320382113 865692697227997656 852853122186228724 674091356036054948 884030155774872821 36432216655259019 729256585386716555 253529617259139799 628203221088985199 771369054094270379 246132206896730347 17812262111902860 1055637855697627704 970525404645586999 131599090428100149 116454652649925440 228149610243654632 664498547292789675 102491171617580470 802807299204337438 59129097882521455 1049696556857827203 162670367650873260 390021787388868998 623268985488909459 869205218003599347 690864571642840363 796031568726027151 1140820297625352528 114999522567459460 298106236215479180 572833047217373260 1002431219838661402 218762663397507515 529187938662210159 145101189561089477 424054351130453491 933217291261246924 925007317900752524 371811951168911004 315032589117352943 470024643219259294 399720796551521412 29783581914313358 501943565321036111 101437830463962268 497027051549063739 1134229574169223500 265710739739296977 538116982232139113 692334104412754450 523223328907319988 324684792009839872 459236249305845688 819398257510870881 536112198882269111 795027977523767688 703482237357522596 1140842170623894107 542131078831273849 891778787334428454 399766761612133175 759850290753296898 995489159077434414 360276652779426384 562209497287694249 570838654491668380 358340578735726101 315404849748675394 970252179375080801 387230722624500152 389198446832062176 1070174018544475352 82128338067553213 133331941382068129 253115050320389231 451806291227421552 1034660396774454787 1120203220653913649 714219559993203198 1092888378796090013 707763803557254987 1118183166795823310 1046905629737186336 789228643609008450 945959078549211716 381835125383767460 210698266287468393 219035911520911608 833965367674728766 143440720703124019 982553618142971147 626161022000206561 692359881416890176 132529428457689973 950401777835907616 477873157812023600 157778713995809718 942656849964772236 709551996010559814 988484759228814387 8327294986305427 659921008763396678 179248697904491767 946669567594434748 635360218676398785 237798110276772714 791800700491687459 228118929880667684 759990631868909433 42876447932711638 1074186858456886521 781053523387682951 827245342887767253 71666221860523718 876711599471084393 571538826601940893 554452382724087421 315679898661297727 620907562910127422 348525555160880400 68224557281151819 306442597115766934 996646639675499455 470508831834171353 1117838917637008069 736651440828636676 178983884711799854 1070933386750747045 247971164907859319 1026791727669418362 230848768427360842 188839284931559207 537227578842664157 640759344692654478 513191295982851788 137566016323563717 1011609729127188068 296537718519426569 665794496953649830 42087157736086198 1029573380597759729 1079460550936752941 349719803396261638 248822172238907631 330215747679765862 129677621880668666 171518978930225338 810551690455223650 964599655198147901 52947691392144 929221665827988264 334306654157919071 1111546901785852610 684601679905348965 461897130764830568 573756237701694733 980866915101736941 613822470464844494 406591269665916729 116031200757090984 753293185749359020 132875624462133110 463643905184914131 462129258346786797 451227578685583576 78832742664332066 908599180164524537 505552256057089524 848958178869218166 16053633762180454 1073600199579508059 967251851515852264 976886336561743485 648210340808124552 76355092259194201 676299704655236739 327369808793117694 63640709019498225 1165276004093417 1077789117537589723 1050406081182129749 473748158470206221 404130484570206193 332357992886125645 430217725829315291 699856375742491869 980235897039229079 627907089092112780 217743936697024679 643328078899212322 1131326151639242531 1052086924513400140 28496984763149835 32337009685796919 9967590180410867 356588518818201736 270877731462189021 873540186340652464 497273289944666753 477100475906388550 209570438225494612 317695616674889095 230475755153517667 648185297164201645 1134084628895744254 290127388783254089 1004131747723976386 677346238320050163 340750374890790817 537433136916929956 794614842795975841 831544992445409195 722885760355637652 756083859365524962 631524335027537251 152238543709075161 839005943364030158 337000913406319706 431333274272504428 1084699962515651253 509085947325887592 1005565932802185018 789699289433494284 45127267605095217 462446374836445625 818464031718738674 318947526141648192 600568434086629892 103182648321628056 672761710483184173 592849178500429112 738284955348202521 205207608583894787 277436158704981138 983833450589898700 692470932360057524 541283880474406933 9463344596301625 175847078220869220 587920450143193252 177060862062821992 665125840752629717 204101256172365084 621317645578528058 929593337614995180 1136600688121514118 629061503174330989 524053246656955969 329850980498809428 773256218663545588 682167734373850937 742518536311319449 1036527474780558377 856185607526694808 1096614225481742830 639178797776659326 821305638039384599 886055528139166028 715638316867926050 126157499280970885 42082626322170239 1115292863714144954 659586002920169245 161332806139592886 431252828191389514 736174802872244383 1000128022802719793 653882131327051075 683001271507101672 1043486416966891059 162865431117071087 980333467969367983 341385574691647468 781971380403029095 41000077957472755 573724353790890682 75940286712921183 434466894095560383 661776783256651678 960369784133854432 961535675672970837 982886318000932343 180048021934036634 480430067332053305 767848527865657960 945793325263364324 199346689888128811 123020715702468870 601015534799073720 830152065239515853 737238312346610308 770060774730576831 1093057567590988383 372755029102263391 243227261535002680 332708327487320186 157876023769676347 1079642833566265758 594406203419292446 78558691059267323 797083263388334299 231143824031145202 1127234196910648788 46391476570132827 88539821463313831 293552537798516326 808468231465144529 843886825704183466 905697947419724401 568840957146373492 1020354298738808809 949604797875400660 87538200850703103 661384262828805033 117340113698792396 629699057595247727 1002779816614619889 411730849045937235 143762005661575588 249058494125733074 589482334900147782 516912266770311876 535840680146175825 226832414690132332 931271237750960379 105214816137816580 954378512460778528 1097265668649294090 656327599154193721 341307586559874268 642042891079985174 205176593290507352 672855393943119222 186837696200056000 715470007973271179 553807143240882923 417901955843506743 744424165957866192 662348429405235143 748363018231608467 531084874638978662 588798684312292535 488801285303990089 342990105684376463 382959334214691901 959169329753191247 283396540091963491 134904480976506910 34637020002788252 699201277467304826 27312228977314708 559731377007954194 76096256861931110 507321673289056084 966108536398893872 155046097285314550 1056660615953299099 59861900714767686 401128481523996165 267992104933320448 487226690185157571 482385599709213351 122107106382299439 760121882548375551 410537273160645934 74405911116159177 395007782579584518 161117850372272605 1023734968817630893 816426501927099375 121922148049264645 311375343205092848 228115077832562784 890849647460174344 335101766827379349 537552741201173437 687247711015784088 9060054067916568 420119883537644579 191591269424828219 846338292481879010 922368393398400288 9086139720589301 337057483350581580 297565620933255110 1111995875993255114 929146490264453256 1104414002052497804 705215947963210464 598728970702907583 439649985469767694 1045498233919686059 937147916744472075 907850283600956774 972156664992925660 1108567867920888099 1085155946192056828 675701342797676185 156144583523439585 136856071570406231 1149531170580101664 136809235971938693 443832468165466992 1077729102968944275 1078089196371641633 785426645383532006 174296863026782971 586428213589569218 444348103004510311 1034004226998651680 808412544612302899 756266918681882870 28924372940352967 670220076307603207 1282911473853869 834868415068475139 425582907249349104 604280325082555452 579341235084407753 517286633647589233 344278841068719083 1011428865204278511 912215866378562015 391639207510257845 449282600315635016 1117212427255957392 400405441068902423 922149812849288174 398496348939442304 802893488580857967 230161314457062869 1053572998937984965 482479777970235174 144539429314096567 819320670514879929 1137813908679929899 446325244883139647 542867859525785673 374359790090349840 888102805724536401 56680744460637695 216116640141085403 609265644183898880 434922044423387862 704215316294892642 453257126188838289 885320099731101750 390192388830751535 932470851494537631 1019775615589361958 1150132507290454235 686866752272121604 965976707624212736 232128833351450341 768040923822552774 1017462189282361380 611683461973536628 1095486442935576939 245272882620782105 75982380054358201 739370906092020257 457388660713732955 1059892959918618606 708831929924251424 362096854011069987 116932311983606653 567489809088297142 927398484035043345 274355478967707794 611659053135446376 803743119671507710 369365056504477557 174475521385426577 91328495266418026 336916527419274940 1076455467770904399 736683304131074620 925643839850365163 689690222696825025 993900934891289473 574564108241901346 1133409466506877564 214202280075335127 278998913463313486 134476614299790703 41487922231207204 807712992274951854 312741565775278037 944604102623595823 594891506452310397 384573258424981016 353535552054596104 731888357810030587 341745084814939096 209586442738876664 586499756054971431 546149895407206508 51774321733974269 1048210315037462857 215461935098903798 1126667154690519194 69481897603749294 882300439495531778 1059514420589398491 797704824256804705 477300845873495395 636461040322191082 983805056994875606 754539720061395839 1104685890523494605 557472622782123601 609908424094138049 966622875739018981 564176924859775800 266665280678872958 380291670182683697 691717201991311806 279282955989740013 935281090464995534 674942712941959710 13382562821643563 975181971499955494 7119067913222184 22993923292411106 51498762497649105 263369827300585611 551778417666435068 229350976394518563 504766670517193845 385132873994093088 36635480393717637 798781146941957876 339732909238352279 1107346459565767088 253309806416883549 211095445884918971 896168095493114638 23417866187726317 701835330135786408 189749041547973017 535588694389190348 1116506760068474624 464581198093055213 404044009523981614 893419463568764125 239932079398917049 339715479758590816 37624821067455234 569069421553217202 147116322887234402 984086169513399410 889072506078800352 711847713702013028 546796873528971633 677764591279217101 304750446340545350 741083988261153433 170872782104980525 525263126704510173 907996313726502799 601516598265581549 781444361007611933 1117362382480752088 767772454134474244 91452429920473303 341987691779720040 499136484237326745 643351444975400023 228543279257009418 50210010428688075 100010104479504299 1152595140642422511 883759441539272308 761207347378048057 236206104053837565 755846630705930650 267024286043547602 21783478046512642 915464815659687036 239505067768688981 505142894788338156 579548557511988597 524125800573784469 1131477194634732149 804735373572576739 243511782852507885 1026811444777449221 503385855819242785 214966470077093649 883283559634774497 452852081579590069 316215423473214421 205844507869023725 594941083993243010 607248084223811440 1143358127306129929 65831423450506519 14822150815096627 166197911868647330 838966323138153353 538772386512180212 283591777857176251 413781301257671509 315678517313964953 281526457314223493 962414353618691008 889401507237622042 268660061186945663 490521775236773428 1135274267791665787 107761884556939544 830661971874112141 705160500561895684 798975082680211760 941168200943646924 904941925184899565 821864685797788801 713585032248269722 791521589044596601 120485175857260915 1017399797305900812 453203543929061547 1019975739516541246 585209195129561578 176994167119954589 572206937265093718 803406849354247752 1011461141234693858 248958838823879986 332818863786189218 50421810990166911 1096697242943614338 612797111968311542 580859339091720663 162308711888057047 585166720466421643 278184996345503542 27192472859470916 821013770095519638 1006817617320612070 140019847586075004 386699174598561811 209024413859779155 1096841678930991901 1073716423036956777 96923396342950378 247535069257191149 198889052506315270 390673163056966516 55652703052995381 1003167701962746539 130701352916508642 78366692606672844 281938902001803832 893271190601985489 1041337967869795512 1096971969531760409 832109621657726107 1088185858056867544 612361918224081473 646923919685286445 34324222864028654 38512360238060283 699975096002459928 763066690521200348 898729295236092479 600846514666153873 229501120921265128 343090805121045652 1129943621264042621 195582193374648512 141975321279367259 930251324543157198 810869907356708021 350964268691813188 36953123083833558 1101490341330571382 161588629682995894 82182734282066530 947822396301317195 668682960289543634 590944276277858459 1136768155208620578 464132713438708817 660249348159184907 1060388736546190325 552634406301527643 847097309215622012 622422784813208916 371513453774809966 833265124616760794 860668077598704382 971713402175207858 212825709776818574 123172786433549334 263173391347780845 732929336927799238 692430946513365745 799425400309885625 389422701835989521 451211994854790222 954201710509568626 673655122762202743 597459001201948343 187940186441442824 945521311148486699 474353206364500006 592689570891131878 804603659835672837 589759960706661840 242398954968534329 346098033549500116 140743192480469427 980505505285202278 480075124172330176 400614311386209006 338584919773666534 56249275077989137 911237955097780840 448220831386555197 1100705597261275694 56967129158857969 357006477469526687 678183684002965243 83859220067708101 1050428316055472330 715025384330520890 78914646069728505 1008953630727120652 833742566326540563 1124731256253086908 145816817249188647 742723587762545632 448622140429294314 295776584246943156 479523296779317675 207014716560499145 92044280467737701 70850415557533636 870604793316035737 274538611565870268 1151132041405368235 995968155016616328 234043203360731306 162540329395752094 803381911080761059 992217000980683427 499745004204950145 853032227844030683 994257556705615239 718863703936634648 94342134895830070 57000451406101758 225175206292485512 542352723455325092 36741479854716517 178685688570420385 691495689490630136 930122364584366275 599994772986415367 166176085629293892 944668330066269308 58556812137959458 14137202357033397 818092379586366208 58996657523233513 254870722160879390 575859805589069560 814031265579623274 609296772290324338 866536559880491408 351015944640428829 1012639239106869147 157836359957959226 445545544377824356 812284679902111074 885893028087774201 678772505509052212 851450084978607941 393347560838536366 622306404052025064 863811929560770109 826651129480418609 663922617784032958 257644056890462818 191154225966996935 25292129090935226 917256062487920175 274368601960807789 330132985153873811 1037911993813940316 88562542439796674 592589101216854156 284422666023713211 830038492774904105 64354069871393884 335010944516596896 548726820751918003 661687580141153064 606452020691589353 970938996023406574 798606629270756769 632906731407140180 1123253462304679910 176558042446309407 319328579165411827 51223219953949711 449927035861854308 433872685353054436 975416021091565922 644474822895310787 480102247997866336 584615679511666495 121378959142360011 825539832935096892 837262994675342392 134080904737340774 638196884814369015 1056757908326080093 865349259115985043 469229612991047938 390862079161810356 1138132340620864198 163132968667995964 969932184100249688 772938825704229641 917508710275595755 543388246134428848 520467097171737203 321563396044402987 845400477825010457 710317638836401973 1039857204490813447 236175260854960179 1150181336867575492 1147542610652158908 497210366689495579 979810340172834130 394575728914725761 933396549488601110 523461636838959883 513265272741941201 213372462859553833 657781085597448564 889103113747591978 996346249656772882 1149734229638997009 592041464601606323 531586944608729353 605811711053791021 1140192093200575917 1024997249283673742 137579783411921735 450022848380790208 909524595737384981 460117998230118366 1105228801051984352 443477648984417589 94160138059884855 240446230167150370 1093595672744595089 579383875565547992 955474968205459440 676768496524949344 963019981055579401 38907200035602797 728840814275718991 574956980012779519 581477867719493667 663119408520529430 167375405058807887 316305304191828101 25244258569275773 414523460597128554 1087689569249110946 257590046983854423 181567194731154704 280966859192977966 284003636815424160 922562517993281697 279578348301762115 103882783389283978 198182972387258677 749147901326951601 843076220642112904 268304946779794339 644792102364660219 894243061724980972 625807075064952320 488843677069005224 418380736122734383 1090332512916307533 793612208206524041 703579528038374494 877363801400386582 434798316674260968 847373241047197816 579126738314341545 1132686897509474794 1037775054653933026 170918990029768746 881414398324663862 283789452953912699 123827831365859493 543000126042502879 373580890300980614 883812993209022969 790576052885281586 834165218287361538 460215237433026801 199382868795284882 190279954811432773 393232236282676992 705662893005268061 178501882057489305 889781390607258395 526553581599442735 1106618506288512267 163846594449753448 473476956889952835 279647963715829386 48859084018487803 767164450813346547 57209619888528285 681688123512122231 393653087146403086 437990379151806693 208793450113620411 676441054629119954 640873587886399164 226913254455383237 1076886940887978582 724053258984733975 701266508315447424 575882357658483565 284623812115809402 908642580827437381 101525425214873564 701830004572954079 181386043695132613 859492331635377553 629321762865208325 810199979680918574 845171190366134532 1020273928357848586 630906585327415431 538438609397720841 1099097337403507580 737228294283613868 342996501698994612 430495190547660567 112381813879482911 594392349860733068 781229067585657975 230826786014907985 1021408524663214035 764091247155739604 692605349065427297 966023328018495851 489609960560261489 131524410322168730 216372637641630228 410547818073438707 387644322997205479 1115000304806941237 1077569319389433223 1027143481573010883 332160093976095940 1008758726813753271 229099900274020922 475108070693213914 490136234968057610 1074738737784941328 82624290679112789 702927297410665937 848169702359796609 961410101750230816 736670347418299947 493542567490769507 1122697465300043222 611062971821580354 1101405072150572417 1095465747167510983 632413588206016688 729462307027963237 877267216709408448 961798577483645806 189591796072455469 122232395255900961 900250461157612552 980769197809157004 276656697530740537 1130964637303447341 1140513806580451679 812721658315696758 548152144128329217 561422869649864823 1026637535882225814 486252969703899085 940481469324131732 327560351731452429 791823569286397791 923008536467290351 958150739439823658 1018641398753740525 927663969678856634 366608488792377352 1089936834258106273 1061068300833423718 873772573400788269 824645775055688790 918063130006461955 79272827583968402 640788819515967072 875801361791344 90867423165623557 335396097706074787 483436767981837205 45758560567935453 974919194094437595 171643046413550806 294567255740148245 1137427938917844462 520023524123893911 790772427586068148 1103958801455014608 9726418680437712 200578049728230015 295441777449065600 391363351518207815 391987187224986469 611102675363309360 507884957125448056] modulus: 1152921496016576513
