modulus: 1152921503533100033
n: 512
rootOfUnityTable
[1 5310145863332188 585420101220797227 453513047188258289 1062800389463958362 936968666805128749 579209520431441010 720130208641953583 686600945335276385 228367568923862090 11487332673383556 534531424354107373 389698839794058481 1106473511308984112 942703466321963647 535779476833131330 421263751500983231 154378056018283674 263459912072606987 723853377596481332 1007276467308813920 456503464016585751 215091815009091916 1074981893858902298 593569180463115610 218371447900157339 594152945763062703 1025113525372255491 902727370517444811 931246165754566601 141163993933979833 1044207225774250990 261495092529341453 402895549926212047 746697321484022923 615028653940397877 1049764976217980004 1086537379776092919 408203742852870882 1128192129405930982 762013532824515251 560867921732780707 477377996186115471 1104187259715809159 803918452948714494 906088076337481085 442172822062286231 635544271266444039 625063981722562333 223961931651930738 492564280400821546 389773495278313329 1075207697488119736 995748535962401614 367090134871868980 1071451305590514157 613775740469523565 926110531518968281 664837919311097779 928563863584847888 1045106538521432887 461012019641979889 150027930184257740 1117634185783294557 432280848140993127 1144353418052288377 928932447371419056 199774977164426289 232576067382276326 849459539977843753 110832289771021341 63679706230522154 1043212150892221776 80201823241332193 944181772783274056 614174033247423308 999951273776440013 894267352274389518 891224793914265817 334602199265759543 791836933172035384 557242480489561134 1018434981304534840 655183405358986974 1006347633486120378 283849946962216168 923815195574147964 307834517820697889 742208892869006499 494603103925581914 475275549591877201 40951656763263806 806662620177419845 1115690081003586173 1011367384286794601 92363982410821230 680016164871847763 407418463492866198 1061076660357073676 269746171909112131 1151844252455393259 236570252341765210 1045276317731414429 751857778531434745 750060365729951143 279746493744611436 1055894357350947412 527743306463756516 983355482479968750 567767068152061228 371143863496411337 204535540660670805 285329549577626520 840231232187186873 255152265074049496 168740247248023804 551727307582903571 602726118335803373 143859885262602355 490067497212135275 374173065261641266 695937574881948080 829572640981134974 821244332766683607 1119519236602503917 804386075605448904 146268825472175100 932899278737900512 637188046839961388 578742210392782522 73931515359298857 744549637561192220 514335987954223731 1133528107007337188 657287308283980190 250460354317183432 68705320337109121 920567935469299509 424885398899770169 415290169888507722 1047117355902026886 622030852052653093 546927272215571122 94352947722211720 591446079239875290 757957121928630452 852129835557613135 1126817542145091827 779017018500878553 1138964930841672666 898565961792087510 847862470824217146 842970267891215833 710819094734038715 301136933081186065 777252995896435912 873842232126474336 928940479268355527 934343402379296356 876477765224960476 306516808437632618 1051958146330412040 629660164044293442 183910282489496893 421003916629247598 1019700584193414907 996037453869767738 286336601547729547 142522872747247492 944933922978206155 87815223516362148 581748797549931648 843599016227279286 452738909353242970 382361105143521574 931195822608831141 398770666059616871 251700599588423457 471848987851241668 580481322565069901 570217988688943698 395813041286149758 382638190596302080 825089242758031819 491578689085880732 7281330085754912 669489214276058627 58730018716297326 411655119654433833 557932699971896752 234192697984810742 884767425605100405 274899014970816836 112021930587470907 679828993473062634 651193199524935808 819700579770492478 1085702361331928111 272092871572455410 1114099357293899404 587694925048553633 292312563119624130 352413332049931586 599501646013661632 531638712161341781 157864811666412446 175234626106843875 454610060501663872 1010655605713771858 313550877774685221 143482750826572119 1107330221626938747 622994940823745475 19597850664254153 57418807528341279 811947414710948977 241049031329739761 528977845910670487 359744276051569321 1138999430164087196 80146393400314522 839124964556752999 708878286696704817 324880292214866482 707678165503570315 307039773677231213 175758814918658605 930906450321209197 1140593988990173522 34248432943689756 165449284701420642 918655695292693455 626949105047790382 371371406784415240 64934449943921736 337814011984752618 240881606366988711 1042193076165411773 573042328512535177 1097011106233203631 22447165408451767 365047545916221907 403252640839957610 760696353731753367 288931016608837764 1096032930499146584 161663203099019609 604629827332537640 730806515693658898 918812883663570671 95052553640671154 950990612110799182 354650950591573924 268178274109731566 96726364175114477 715355298041714589 969066682771904497 171083938929347295 438284248963494081 316492505926817884 1058756600494747305 394453312307836425 346092392008954464 566014925181407163 718462773481124897 282450794989485435 565383466787013532 171763934179262420 356639908771894477 600686683908992335 418777717221680235 530917522298727652 245564048164312876 311260743975519965 441431700924096234 1139820446814895038 717660868540599631 712079289110712445 934346256630130155 313779765785768358 366909058716493738 565611292816457605 603729970992276121 448005852448031947 1074870028307015431 68926605191129625 699638216011929488 1033093542854937922 337838083622146708 595138101540808176 763261955521035210 700204742562930355 189134564064069761 577584640659770748 644460210617074542 7986296178865855 1141772952440435846 848347997239632930 103153366557378544 519867626586691753 765599891867977916 662309822949138371 377242981929513895 86408861030389044 298689353409090105 1110671857518752536 514663516288324406 70479163992505849 619812548884543386 232528797870904491 335866547672792517 326406184613357079 1152777220471097119 639767556952300141 903145307333738238 517340894352595073 1125764810618448179 16582837423011879 758978824361255058 20035639133561525 265517261000531932 623400363419180846 1021774192039688983 866746954731224851 665850008883657446 893105066307802658 1007638073444317293 439981167265443111 15204328968266334 837063840866133532 983300434668558931 213515493981646679 920167236168209794 557740528354086281 332218018048424777 814482225304970199 104546947361767692 372512974616553704 912327611725021716 454196243395317022 215054800931722811 772136061531681120 751947497738116033 89940105347752286 853070477334255355 533120600305996693 1093625512726650517 817077729906551536 873830135653647682 799443585063582105 561138401149499725 395394017178391971 479818483574028298 1108525167832870252 788310309887926094 761204364475043504 267717207131230309 351112363510283307 428171330679792953 1098269286398946675 1041270818655567339 80915920858392003 343041232443545081 558373593383926163 86970015316523813 367457659276593478 334141622125330136 660236963778457244 492628106174419039 1117336001921490935 653725539026839234 894196268193068045 706387068672328157 87009441922052430 335907162372573163 959526950142757322 643837594548355818 16753415718388861 905511673244767160 245509997770100164 1002601856086278342 171068362091407754 576061438874472530 965172562739836597 134632579136910201 291061792214230109 338775295958972958 335144365390892981 1003396698604541772 301242580723093982 936435410250081978 146531780298540178 376751884906686626 996413483362655799 592604057402084910 639529482131462410 385305836975280763 75851251533836639 691520328866121179 754356760307524973 830682397017754825 36557619330318773 200763198292485258 575578311129524678 1024540471025713221 415298280327853756 190215732994594995 564164655987118079 347088107242133706 91491401165983266 525794325020054887 751878378837079822 280050725059599966 852296883679181675 235185991115153309 524302545733169419 158110448658123393 794151684137310360 590234547706269365 179602897943487091 500398642930518076 736687122246346414 25362855697941701 1101032324696742220 214227980956422171 782680074814850876 1126022475541269886 518165161689046306 1059747997164979774 830406465917183989 695196108899306733 375531778691720521 100222556471072307 780096553675352811 1035040684145609321 608724935348681212 531798292336972579 941872820033168277 757948881189667420 1047148665235809190 591623313283354188 40410800998032089 766967715322722828 600655191367211433 1060504338989751823 1003574070617545975 1107707304210052703 682205784649148409 44129784453725153 870120734605943467 617977091642741299 253717012768497283 962889844727385557 323658446582668393 145034416790641976 162033511725714964 585860212767309454 478268700331334980 815610232011195594 720349697066179898 648455394522058761 665323659591783242 760888495812434074 519484753028086722 642054545346740620 732992749528460563 7383936841508463 865454999067156716 426081578720526277 1142143265728259192 1023463239121625020 734907474637410585 540841226382661701 1097864613857097860 1019375523341772944 194709373318794806 975488648990335790 190850110177769862 539330252920940660 711731467385611986 206529807036341355 1067816796298008937 35931925628435157 690336166113000026 675517186995391243 404625857385795166 415381542153398308 106308202514534113 1062393759528421826 593399914818398404 465900020637752119 1087717316060639157 1022516430211336129 1128574974337467356 332760240244705648 612164850559185679 500447093523888641 874913625011436177 639312300910057653 241880335203499419 473023279322700720 720723835020667830 786549954064014412 1069906466730347761 298339390206161051 332112984863687164 1089297770815211950 361079021247061135 1144038753521113450 1006434739442446117 81432313517582357 824399536237991213] modulus: 1152921503533100033
