modulus: 1152921504539734529
n: 32
rootOfUnityTable
[1 269974298209767541 816601425997222657 939959926995180464 807987023447319324 190462967182578116 814622585997071080 359597896722506900 806476141734652935 645098453349916896 224001107444135045 83333046088856134 921594070202343945 497775509971103586 618212621331810238 1140673394120794339 301959254522392030 35488158933909638 242057618856150441 107582127792510612 594138050750678687 395001593726960978 1108277093656524440 900550623985556388 21035938291986642 449228944468196971 244147242375853692 1081301446412619105 981975614897915055 489706783500130744 1091287128818738111 1152002769850545047] modulus: 1152921504539734529
