modulus: 1152921504338404609
n: 128
rootOfUnityTable
[1 213665968267700652 299879527788678707 672487962321100766 1060158528925956762 851962612975496058 2522958546699219 1006662689413952767 516260914063874717 55241396383507713 464320580452465894 850330432765962947 185672160642832167 214143114380305447 924075851920177256 808306064731689753 232830802479889875 1065498277698704905 976150273485438529 5519021038558707 113322771127023460 607944530403890996 1102972725471683333 164109664823165115 747103017633754034 4819928591761352 1065896085143754715 553788416222949576 478056901163395896 694911652149819939 586159513051117285 517674570122046910 476782317608757355 922585319584845818 820605063784254714 137456719859356542 69183165288362142 71563333664029303 437989720364025775 11923492065083138 465063762537019737 475557097643353154 502688032162498000 406265823446584988 1147655519481766201 816584435392330840 557611813268885448 919514892459796948 185356724200831152 391339033375195190 160081728959672609 386400172765220297 1123086112192314749 1071140705396319855 643511615224238803 973732071311502187 354342583954626359 540329057457568562 824997669067232312 56299140726342284 232737807600623986 812605086136707339 115573399521077062 78719505263147266 511642516540671603 1132867226376152852 585499745428192944 391079705036769402 1012660200238344666 948516918985506344 811699242322245089 523744824147766269 46425541058653688 961627085661475597 88264097010898184 902517058638189340 579939471449745635 534555190074570369 1068488632040391749 781488563824267896 975668986998670858 813881434083471070 913628773589389401 456952028614653300 341350387728282517 32647553448503727 19134623362933413 458880478615904527 370156186648829252 294976231010065495 1057790865166804099 1106674637382550216 1086434586445731451 393178202661464158 771948573518322329 228056454101218051 592054931220699339 50029984716983079 54373981029084099 990448947065739502 284467632749569118 324479570925697105 1140460783236914276 480152528873365690 722362067966809278 557579862589594828 912926449489089268 209078277352116943 1055402614153437697 725258940145892921 299675419595848252 565088631837044337 700855173757878174 85500689846548557 253008173457462988 1059685601499179559 207870788206121834 1077409973314594113 1020405616152639556 850499862792625652 669460083242392888 695768788041091194 172613390564407272 440863857010742104 667167855169666215 543747577173951248 1025900581456415701 1149037985003757435] modulus: 1152921504338404609
