modulus: 1152921496016388097
n: 4096
rootOfUnityTable
[1 999408788293282907 859929779229893866 735306536558511631 1127745456147580028 406277145130226856 59149724815807254 1145672846657918494 315307985443069929 1082830244646776468 142755024661085836 1096952275148939226 435907429255508395 424340992713063336 1013941731262372019 777474886115230614 1009350401421641191 936550171996008257 624282379623769684 1044437204962460114 197614765774753627 517769199617412779 730241814828000131 919312927247555795 458427164787407160 690851865102029226 250053968995347128 508739144235911479 29666599850303276 831143429853970874 866285808716816134 533935939857777735 379391764248669882 810981094015819421 51508378805001191 956357678357687678 78923177561785762 263196237050098202 154957771867955457 277874409131489132 886628924146710574 981369724198209767 489244745223749165 207238927446032423 780379237825142926 128953368295343952 770411933075100511 830243770772207773 475337360602298993 94277043519271766 676390915553292427 865238527026562618 48850992006704358 801267504560013028 378166467126146056 957290891823301242 751933524907371565 390557420452360063 78591483194089140 627095148536164653 1136207423314218952 742219603215202984 1017154662455619834 349392261698225318 828438830497741183 543417363482784845 936051679116793036 225861729186820415 879268423827599677 1005077229796339983 440851833825671088 700303541416689360 1063174303847274026 983283925812614232 1026261469812915258 218218592047178927 59454352608217597 84939517771331521 820562280832504970 1084060577927277764 642298441921064827 183162383058159995 797724769486729901 659489216318260850 108979284547398199 119084413162919744 539225246805012209 372709535337751950 986220190071962587 1063992793122639931 528254535670307118 327972494512702279 156159038925908742 675028467169819964 904835110793299939 1048309222165516906 526398793417142939 421250996784484764 315379608285181726 816607086225510206 771604682011762726 1031718949684948340 290096968863708045 267727532487582683 269743255823955667 823985036468896516 1061876412817819837 512565802272138589 454473070493244951 486187140329569500 26686900879218088 297448028588286079 508429636788359002 830787923933593853 54316557487343555 410396072065402639 481925169964147776 916366574387231065 41189863020465419 179086383164129478 955263959547716743 1079182469498894723 155731419555483331 216012035156477054 1087774821742035735 30944690120726938 184021963698346573 377908596385392075 577954459164973743 910658556533651719 354107455982776301 36896536398539118 801875213677671661 1139705156180025969 161030578932660004 728950444566159946 703625892805595222 55240700694207496 845498803097586043 1061483747441914911 70286412740101090 1094922791275457268 808617702394103377 709829171072330598 331065868538652356 24852693275406676 1081850570245101312 943223276656226640 632755427560776325 93987020403419730 209469090719690911 1044125111407496907 875639926074945696 15454971536459554 629800691406908639 693704010301106083 586153283239974963 381690711259990792 574382799580614784 74922645765702608 146140191953136960 713366593708068127 1055524296143094907 897376913746618677 159659765416479222 427545502063288634 674799964468519447 1094135419748383852 449075695519380003 1040452783471706837 1132812440376027808 744158954096262803 855839461689163353 414866407810224260 11805843506151105 1064243051212639082 997677111356394310 1035549179774385749 481275664878508052 247933212197469241 58919010049124565 105706764203708680 152001281579458209 1029155452247930589 1033039703060268935 984886162533334245 842371018479057405 235937046776980646 70703884549875383 819397291608143274 1065847851571318071 24271039401550107 1055668130657010032 842252740893685126 1051432306504594287 316661423178666244 119950090698185522 326276146116467296 485913712464478565 895615569189225803 582850732948607058 517709597058423512 951040488310385228 912790239542146117 189644325228829808 504054033832238238 390575549177115280 1065356270332716295 1056530015577134278 1130001744063878729 288229391565728165 141512256996007479 994381465081097379 901703313728184210 439068705672960543 201010218467168844 117652727931593707 206813369122345837 528900902979868754 1028083530271015291 247083934748713287 900370925396671861 883508155359005226 372104062002057484 21903997249122272 78099911129425359 93182462432743849 908956691635020340 462555440692129927 757933589896333142 59777431372657556 67530365164725588 39494424124300228 422725012347490810 880414222735140364 1096484933657148086 1040305615341562379 986434042970330989 902784806482734692 1088032478564745580 882590534423734526 729511330695341375 70204985785285474 1117226399248095640 658637962438989454 33639998672856726 188575174845428028 592905651261745455 1066657681879151096 278781302046383568 73701539063148517 1145262113747374821 580623677996882904 1027572346491127501 364009025271205032 901954495615737964 292645365053138212 1046886658292098605 280495565509248331 421708189669393487 93942872496593533 296417849450604986 1077138444412385895 447603838275757640 884344025879667129 1049147274466842304 1016302101185664289 710280450237133085 278206674142829956 527483022575888797 1022154925494015723 797529042335354852 355593625216971764 606509047520297484 209709605024816645 1033267713068703949 272699188599028661 803002117348553846 170104226802084869 751552246905511277 382372188101048241 738413132961227468 159184527739980138 173180940856446748 24577470141247456 643837766163730922 446729556232778112 509663475180767326 675753648257944417 139153608703702013 854379720639952207 1044818441817814778 520473163189424687 709626179645818640 369730910547097946 197174227077322537 8950311329888665 393257199491209233 820960573341278977 298213415671325025 103492429470332812 970733056460282539 984036847124455446 133242058440519396 340754619117936718 298532661558124662 758105210648424659 463204001108313737 138885796910209707 83757359660597389 871891552109373934 269046774895793910 549333407888989318 193521138458511414 249451122777068513 846288672611336156 714213341773678746 204250845969860165 26695754489323501 881646606411076728 365586665865223485 391941673261477450 1105508990042171766 850352228547440351 716881914290219556 531800341109756852 959368801814267060 151052736717744806 605809854628739616 967475909803312420 461338290193320097 266323420692627832 242649555201845761 426059307171198051 276836723144093406 692912103463106863 999751537620756128 1063776176802176641 624803911421405979 229977381423298676 1045657493017575273 213446028607006481 1075473427562181836 1110403284808826663 639260040551833595 399742833963922085 832386044041539735 483846004462495229 1053758820690292702 969256286955788262 705470379764283507 291740162419348000 317461016437035210 5265053575909778 844671269670527511 652523748462469236 286776716993491635 64850148075755864 363868973721863549 828698580221071140 610444673464266227 651911866224706917 173781919523248382 632243966118071744 528267706759188341 232358868506302913 1096699382320488261 166989083350125098 616348724358293156 564189385452826218 381275349120411486 1112247762321456113 785950451447844505 676011064462165049 962253565923150511 1023231964137043184 860025567579685050 476790195969712914 53316043114505894 568879549993237849 1141162584018174212 459812287838715710 356874540042915151 1093804604143835013 986780705454037187 646027883240269731 630414749704615411 623642577776462387 64560701404981458 770064892932273828 929647283220036950 537070947613960626 412651586815558238 704672442866048521 1006781833164346858 1036992507572364078 411740499408626085 1053052849505192799 123154035998865793 291304824778093013 1022121508282458380 296459911504314325 725847437222124095 295700381355887785 166441036206417873 1049679743760853974 272191852839281655 676870956444382123 392859122439701568 142887633174936531 712734585017321972 647373486344815970 676236764909896747 299139440793176088 200590896786947790 1020301683614689452 549388212179671842 21676198928449473 896318387608724081 819135249468846339 128797418726091098 136570086878505723 282601408929508916 1062899177558434136 435982892779112583 906820518126821690 346686620705874382 990283684995290522 337626228892445704 814877708081311955 903249721915927147 794282474615874428 1030938375713984525 1008172092813999687 655113366761893108 854028519224872264 566543241900204806 159723770672942445 810453011311539974 629432507614630207 1024095491883316818 191970884334721027 541374581070246588 1100794845587502714 566758533527405734 709304567461514062 1019568961000178431 1101821487496183945 314612143117422327 1096853757806794107 682952255885505990 758183298316004762 506207633114701776 932115209196450876 1030472841413450571 541369518652360482 337441089111709263 225572071851455716 360668555016493893 837196857036721731 749741768680641710 160717996533339474 918393121324807929 241348212538014035 239355218769333042 996839556494603105 13768435326477113 719051543751810415 1122933468619669414 223514985812022400 414171747666749884 850087265467290653 196053365120621455 827618960831417668 451088669833506969 1075655225773088620 520026042033021297 1040150116960390086 467096760572382534 445260999605497809 744056310709617875 584393136840290029 545989936506479217 515642043637077103 805490792432857764 688317526847197395 1032260711077323491 621054080752103260 1066611967687559060 849140435518777704 661532102175414696 1076167266612362071 299577084203078110 998475279825201271 633087904865622241 899190847109711658 740571427423333251 92564557134053152 235133622762744379 239490109580191502 70788681314932547 1097471429480352135 612130502800325803 739070300166563260 100471260767587251 888327385131835590 1022506077996407609 647936219029894770 1079474265541333538 53532427861642411 443535177917573270 427885855562220307 811484858998661280 335194002574636689 1080653047522497589 1142843055012601368 498706456335439755 749394900944266475 1140866607515472635 1081231673629914594 203206321050595151 450602730316801436 182602326420499321 818456547580801021 54766365348150208 1120645273615955891 1137319429741282803 503915230230526180 682158270419805323 427688275125728968 66768197289634557 216302551518936996 497828678046259309 755303153257533668 986066889757723109 369973198244121626 254743191322575500 1115219311790764044 886615212141429859 222955148526922524 419455093773590335 487787997801149026 682682467479119425 195019176832940195 188522491594347776 461772672197927730 1059144191457902862 444354961238137650 460195597130413400 816006153719018285 108864306985257353 1015084417489303381 686456184250567390 774911220588268254 1103472710569187233 280325670741450537 860618645443025631 223024110401481920 153504250605039047 846554261981235583 725356533637137960 239056190246147361 1143952453727623980 602703877300452261 136217758011980056 938270441353455553 776211835002024434 1133953455466866873 242258834656876387 718587832465198044 1058044208634493353 390807997436697818 112594060659718833 845747405505775732 20352666745181806 48438879946492282 261343360094483900 817042882060783816 235653814171992982 116731307921592793 324327662013821272 108703158171116627 610129127900938726 885279871999955640 64575050837375279 440154058582379373 376843743017557705 143516996915819597 55762833610297056 893760897657456334 863783433313279562 91071689408929666 667578983649448745 319316762424936815 350434055146334723 1028209920068750821 464911421386125408 183960674985917753 6130066984743785 134876011831211091 464622857753632708 79961060879859685 1080221514158781804 328699922381518640 333971680530436980 468937022696719119 492166811217908699 349547125252299953 326990956105370361 574844050165433249 286537219055526145 555274345629616648 80403802719667476 878154231574649882 774412217195609718 955714221794033911 95856033777876986 15272786503963693 263276563094184243 7132368502557821 1096393353866040190 287533034376950107 231335186433058085 169941592418464149 163407783746625759 13010266764723450 777385680852830621 249588245867019653 167646629843346174 559661338895172314 133876364629940181 1002471802702209786 98988422130826147 1005113966184957814 394029753530585714 178842729874554325 388620499535609315 206507513720987032 1052294471706223215 33130139281685765 214438560870345536 940618863694033418 973463881172199795 685855727663333183 433794076011499029 682463995114846707 841178698579011600 140633182493851232 570219620619653086 699540280221662302 1123295777394712117 395731421709607093 563735840282546559 960630160550698708 292571907747130905 294245267307617906 819593670285696489 1111753187251375808 425796512149697653 392528002124009976 613419320453276167 433026622488869022 344446448551363013 743903110433781872 314937157058907094 456017107811575096 657487696121516203 1119819318113298330 189064860822228970 423416144188803867 498681022103544857 449044056757899959 874183548455349685 176303629160815396 771793498518457901 279439798092689793 975283607766618204 780301895761958561 226911744889042437 737172302955944836 121565851448008507 1016798159516035661 331533810468123623 413961702752837815 495429693730623277 892078226500283505 509832313031865136 938301036043849320 1014004631349929647 1039014618765243514 886933597282961153 12961531782007843 20485584817000446 518728081164384904 844481051195058620 269458770507824446 740722143078608063 385737060947857847 681353391145929153 1079446549081498135 79091253692962465 1120551960966242760 253637436908655371 616799986235773004 1071794791523279708 381224483047273193 825647533943049037 181600709573544400 576872665853035053 231021936412660147 814978668951090360 324998572160048533 533260343546939864 934072020538497593 701277010944007376 396807024929072405 930589396264300805 732511797592161713 758088000377467407 144008176383700097 809811455878761271 874646022352780657 251366548943126427 810575107630898157 427209235625252011 48412559896652861 50792388749224730 783714539905841603 182378209350213766 752569521594877536 763191879853737567 1030198892013924011 214229730208741241 693899175469832270 570810902938329206 523549979191730500 328056914134763728 231883388026353354 1010504753339270123 178336896324425950 332066637231197732 636603784023513286 976273024615757515 1001674367823019328 932399594651340239 323410478984209159 501429130817738007 966153764790765177 1076888606948068814 738279747983462615 485653377455062605 675251057029866437 734421386571550263 863922679121530790 520337274491935644 819011526676531798 1006291303020884954 622718341436652808 941884189568922065 612612783925079354 535342894814508424 1097370155478697237 1084273618457600186 678938101405914531 773531823698279231 896551292116637268 778227267142010951 1024643289387384767 641459374893118695 58296144675043142 973261613493240714 735082670072553015 1080045902865824122 646606699994595395 1139976901676922998 685110525462318070 1002864811695726801 1111691716922423925 96203367745308844 1143396268443248808 134350937306331139 758644351972450987 576228150251740309 1104088117855246648 789566030961433730 233971165128939979 1020910838286654102 1050209711400817538 1069748848557915029 1138468745062695884 904871373668834248 603531135371307044 392288247436049573 486887278361513427 248049945349108793 64056454511051899 1149871086990975581 532303976590333560 1067825643493702182 1095954449154523980 767921381404833902 323969425042414989 817978295857716396 512655827670749545 97986244095788107 504740463303129344 535202773535665299 156415889330881667 615428705908105201 882597982642898985 62377594959005290 239927260728722719 237966531058853021 1058837251945176729 900517947458820951 680822221001487815 953766075272780833 1114690952587614645 954547131068757402 235426625518869499 123677382046698612 132802117147245208 255202673629441586 433268789969037367 957480542960987059 858824832053508721 16192320783253066 220043986943699683 460900683808241986 1127744495795751721 372972221465887414 71816717826775505 802932587000966788 1152049192178812467 1131062126799999740 303420620862722859 768425537105318513 929694062792735788 236956637360703655 565364916245513773 582719393157342135 570864711023359953 699819845577517137 577655347235930389 464797134826351733 41204370892779449 565774280975702414 946195815787996185 767514104346872991 672624110016409715 680298350252035311 1097939417616810528 311306233047519549 92591517615355116 508313690475479272 424344125864783667 709684439635376834 1073329040348118016 254554129044809501 156645761313810250 55028932712234920 44523050228512257 255283802426916413 601245145891956748 661986005544608679 532568832005934572 55943455402989432 1118300694145709129 870985610823031462 210427107723275294 148008389325573836 613304344944367673 760371463351663950 1090058395081656359 582089852847244122 1099415833504696685 174899184483920559 627884531498520407 81238319234654863 293351793013358111 886355487705163859 807016792505114661 230059219958957571 395387438620361407 118004647261486170 366351626553075090 1093232421612190332 465201987867164984 656690604365342561 112014091166903017 465261050003147925 620630061614405758 15878436582033211 441751734538955345 128653985206857223 1031331390790367254 150741876285857440 482814135013128540 618253252650215159 871918937978797594 608023674314442122 1028938160658883340 303733259823049498 1093037161497515867 763836370676597370 55249086836090287 185249429351599979 925412648918176270 369882904147653264 909591608165835295 515482524425363382 317591076621436910 1117126268745826750 448345340876254871 583002528985718070 387626257053360045 411062309431629301 327148509648027746 1147279868541704454 135937650619556676 107052628438354200 168637471291856164 782137050629957810 812897501837426253 579712433558254040 260813840562730157 1045912672480863241 386153560015667500 329247512646600773 1148517417108889853 679358632104987212 1044990817597415184 1058737421940542472 1009681934515702806 614979564468002335 855607025556236816 86456589754607398 203476707263391588 1082516427411479970 438202939894686347 444952214242704546 524428026507505533 239318573530467191 709919506827214739 944995342979370345 144909425382387357 401621236387730772 795226534239256346 955749368368175606 1044855965999038896 854909890042044034 1127853611158615619 1002515233332766902 1078060598851889191 22504116401262321 1062721435200661650 791026786427055309 724474943885451032 961680647233623666 478965287931103894 765858353652809588 801119167400408064 1055177683978048998 728202267455181378 972002735131959111 140749959293564552 335131636595437047 216890134152005466 532583938933016316 55107504355047584 1125349702183526984 995886267244437368 122853617717323725 593196048724804274 328776468774433340 1077361323734796141 215785002769695308 347777785087179696 13575919760834124 373505999082961089 630579702938234915 1151384372098703989 568304130572758396 89004167977800211 441968603917722693 65239596947393478 962204182730926267 320226329700277758 345300555057249113 624510942608505758 877992036613121151 590506578403831209 727774282575324426 752814735003033537 658557810685941642 321525361561435632 460480914299040066 382316365131446133 880343589760313432 326745018568418680 105692202430463142 275758546225434265 692206275781939492 263524928792531806 573322566057329201 449664466476998076 879461457337127834 593553848018868290 1045622142490541505 589212328957320407 562908249923426000 127367108237813071 759412849227730320 119824451556849740 981969161721186782 911862973082125554 47275307173082526 1006950664916384876 274610781512648509 446111700745715729 375655079826858972 504739495212809951 795257968944361536 75877001957110213 161017278203332307 929678708904679470 453629961754897258 225493145685966418 1148059392991094613 1035451750143604853 283580931834106259 956117750610854033 99921919673129236 344765228178268427 118621714623815111 592391753171422510 1086259327714512916 912691485082965340 113117768526568912 822295972167654989 575040010852934827 175737242258909565 464538235333777669 376994486850413914 993913859952317115 88233181438382193 835066777877365602 405260139992552 294300366821789830 330582093341598584 1081072671115433099 307924661487450999 1020570077745964224 978063401117443610 1021073379702886999 763286455890214132 127184235226957094 880272754837466673 186725328007312238 539310135366197893 346469625765038826 839510164557011641 53366237191272263 984171601867088470 166056844076430627 227423997099621595 978794873703621255 961953522465955964 989259941290696680 613601206223729645 1151653775855206862 1062487200582799792 763852557315010295 1115441064296171625 117495208558897452 1062384103406895623 829288908272185654 963635444596987293 1118617005176744385 930272261219611580 1135460026091853141 751995614350719608 891356556455096578 402056405144819001 647364100263118974 568894581380578756 697619081929767115 623984224570407296 967526374981406564 353638653022603148 1026769760030617543 429839201280077358 541796658629623351 856005716319328070 473257761368998841 477342221749584977 308961942969581710 724913200895770647 416749047897703994 851548642093204574 1140229248425478459 669235853514580283 315146733118522774 34959798701294320 332138945780347380 339786405793962057 723780129137396124 1118742217445524178 1037366469729030997 141849595407784978 743170604373447426 276737675917025492 221440277058912804 683861383797849922 1076966857273218546 734595495356343701 284745070027958151 530203986924928888 245786659075780036 1120837417191710097 607727057547949806 720367841737422313 1013433483587678010 949520450034211180 1008626574319706786 1087388020112164931 644805917197142622 296537065577081723 313043575159044249 364898096680571446 488355834905221886 908561402488079838 791130375131394939 841129296810038273 1004241298773431108 492456464874821175 571500930323046835 438267192867015982 795840857884893088 1064348581560485364 381921819300959961 1045727499955329791 576445187346214077 309186068108276388 463642183594456924 1034447267933290569 809001526707966460 121424278036601531 964937984218468879 322786475709200765 934322335136748683 676629873418415627 497550330674892061 528798404038867174 964669720965106122 848465822367481238 874829034574332991 763610748811640783 393196517844723075 305421475536010315 992860779733882875 298366703440312839 971555387106056470 1118221642192241778 359792116337720108 302878963274436958 1111321701524492873 720066079766927689 995823735240985394 236490277137597533 1132999983224320110 829002755700392046 658015444597020497 1136847636570596404 882640628996921822 1096313064874044053 254233184722751361 853778237828582077 396464135264917620 737409433592402787 1042149934553255675 587388029248922739 617924466518279391 357911156096335067 756093342171850046 682935465377689120 503596928564239805 725168479768607573 108394019774757533 27401079712930766 1081229608329441066 1127630307683670606 106952493813312917 995202433324712467 1116293449410418890 920558922828732027 982509986737668352 418226218913394941 244177627903179886 841154816620625835 220296356422487318 511844484052526299 514885022134949582 211756260435251608 842149060853571042 957689451731775310 253403853644144164 429965114181599486 8634955697812472 578905778538090137 1038513027321533149 718891611590557392 740632788905438063 429763453393335070 842216353574622324 727389415380066162 758163055153342371 1142557958616171262 594395899816393682 665964587169407303 187590470243183730 804963830238727005 674397188415766806 85842774119291429 606517959265147645 1129120368433252565 332421056567793130 609487830029883435 676060505396310401 983038525320851351 580935847582741647 944844721191627979 1102867321272508810 185287905442019877 657046226343779747 921432170802502342 617323927188131960 53812283827014421 1048763814410584563 1101968068470173449 693550172376165384 588928364189327668 717688809835178076 743667643832135489 1929635159417083 953003636846462283 1038531092427081665 841541756387190150 944566239487118301 650841583439474896 444991916971176429 10530842805228210 24844889461582646 858638138471309242 1065177923768120670 1017940349470673308 531813298145098480 911204858470023782 398886965076585018 1055977849370636790 343331092990682620 330338130726972216 635088727275162571 741614916492406778 951209578967690256 1138310265626198713 1115333052344658755 726292965085016339 327388382886240518 487265555313045956 618222932810086051 847439241186064502 1034477210766545161 1127465601293334550 514676443286257988 924308017625079304 1048167060832152122 796057809689839617 255408593402981523 850519845636288544 426352226713284977 683148066690565347 894328813955609531 1119960603051584901 162558906186635409 1047163488446339956 255547104747926275 1136871173856572319 669596862098352434 253750596609259740 824881342709382419 1105921641505708985 222277324359365718 162483095310656499 1099016995261272788 675605429382295706 545323431088721878 291409695806923528 420743537655435197 865446010979869200 973005778493679690 897978534165752980 661863516892795961 878684319787742489 675784709552618635 674464351738471053 538200245598046144 1102458477489289249 195530607956603897 912827631354576953 810139146778029359 4219665676595364 616076204821458680 947240442328102640 1138063093290580755 140490192066835814 1036015162708024330 198234721657259337 572992062956764434 81127450651416489 232988823704637812 605047492026816109 865735142720138131 982761124468060071 830797614221158924 110080011713054076 117125665113762542 811267309166260468 399536197613338941 1150744786761229540 1083961924617945201 1016641707179069189 52813732000941426 155417222348884467 547584010642508006 270672908474318632 1117185507934959888 940628129551353991 211361304904499715 32427112914221750 211841622206765613 1093796674121170815 45153393869485389 526714124187996892 1039580823058666592 368891127937585891 136879551822740671 669257342440302414 368679571661597846 8925217009141120 964058835478226749 817844080681702288 86742277729642269 155191693863962425 262513281228627809 955193998442364519 812758064969076603 751957543440677275 637047819721946457 678951508324523662 473495737810890093 144736450017286425 446044477365033844 317766577386887720 967103987868897445 29205924144347814 405860182117366331 638496934107408264 643530242027556037 1075461999652790801 101458032575787818 147882700314668511 126986504316081270 348985020173299261 839003084638562852 743825000865194161 642522260075711249 83282756054781156 210970810464133236 734854043008892659 1071869730434297912 1113946360655361554 646768284025266122 104325291469889770 140787668997706819 300602802295855452 1012872839819452708 308288208878116264 519529138487828993 302447509947133693 803963535987714556 326655596075445995 134363018261721798 479167861351512197 629027867709056830 401230090208874124 740914235617610175 60513073762707294 1133990188010937014 850717558214794696 28461381071597782 1101970789810421839 438013186587769920 284246715784181280 342312007330450482 944704821187274747 192919373454202590 908834796238991552 1085426336566754457 700018093110007946 588636804752101241 910106516129789605 81065341099361065 11022174106857090 674646069632383310 402176186380609261 774184870613937832 370603703312983420 340463957332880492 906297714620398800 330267132999469731 831105937026209716 303324169820890148 472708386559660362 238399606733963873 835209492548455546 970472871714823398 169574594724592804 735754400820032863 949187066174484174 266840043677675865 637533365842949442 915023225589568922 847669721618828551 453479034054519408 723505973383710370 283569099769788483 580257489132903110 437846783442131306 921237676102897484 833305458876225282 694843849417693645 960547247339016077 799506081641372013 375608237337430383 552357478291721793 1072385234986929368 800182747912901217 424016665106975380 148875337531721101 1110651797054338334 583814297504995145 1069327643191606710 806093946827629260 367825844312485722 502313624652885823 803583426430110831 19395065834636239 1003681216752961507 190077511373320405 102816507155164999 698154008803795108 813646257331284642 771338356048057068 106167888923562213 1108545122727620128 951557185002643751 364396248551283900 104301198674094554 842832787650196915 199540744121715698 404172173375029587 202051141910241365 233926038945114016 600454424969139048 887142015745825274 126791559008680298 1145597562007310268 1068872090266321523 12766264996705788 943479371271125433 176752627444639917 661040591063431833 1139134663364426758 849876475749761701 468364143093539067 145871317108080894 844333417514519155 502762343539178978 1071062212804540380 230725991741455968 816260760853931724 218981471569924464 564363325828189877 114938383409917154 276552561416544057 254190657835171731 129667217613998837 157380063307448346 1083823670318250969 101587010781611129 519205307373148255 314906544365729942 247712911195375563 247159644511357077 624067477792422340 317227084547599706 404880368308358432 1102675559139746622 231318102636795687 1054176037748304504 1066806093914829 14241973091571109 822523502314424632 606605917875984279 932164534246688725 131821325834095958 866362599014727235 379570083620188820 484766901691030760 451195317088684194 540624070579031611 306789238339757760 779545121812927749 589356630794227321 485639277625909449 435889509816537735 878563471895919277 857229395358938877 23160053252633933 495761668662445346 415783327581780066 1140960793282158079 1128202636759901338 2770734636945833 141162262899260732 46619210656563843 997977950005859998 634994347435811682 380496411497087706 375711593946936868 635406812052471259 819569982364234873 455886868857752238 727678570207940835 1054549773652247534 327924461132262561 266453572418316975 1023736908572775749 1036649884892666359 246852422970055478 792298960531210613 167163767535087369 263958041023258454 1046171753509521500 852447548966006131 974368057610433632 158316531254385937 187785925514703278 645693652226308456 86358285886102328 892813282282292234 335615865600545012 446105925512450673 993987590168006635 167295566234334426 232912024083065476 723405864495748223 1087286653906162616 1134838291051001245 318615348200705746 862446747235132871 587622499993966782 95414841952164856 717745254373332125 749191247809387484 970018069073530821 756570992667178262 962808862137178195 85710436374307515 956448648010565779 464004146800843650 886658386016594129 1099962171189096534 306904328234393034 572048852621703955 644862675873246226 929357321313415614 849326676090507702 817727128790218850 1059966603070198721 787205735801642141 510145669849368773 102134974993696728 1118706404019802459 975393971559964700 662773604047818428 898149623823104066 924321515372463992 110966615128580858 793274968915216112 773527196145977319 633258827172402567 153289875972435719 631016473869879914 1064757709414347228 143600839466395210 799019360968756840 421674684754765849 783483995581690338 305750052727281235 507040054619294640 1150754697735802635 817263640996989866 462168840295577956 468760556948911486 382349878066010404 945053439046292805 1076566570002905970 965080125710136129 932232982840356224 601430458732886849 1054076651735863339 150347312638593843 823002876072238412 780231082401460234 713655269537751313 628071328361589087 729532246063959238 1067026196167014610 133719728412555064 485761495021158472 313534615392261066 49785294367553217 728245683749890335 251534331449475473 116055040032434845 583043512264014672 703227589557647624 161095951660650245 839904000208489103 629264353758511523 543519306719259249 327387605547322940 541299326922909441 43830141815743588 171711832285796665 318673482028149029 813633413208692532 952652811593627767 303496056947773355 838014365940339649 987309525844721829 696001949678384271 409646927255452816 460424569774107937 211095029877875711 904655357524792245 378027678895622298 819852884839698802 564564816323246608 847308694263958264 313914241574451960 656725284879064501 1100482275040628291 970600822774997855 602614869578584347 313625414215810534 1003584454885246591 176669421402990720 949020556514972011 914337707571491776 288989558334169913 239964378754611219 437780923884063249 1149139838156031815 353566855611705619 749319658157917021 112438752430568519 687542735371610127 1134587195915392870 674477087645266625 306111141865139261 78814221520212317 1044880786849303023 113773817121435744 914348082325135337 178632454373683983 664041589012229415 1102082283438890863 71393289142960208 704180333972795170 568536763711666113 734530536756429541 589828699852307251 23938123317459654 766427083166761173 586763950971159871 549375414571453754 725665534011226772 542190580611212822 633978969501127149 8314153529948240 193149279033656419 672930601500973895 729076208953366814 20663264564137579 507881288762688156 119886231261034480 820440839151289297 35900635742899194 407451632070096966 152629167689844112 637779315343730220 368560641616616884 401009886930653702 14243133307608057 626252406642980691 1129065902710856402 272488734358486439 414147224405841892 299615024671651312 4611425065539507 921005734458504801 651235854790103623 689876053110877959 985442689743747654 139145233042083594 298942618827245379 280312190517544516 1140473167437968716 1052764120852205113 384217141480000284 1138974440713264917 101530487158336462 496221653523183521 661581730547649677 235470076905652790 485069731583108282 51610383940772458 954452145263526502 7489369929774318 1031794632152621308 871825183284960473 447598748501196510 153094649863193947 208423262767661129 465524295048626072 257802083670127137 709767056948244919 28590734049592071 542583774073051874 820006902995709005 588968418821221820 443256529654366357 934233386528394594 869969521301562356 897072489512485519 667470209189182637 934553583500998028 1002650961040969924 961768237969959724 813106725566440815 227796811014284706 997115182393650734 278677464855207550 907671491071951797 380394147015053017 875942694322160161 835593928363804368 385240644323718475 508465760011764233 87894443305423962 278235660699261760 267736086678770346 1009900883224506850 335765507448770714 773692551646739418 700066311022803210 854895291316339986 601837901623969525 508172143404689617 318042657773427636 669215137165249370 582715939192880272 297471038303764552 937103783046824089 139078084381860761 557950744738905216 75887833876124180 380016836270863803 69096572454372012 709270045673847675 187356338728457625 417451102804669581 58232942790449218 111168469236874834 654234433546594712 111404418694919774 126276775318609543 753352955437639701 239675102892455168 575929595589634147 52867166428090588 519830691609220937 696384293531708827 160835599413946493 703911214617578321 289160237817003219 224199631564033386 1008753181989058699 1057716730909045745 1026464901919976045 1064491491026431196 788814840448004220 1011269235549518487 668922457481203693 33403812556959416 480467547355697475 898074750721496942 243747353639316182 273699001472468466 800656752673697901 1013345551761232748 125456050897432141 316739925881136232 433282623572780428 981475109322283257 216740342795740077 1014475968653358287 420440490362519530 715970084298872775 1114629208405406338 48321204917852043 745996911107358836 131083997466008836 396348679287550760 1112538706007069676 801674322989793349 738649201302373897 218613711561472398 551565940003652655 1067866151819109988 990395707343843483 671133396286051517 365400546576735000 521833483730031073 779696042088050192 908471393169168058 658847917837588659 259584641893424350 906019388720982691 127600726473269210 942136704195024250 551886781210846371 567769280452989616 379449416445749183 500905611432465642 1113988651410723544 906346426720408092 982110941888170672 442185371432133420 244642925828583037 502210536194573869 172857964450304272 494984615314554570 982390468363474168 1107032557011632501 969441168571066859 44621418203713640 792791648586522022 641932854536979801 887597325142355611 23311134834134888 691473215024754308 999205471656231888 926007109465498654 783734531105699753 814247347798829278 560510702364969725 238191717670474085 891959005645773589 188516892596471241 203571534569008537 1082356278240653192 264474574312617440 338507989216287136 1022881048557706286 46107033705066016 1091698024755280492 761682542339217715 531428131159511661 674196447243926417 580159798338166376 399373792841596232 724060619365539206 957384599184338225 3573561944809808 158188766525684869 352369341258073253 578816490446293250 852366973356906563 1043639017787540556 686809390618153864 296483794889313808 129921400516369647 98015122591809310 584458405186660376 716597448727828492 837434432024068140 1017668178884552905 625140657732390637 622185827964119069 1039508601703532609 22298535005453162 359918923969380039 1140551865004053251 64921796850092061 308244343187459266 299483306592935120 610200703413343533 973988338983110018 619419466468362408 450123103839689033 420322061079996810 481569671787501883 855391970788967473 172334260035390473 405239732688109293 233263870813202670 135319332071964312 945501542187126128 778259319313346166 770079099112479783 949561632311470307 892334025685483409 340247096909702632 516786699656379696 1079299444206542815 473504992751639876 210548881703902831 251256758089186670 616425742549781558 218546641568071619 823336032300889770 889191844852717659 476038060014878471 4503557392347019 131063879466056073 370647358051996617 773257061408981747 867703016563302602 136355023936104376 304290035455553981 61173085464975313 539062612787229644 411843871236560277 1112216777954020851 265748860476273711 127288147539658808 645673635816709287 669788607519857381 84666914680060264 879536341560803043 913780466328598121 618624087062758329 114730924707981806 630215190327855883 597476416640455261 578119568541655097 1145427051099756931 846064623349674268 626045971525743017 838941135182342896 787908492412751555 696336692659468436 1019437674177151016 1102369326675300449 201749260536873329 1116619298385043269 449101732381886448 1092937490903187316 670194504443314345 922520731798423950 717533797633743020 957036661512016146 736626372212303586 599556826282083576 1116561138407932225 85917954900129634 1048257308048062152 30846210401333097 107884009837748343 310056119248459268 58279218169788984 257881897601864381 495439258217116242 692953568530830880 290914536818103691 736047769719468914 212631059358433330 251309447666085901 805744298926605856 682701581766439642 1108295801184936039 1097012903279716147 477310963600648212 282745667345788044 863979113844175465 641736735657484936 305812551171957430 1029623657069509532 420602503773829542 917947095020613226 96652079157622919 173676917130547746 340894094268931122 730975750343199632 648426073757137564 1091658560079756025 154139271623055813 717632755471342961 873764117747446926 380210727199421476 814057444380080353 917193508418452506 444348025643611146 877971079536030889 66690150312548359 68123724490890746 1099324544464224744 887812966157506166 170616354328703161 121511593858100748 891964989767114421 747037629945115890 342610137233278324 1032410274315858083 729325635376158732 1036844806470343136 569686283844152494 460653362094979647 1072420873449997740 877540595876597638 5555973939881449 691974020916148650 923760501383257865 1014410730556953137 919119572692780741 837064957188470316 1122643472390323807 975813109474966888 64334596630116840 388193213797369988 231289097120068522 143849009161304653 961325995428999469 671813039685191109 42209772201213259 289450357853383062 952032108240318549 384526662090036538 257468559984109605 436352495071308526 45398100224191986 527391323416511558 1030815424698325306 186855277165727781 878406236529158488 662155400682768914 299557429757702643 317141647762417139 1123636316925128629 450182195561229217 685707599194693904 645402262917065124 602143940712013873 158776649907806351 539830957160339925 385961149171340578 956573771105055050 558589317623938186 369782047034143954 833291993484419349 1066987814910220910 1140720498344871364 930192189698392804 447331112001593979 317980935365334148 647333369527807748 586528023858820359 1109517739857139183 834716693541983480 1003556859478909804 439674256291620705 105879208010413441 662770773692817531 121842664489629237 251931829215434407 493555204159251913 820560937435464548 603203539738649906 447066586789095944 796985571546056979 380286432469410036 549666075984635715 1086508375033065528 1012860456131132470 318906645573345063 251789973851649741 292708900671708621 352540771729132904 517418972283757317 78803932950518703 380964995924656248 294483127022911298 525495685141360129 209091535003779016 222457463120284709 635190104174377523 104405245246193655 724512483080174809 994043307935531374 371878731408008752 957532965101054592 130767279196528362 742464342827479063 37995395481971535 528428346685576590 887953010959567169 622011894269295625 189568544441226562 52081360864727577 984789394017083863 869273085676762894 1112062487021938200 343676923494943775 897762460905808696 987590358489036879 623822773375272229 916543835515355757 381087221286720387 654685996554816995 272020509593881218 355413307082347872 1152040096790305779 430327428662939408 32509227203286757 80538430431347399 445834770702499255 18111543086959352 538085455433675613 1128922191456260202 357571483181553341 907475684644244415 771630112941208162 554292979928703078 584219417733468946 270367465732848605 836125349560183022 906565178348983587 546696820402098538 623911426916025727 352860986958935808 798135709196799648 104223654252656628 894469013048997683 928898446952918425 686565667884909026 950746717298083023 837238544067561823 1031754691951870143 519555733491528851 19849401655452106 1139040893882576906 741529001464130045 810354290598815577 975731021810038811 574306361845307693 546399711871691214 50930673574567177 864032921519888483 110230954158211741 902692133631741495 1127819274824655407 963860762617824552 270795747195542962 582368346686524240 186410500108129127 111000953418318272 894045514798161518 357427538272094143 849955991396064151 744210674140748546 36086696566479570 146987647970542656 1118630727292901332 111024959461191888 963869960602219416 519572502158358 574831175346733832 237373162001301128 450646190305635846 132186651861342767 648366178535135721 1019099211477963695 779083838067549628 1139755077438394929 675109717316305030 296095132106247035 851790264950943914 739464492751353429 876283147314316616 695996765126451989 737406439884301857 976576333243292068 955472826836386422 106399386236033475 915677545632667290 703442864766100535 241310599844552906 903044525266367461 251592210510279483 692848046593086421 843804757852267806 21273503653436012 225463384953411700 1071140206003765099 219834339679594291 254087940630544946 596548096425789713 944088344136985523 4603474731457852 786380753206778513 240191281175652121 30325565730686810 1084833315492439042 485737071913181119 30548115852424899 760399914878184 887809469857607276 958015733659892560 614717483353021906 349428049309545243 1027250504690928149 1095555342189143211 646408020417020150 390371808089794264 564841871850099940 961054929492118961 409642218064691408 785006782313925373 1135653863706213815 941280565976253786 422419116022300694 1053894338014237439 845531654479867906 106960305911165737 828540614556544144 856351300705813868 18085814397598266 582307857773823896 729710224176610567 39166145429488958 250792298806889806 987557987668700447 535588243847428392 283908064430969713 815617621487135825 141392120015411855 1113934524429113343 623988477070812370 964425988196178453 435964143594541764 149082729197713742 649175617203562609 413254721974360994 207419351197242253 831068474018425675 784257480079901540 396454897807693611 766110968590583279 876925427374464286 276190035797134973 1085777162257807414 819772065635444231 993552741499765567 389238617882532162 649011840296149481 299745587846183706 531000765096476947 807038326352202569 145013975641042856 31020696853549332 193407051061098022 781822477710235881 175017742418448724 573802121173383434 246172319278884153 300232087121100875 850525705396383188 1018043232949946361 835877954586610882 675104525551193209 868350671098435873 312936977887991120 877084881889254900 1081288081114738780 208575514128139844 601274308647770983 319693665626764416 520639256854198907 634184360168865610 80771180408257887 48620182344285263 646919966319725271 539882595600655736 788788406844839896 777336177854651401 987133608960128155 94645690967009688 781045877360372230 418950775442941644 361963496411860436 105758831470372775 374280772617256686 231099478888849098 148594461354539274 483323160004411766 59178855294819333 365843880161288462 279289928621707867 1120853316536304280 834095340077941469 668519098136374055 265860997367446087 485870241176502748 1012719184979912113 1098641947337919235 443739030598183905 992439860893507206 112892824233683890 460933191763670759 747258239552770372 800648931457490411 343077050936031968 1111930848333408257 878838539018749123 1018628214525701966 939107917832710929 229181000088193818 440292006953056019 926437896944290126 657655909401390732 801657516856966200 922688992136352122 482393584392917164 70301777009722458 72132938283301907 950735325042924628 113390923695433042 977262672099779984 872832831124732622 567306759445642502 447011759083515726 744762098433240119 1008330095209537945 578569221694457139 840835661303451732 843749097799793403 869847707652590390 954649513243965228 845165400738678242 743448389033483478 27058789180679257 419789430498745541 932693496694457324 180127243958604416 13269678233893666 758777120615804868 456142571713141275 534937812011098441 263587404463442399 621904634076014679 379614665748444286 442019693400415400 709600636439299965 728517546925433285 805855631118168060 739823952476494068 732332128973376467 903137900366123807 550123297682848993 297638464120499023 1021978857263129903 1027180089534484430 630019071083317754 1035639483353741619 517128238850407350 566617900080471251 307075352705167581 679376049586701726 542717338888122665 810455276485332891 1017837588997376628 27006787031804090 1078187863589885640 233511589550213535 506243521524243219 161998944236147235 261756313504858368 584443035404345031 793437427153492259 832453029335675738 539251021490862062 234611603802150015 470401008950135966 178681682685449061 432556009102473855 620459053085292342 142689225934794596 761159022055895865 505510457370886674 415822723908739956 717208451645366225 1043208330512550213 900758276344540482 700043513053132287 185354891884008696 1107925491589202916 1123421587231125814 393886276329619110 158508819684863300 917350894777674205 481967677131030788 199601062788153911 497175449812318202 969450149846911338 236740955272378246 709299849950495131 394206865482202715 907670666453936570 913593766145965991 181939955797162340 859556949608800531 192847630402672140 558504330984086814 1127431616486458243 1071896635247611146 121537015058043597 538181612893947644 545596472410893121 533729273175698832 1106017527744493718 912356294905844075 146776576849657352 540390679383862613 774154121102189986 1051768337236364573 214621644408811701 367068286703022616 701756753237490998 70191132299205113 258263480259895906 655687420824700697 758411877187752292 120292537064743005 778459774744267478 725366100107601345 587861011397546201 811639741094631358 297590339608918856 435157045122317954 74661912568561525 793712125637434713 522677775524656552 776078602428070866 955542616734954817 552513947173746389 242831651429938425 1134120762671984758 1025942404598550799 845037051425644425 77642166910403863 165329136808248106 136812872694492249 357055400331561506 190750585524137146 770177912279207473 562760072439845397 706674798927745329 1001933876646612204 884338073761785898 4298406161534521 477871775968757477 1106844156830929668 1111906451299546202 749568567646563749 428997653973815164 283076940002959054 508146901769310395 1080791566566450131 350145428207519133 115372888382221642 884654124204426593 969441685294534861 497648081546113039 149502447875270523 1122116782515472173 369532867935485826 851873371300885101 968573924637520533 383517444272897833 130303142159975593 690964184581008683 783173420657800406 108180045290698003 823824379619742227 1048682729202140779 493863027260590148 942932768083381547 97312981584799756 612392708337396533 600790862097148957 681304790472474137 476554152009134266 212264948481267547 724500892822771106 744896910114381887 154132883970759350 279109421388022910 991198807683850612 159859973795790289 319703062098095646 603580378671657017 995807082232529212 813128471528381718 493370657137738771 957067630590023619 665031885537840982 875013286679864357 934827824217454527 997952962955821873 185697062278607531 627428780847720786 418456735056950304 146819222594274296 1007662924415331651 463128465161530317 378285435093168901 1048205260360278208 654002234860050580 1068125713927980475 202792669515950169 428095141769696159 422901971143398783 900803998764553727 657797013600699069 386490947737953065 825940070957354908 227880059987217958 343093851733507262 273028736996134388 564680379709595167 455053168019718398 207367536501410985 913935781357314522 1009545545897292712 696914118375758997 132765572811792127 554585909590254452 591459104584743419 609759900329217456 1150477530450571136 67149238327264487 897744182334619466 590651234938329060 974517238232492283 134288454712153117 1133956795924234300 236927600546516737 98558901234562173 998210193827852500 649471840253143855 21458563488313718 825464415907696582 842481960981187192 326952834739185863 908698498888925796 850152396422032968 386246193126970497 818406076122525871 77445069338596882 766785002679175718 1150510568638507532 635190668214282117 694991973624746235 935758428291199918 887422863056476509 989611321649004217 550535950656698643 863355478732033139 504563808398103667 691800792726934837 807819083095536888 111305858096484140 41586659055691488 1107340270839068118 496337767888905082 387942849294785856 719191660820661077 678018555372686908 1075681098952535048 495116145251709615 365485318992129399 201503440540091376 93480444792951006 953340519450045503 113219459115717478 749795951674255631 414409253236295678 226597989983616915 216459468320925015 171324266993333803 218031473979214292 183940791848612122 613559066618388770 1047490835916459400 449557649267045532 818229857580254696 171113775859281056 221485799922645777 125586907028340522 910173667989675671 961170274744718398 758736982870571106 1033986611861790699 858511676382096103 1125708061698807000 902277525571412464 755431585970358793 941155844450034767 169818694128365527 1021387896750079658 898395229707411072 840747492136860638 763979523109381692 583203232864443690 1045995785160993669 703508592396566182 481313226381304815 502815826619591686 941090192355586235 942161357839305798 978135532370145511 468794639454525919 6110427128126820 325579943249971340 517115794265347606 275056881896910105 170904430461928911 354565511072045872 635721379029699306 80415117104689785 283574905615881949 855992038797389409 1062195427874267932 1015621537093741232 577975204516669121 625597045379303031 205105112301372038 865427319161116265 883403335837277530 900453098960905694 635059792185031774 1053218187421020548 521994201911517152 1127644573877283525 932356444248673664 118727486824138357 361440559257595766 913008729726107898 917259583554401503 637618277579690324 702313254276084454 827141350257632787 950971094950220208 150037900403646770 985904130348996992 631308404358873203 337909508248371772 313975683161301680 106950323384178326 849735861168855401 922665220789930630 831636095440913034 800440625462060047 527976524777775207 674900844233623804 114734584795165179 980829736342031111 1024605679995292449 717055882579778155 11502950077167325 140703290704241081 748985381567568311 298704604212670606 435363623869618631 882366835366725973 1125165932109934611 676862326509724972 119457123176191575 412117738072892714 326774636684011723 189285166512641476 783754981352847810 34690481010096958 477210267228586009 929969606131683000 309100047076056890 1140739150409761532 599615063980820598 274177201280489210 128255386564030249 598966327567480075 189645317225546939 563759920838671901 214691760011679857 51345646047724567 1088250375381517436 418920308658734536 343394784743858960 1064651896751532174 929332295362064478 948569935553379457 209686792782249727 123508524177187173 282616868375429894 83212914243552700 522338348392509191 764266952145198298 685969489255694748 1094633548195602593 346603893107748091 783896815308830688 856993319977425325 626064201540567465 384782859319214757 850731196146083913 949436922820390574 156038778741338806 383099077698556828 628952271914456457 32804750376143786 92512409854292781 232563605790283682 599912692674498692 1028549975054276189 1151740434587798825 952749939210199160 519251268517613018 29902251190357388 927798556750108301 1088209363708692573 385951278169992200 530746284577590732 217429863815564697 1086219448516634989 1032514435329224929 954656530945091196 680789132983759609 495530079677602500 948715502461966551 841314605045593379 326441185311393669 935045431379689859 100542596408223841 200064643483641986 873339102462086851 370151721440055873 935951037141923205 248847618182554754 229561318237916842 375833052038206768 154556842830470752 244806673451605179 1082211763555654018 3973245431523495 388813673107400383 680416137437115945 546305471557334045 455460308533552172 1012212391820677571 116315707474018114 1137696257377835968 826624935192320900 1108420603653518956 474087268475344377 899641039879675909 582799222973124958 871040328836214925 527508530124155907 474522464116472042 481665053614423263 190564434042397366 615036583645400582 44921805240524643 737806173123633652 464526463829252945 456035235622554118 258794257323812091 43866479623403407 1052276881281767236 634531710779763464 698142540413772046 597519858957500198 654963305364159082 658837315103955117 644675546446477081 899963351814016580 369485721416027743 161659358166446850 472805950569648152 952466216317133530 622291543488058369 455187133294514598 939068378062958237 261576770049520268 879018560906360976 844400143121431987 567122325274075785 456190107784987982 1109736694659261646 246728933757496514 620733640486201224 449538750272862449 26657123879217612 156878566758170734 913002972983530767 601933557803273983 366733124868791886 954031338937101286 220639471218938282 105564577102108156 1062449385226212019 352654128997377083 688625046098444792 444592236236838794 672917654854989730 2575630181752960 257034305527169505 1084667897895857064 876214821062241831 920532240061193363 201213121104810240 813681984777504917 640912351990227104 682974271484605440 542616746769324587 719600404274822357 931047810867118434 210717311204121681 648330617051366037 983649696320145816 766309439760968373 585296139870146280 745717508140292453 547813224710360129 1089971157572619605 214979072713192004 1071221192192063690 1112411836906908162 680273773081226901 808364483655163739 192989743891399257 992329237872779086 468691919153558412 688806376712222130 873412324794281806 216092970307849942 133250897686436314 948791547380018757 83053678803050422 268983630399122305 667635051157156789 53449474053538525 916606362586764673 1017852671129298632 555307095160698201 955889400872003982 358071108338830454 687646703612087222 611629580008415452 1023097546749334537 778273576316405213 243216216302830007 1075871910102345960 783306000449689431 239876535677326808 854555102783006864 53567012477625537 811666737839491743 266052874640896022 52984267690852307 816703400899844378 747680822821147923 272897586705431951 406373916635151076 567193950387033365 976706688146649547 1034623120515863766 783443981611511099 477044233947139782 178477421806629994 1037755500992356574 1098084781009317192 73827866077994786 221135638552323810 482561383815590199 871572586966383530 922679768699917077 614685871583139380 431118294355746021 555404756114950408 150598409862989027 727983388899198052 458601399304840704 1117439745634559909 97942368886296453 169864005890093698 856994517775162505 1117846950638123506 943606618823723755 37318062126611176 154717606750518245 345466225343723024 571543710332358195 1052888278794494375 847873668053743154 806990378174017551 501153029705340370 110894784724538596 381500153077165149 1053722347126747370 247670720946516746 92175882604738559 259927015669429039 370151349707552402 592701519863570727 485393822601221476 825508646338113003 409211298490351002 236170716918125265 1029416469443107450 201364427971214606 210218807093229499 523797060455475098 457303092385047652 1083311310360740106 32689493051370221 785677693372880092 1138681960719372075 846344882038565299 422514808803061411 710364156729549605 666264430120348630 242359272162074357 145112369596367280 385864631250164268 952000455592710072 9005106736718299 276927594731975412 1047829276241389886 533202188591638373 903045413166224564 202493027402387999 142041701551863681 462579388065526184 38042253459584586 268184217858029199 1038230639452000849 378893687925679667 1015505193414905822 848621222864526892 241975832000792770 281219765719854688 411844035580049867 1104717273600615569 884425539003427052 1084304228092327275 1068747980534608845 1126082566689598579 718942702628678589 703923329161022242 985460374611928872 361292517052841848 343101466552576 1097180406674268972 657960768989973662 790449871776109320 383755396766582551 729109522752818633 209278035105655956 157641269607725494 62321672707560839 1007184743581758503 57847945628105772 140674020910890507 313986059754558034 89890215168295101 962229605065603385 715956385589467691 947949965507182902 624203950973467843 683178028816612555 521928688954777102 447510268974727597 27371516257021743 905425510474031778 829703090896960457 622690401636293544 1057370049189955265 880071476753306028 494572172394699171 300916245786928110 801452186393982966 355634859086320332 472095760425292580 862740144439603539 333853222228178371 649794736072142746 835578823613194997 746678351224119907 292924569701061006 929167466983425113 411204529959983248 302800458002626218 624555102568318204 466270955984160844 338556673324181910 341824752287429967 1122889156944126619 1036262267052545193 652469447146970529 295424137258021050 808310503162540029 197587300516244165 625669492368044337 893802820791839528 275238920844403023 728655209672101455 334708278613738296 201494274426846249 237688861542962527 731158025570637110 1087028565701697996 886767641706626259 732487196916245378 216010457947260768 788380074148013070 709294540030960923 932849301006084380 342576891722259897 51696999258594008 302255205980789635 735141922598289365 811997627439336802 595434120231721383 53143286042591245 574347836937378689 438616977782781389 1013532231151841221 389427406948941203 27220147586064124 730250676874205843 1006088104190084998 1135959600567000760 123504211019580846 105744189918587680 243365429879275793 1033827541131997546 997346996341092984 30710382064158763 459979917070671951 708081999078323391 624235689252977223 101572344152583179 848212913879338860 359835337799208826 856844565793157056 1110799755148132600 715633838700776923 614322570790317777 956082154212534363 907122492450434764 133949024597537943 881348255109347265 490488086747764575 246256232344897297 958395354545363731 638010897090923639 402658480561136389 688485956556624486 333231945862540780 42165998266428600 650276664233335850 980240003997974810 329713010589036394 244272674140665335 1046174700108931771 659238756689830420 15284572587932916 224829858686307500 51581127141884346 1025836274698639582 835347084355928692 727341414664234997 217483635184672259 753568578514646645 672793982017118899 349132722299335026 838624404940436026 291962436060935936 827214512350583 468380443489620324 1085296012090998212 323576616915206186 671827613839299012 626447508470682781 474529363474739170 939507688812640960 324339162183553209 1103929846101735506 5318487682821680 525721708392106365 736811087519675316 1103923884557421087 595068349343730542 934386577199890707 661078459722556114 514712898251775447 19501419506938510 699920384466938714 842229900991926223 161917693696333623 733934883977278439 1147624992003038970 829433329355704425 121635973793279493 575272710865785464 621638727239768450 1058308752753139167 386005274277388493 54818870879938362 198376987007974965 794389636026916956 104676152218524113 469210985649813551 883839288797920181 220335015360507968 339379564448291224 1033964680920246009 83401576532639269 1101475783473470508 908103983049592884 1060720596135740967 472709213119382205 112660727221220534 650191652439225093 853792060055328496 816432449049034142 224184842853384713 1146940554607763517 540914445615087428 1079100899081009772 546018971843969992 891813085386721599 621146894958425447 650455200728931014 171788528452085243 110124781480378206 906042350262368798 208439451025668777 503010418806872529 539748245177921115 111408114855631513 573819033560162497 753943632137390585 678772343128596128 268946406398611070 387026248651753372 206401146509854558 21691065849778152 338433927594569740 706836009121278524 795131118911590390 400307955330133501 1110370175337677160 251717745171418305 1065817189361840610 486543414088670812 836785406498629745 434817532746245484 636580897063217960 769164459055967423 489069281450881516 534135081804713171 437126776765016083 205715801504290608 239406220345937904 461463748897851230 242558854684479529 583311587319942986 197901345506048612 412082781527003712 182157695793386033 589285902000592043 607598361115170894 487115275533185017 772294599215730650 112050020106619302 244870950545209896 637371169139921971 437923977035891571 571793460072570420 664694150859023147 791633877907982814 727927565133474209 503811328427140153 744295588895293725 125611180279571339 935876624131420516 32533144312179986 376793578624977825 419049650365221169 1049558087883691069 873749307138807878 33585422868384677 903714345152235035 418190901423298237 923616242302212878 184333761557111537 909094509907024374 421620773784853402 602867744543302373 746741007591055932 367328277269776971 731525760954733852 96439106001570379 725244232562511734 103446751545860022 559038293253003517 118796033969807605 665744229946244720 282419009437040757 911024740154443121 442349940292011096 552134956682331471 801158143301344473 147905441491596914 789796094867565551 823089331421438903 865981601182163642 127114646778548179 887668329957564906 284311290194449431 284805444941301148 237409927703880156 349651271670411106 606634228267848355 532506072587246723 229197285889163295 88507693304637014 47413208854591739 113621331604566868 1027971855579685034 666646189640540218 787149351222772106 871729913979257452 1147931706431249103 971093401105048432 602893865051183123 198751577659170522 387746662954932071 471853233897600459 842272848069299467 14185175222895991 145657898397415745 405922250512612614 145455511146524729 21721939779439548 1066276000653419112 1113496830303474947 983207967788709890 627122707877129286 555436958574717737 192590460872270181 352115265095515178 807077287731529119 303475904984189879 925186357697136246 539600158837220915 2419325154819735 688753718666862384 134975897342948491 276127772739389891 561556034022555574 858689253342229896 645930170151111306 66609970500851898 638621943065256746 349054615955462066 86011587524627429 1126696754206321804 294042514961980275 327007736019904920 19270347124101985 943168724994604141 475310799507266134 528180151779098101 458768912448104950 695148524023940986 790982749697229834 558170985614516593 58479375304809705 541106870165921925 474850216313721120 46501310256921280 744838059110098070 773606528341322333 788627516882807686 542536524560782101 691916121939823399 187800402744176371 694238098974119257 576144252738249937 775694704945522601 1111173886161998535 76312770933321047 467435915563974330 279644274482327663 738824608408116806 690400969252422021 566883939838425788 202459207719761605 946159149562579716 427636061773010795 876086925661506855 1530644564253709 910774385051909688 576630162738917981 1092344537025111659 970564746636245664 691794691530194571 66375245534575779 703412823246220146 482325341180974572 497394804820426889 1007769148385078905 1085727423431097603 590726404112355306 378975231643231600 385489659480489109 784462323470686400 744449485230024030 884069439892290549 543599910300898141 16576454002931613 5570991011238446 150138011524838420 21017312082781030 480401345505321529 838567614290088656 23390620010095072 443080605762983925 354306010006589871 1044402422793315284 1001500841501869226 28063909410317610 506713470703340433 588238818993283627 781678972092163364 517524801063567736 274179774279034117 479153559506279071 444418895135112102 733600816849433295 933288651693668483 185347038244936332 302885593305275599 96018736066026867 323319993578401056 973563575377986457 1112712338836624701 881277961440102273 89369920211592584 1048918677023071384 680549719683208905 784326248289766509 505282976724398265 469692615764044784 266668423581872923 416238126650527772 121351211326619314 983659198842395918 65457824819462912 82541302480633950 701589576516236799 1098347034943095496 648135052378349036 836257595702440797 750153006438187858 125471793503677093 619030857883027095 386347401026428253 952143897373501930 506366865097979735 82463021593635619 547087804883048213 425513483477982941 912995337434855955 281306730620233720 250993272357037583 418696980236780726 410371039959249247 258713561410441020 153495400579216499 434874215172701203 618656901863381429 78147269793620121 94707467954482091 766506887281293075 395973327931137871 908210213494098550 720811859299115333 795138591728434429 1108064345121075024 100317425198520066 918196308632308739 846954020498412119 46126371928019143 1086447537244792098 330320795355470345 724873651428545442 591703520575458155 206241348989430979 1046605401518690011 1006625786713655511 1062783486211202031 532839484551722286 511349012364882949 749489128300666391 336502981956234152 239497104970577362 945981519711862844 88561981591081412 395133987847828717 1085988316390682232 744767338729904901 154682201469427118 1017118388360212141 294555400027983706 901152070870605712 100870513161389087 1023986731149946732 685904277731822006 1150294437808363514 202301341947589921 750871494969025398 455578287896095767 363156725112061879 681327025416353470 247784162819820683 3973634488110297 474492313974373816 315017233595630524 233200652311271868 364602319069481608 528681182737023764 814084219715139863 76714011403087302 811344541449952137 557141196888429147 571005340722173129 441977484437973012 678669912186596740 765761897864695704 66637341536086549 913494065384844994 428715220733341519 1140407918336803610 129475107839117596 615976738368200318 997598421242384894 269412291836638816 991271719571660254 600994870108380408 621616048954509537 722445737365785005 958740857714325649 495695331390158004 123191284159748993 903911094239710895 400333906384713870 512140798752029138 789963075932533766 75441032442266113 17033712982507758 474080563399863478 745216020058932471 998168212686928255 1058345053763638022 262777115163670181 988521450461753875 972689087337686574 135983060720748236 690559440132772125 1089319037898942406 334530334555426884 246956823824120826 842747308899718207 127158644650731017 276060913528905426 680757673730821363 1144484870087115171 126695183751790480 1050181400730259093 145851697003300588 1144130006908484824 803816683674371357 663425183437947411 72367678042202901 1045779736197944776 765318379763085614 1091261235248557953 448599736754508510 356290641584058876 10280095047821223 197986302627048055 970051195631610614 208406711567935128 674688613734556810 514049786565932257 361752301385439906 631319784093934229 324522334093458896 100579952684243547 806288783213540199 458362175730734168 1049026809309226957 989781470807823776 149942607714676199 442778622229215266 1136794639552981518 465201607807904050 327012707922410650 953459583725727181 845277557609618539 224907851172931800 36256785551726361 60702335262197914 536506621039947194 758309218991599552 597584599132735103 717379362274703475 861238750685921532 1105190657936305751 424906923959441171 790200787194101819 94422853459507363 1107105042360889290 731772593538184140 529020231574536782 46803036320879881 888317133028595772 959467235154436958 947531640454765898 722712693391473886 863275647504993479 917391416143978812 891631502058111995 460624606660148949 43981833807038083 989351707114970267 1043596809475825607 950309684302007303 91089580214831904 376361737269047956 386770687735257859 685590820471391680 39780078259084272 65803356328203664 453217722284540731 823658407389678607 290192745344107955 691670874706890756 6717720908205351 1056627599315369176 205193220777148921 361894396407188374 853563874361011902 1070269337833423017 327616594949460067 333412320854010786 831874190337410268 666479461021045435 764694140929725878 922565806839298039 435207882316815257 837953366181061908 395233055892688858 402438826682970685 939714364770211334 386833141944365496 454733641269819792 87549266365553420 176754103093400417 896767219438771507 740275374462301794 920179731266183742 37554876051718011 253889770018166467 294708794260377001 887056004835198514 349323969708442586 933999970050731104 614149246240767326 194033680229592703 1110293363199763178 254459758662966055 835515805217671567 362330282474314385 799355405419916104 1109994867733791142 571930684606387213 769882170160944920 298355557632510368 642557939579293820 452584556401993796 479480826918061128 202454360594740735 885793499294419954 272983876505012758 974453393344547290 1091994563160216822 511890971508954753 7208183111106513 416019363505290523 153115797404661023 814079646896011457 617755230804517998 554465421795656328 360624158871127111 869844636247658819 762080740366262248 989692597245177325 976195099819598204 1038886839313031545 654834851458098526 492844214133779999 752393282572200104 686781093862162662 260578466681846380 1137206231649196905 689780465077843000 1049851372893517070 606246326533227611 269637088131041791 144044473850048351 411318729669634871 342338813491367125 836428904295799941 648137484592515625 1038175884256648215 219734699653324639 358287217944626497 795166915196396522 220028056504394252 309333595574974696 219343376693665535 156033371815161249 471408738673879451 546248339948418836 1006997779671363424 633875230128238616 246624651335541718 911822544490196140 906084210031564045 132151271232502486 1120154838927615246 399936963381010463 135335596541817025 682203526963362665 367708953280520294 940362241056840506 818834205330811617 431353406372011494 646113428805885532 52583365333752151 553625181924617067 987138591721728153 492264861902428855 707411634783400742 810165587696408201 469672410882749948 801964147000239507 731113630033543074 202317434620474282 564896307674181266 749495310324860421 195328990576604499 184434669626625496 877677980760575547 302411356411085737 488438211699271118 890774168443166161 346586735052065600 813809200807109381 811169692854867573 186691820219872846 537264293179485464 804943033942338034 1087206033868741290 409545767606988162 972473645422632716 491508907541666161 107152766906313789 59227165986090697 663647750915780386 852908135691354826 995572110030736759 636680637110133445 717391881111819669 620186962003081144 169448700981580542 756569746262834490 488884360936262443 467995720924750762 305475728882946530 33968714325378126 814710957404370147 824386646742506262 1016535351119969428 183667802304195895 60489360323597591 997281322949146379 885616860344087594 376349680109327265 796823433715959506 115023758409782133 1094747507350900504 13733054456023491 84006713362487843 60912235316964209 896932437085772001 215100836076941687 738975545118848686 583154193081658069 421103641939773010 669739935433553284 874549998078050790 321550081252607911 1081562398701015572 525780769505011574 946055932490539815 29157948199408314 104935719786459567 616194820402828108 432721452351150474 1060401242441836432 945169172666997608 457097005195349322 1039758199647885312 632191522303527839 562161558246392541 861155496276273609 387144639382993717 178016497242622278 781400544201788141 409271844103165454 62190327447632824 611658869979589823 763871457428397512 98616132754756037 17792512801140430 1117187961907693745 574269418226595958 475197501436649312 255123837596016882 867534318763329719 1063733095575290741 301277789779083340 4938177058307521 1063811374687680080 1106186717100508556 556775173983464348 62889742971735390 810348975707340576 312326618275535760 79084872367840059 672784431165616172 9089651079647233 1142976580532067397 621069305958824220 805648304859714819 266147232602638755 90134594279694810 416650244213129792 238517952728115888 307689589209806418 957704706162839932 953560620429014411 653658250985960506 993895700303964968 207052290421598035 1132458576679831325 618612846522340147 889882411663540287 670275356704968363 1049396183135985323 530991538167995984 376294023971061848 177997228550016939 230377957785277579 932082440453463791 657580887685258024 960542371025579613 956934607701127360 599826859918476887 29416211066214412 1115429525216061059 311016988668375587 522704202904915356 811750240152953564 837485621778697203 579994630472107631 714507409231547243 759135513460994749 591648433855600939 732931129981864753 974612926841741206 156466035961382168 219557868559375296 1126507436902461309 378025669151812471 126248260497556058 615199920526744655 323001514356570002 229388925516598123 536686954484670096 1057949559695129980 195363097463793530 325556115250811318 550704744270095133 948493792261988079 306372327773295564 842019766726274637 947309204444884073 497203165377543562 408585336420946555 935862116103716317 979504043503674949 1069155635820929941 84610392653142348 261446468773064588 837364586445068079 450886012618384448 911145500754237338 673934921121387446 766334716599611271 175365817422290882 1035495721809964667 677578995070254889 663799899223213020 865623774105751191 154088668588945856 420172137023124130 894214078420444520 219950817866030135 891958710248448734 914498201721096474 369437288829072132 818575269291593585 856595245458314230 840202539594623230 197266497671696684 353871459880787684 742001997146870642 1131050342882597873 26260311651635608 578201395459319023 61178417549501962 1141214811715400838 1074352867889193553 952088448784670218 237157485116818964 674235348998199278 712465767342260518 610150280259669191 97336580382189727 1024393217672681104 200613301438494137 541666593066716059 693586621423319976 631378642341800391 1142876568303861175 405890262878322633 839485858379252748 95349269365688713 21791638328127777 801259841322453043 261146853101848762 238063486044901604 529478367376497499 1012272046095346813 606071646926312400 814148891660221074 953815394415829064 199588800984972952 199931383632573181 526272371092039027 1008679765407233779 488055438107509984 176340199169984230 421726866012453238 648524256075507441 947865918525467021 408649691373228695 667661959827853756 16551587744631713 832726943855107526 647306552246491509 983431764914372851 11384817579519921 606324257560547160 5402897733954570 349744982893335048 502341526951808876 379754232394102842 716081224760593496 366330115245024246 835682199078298537 124661682525440788 536955178252296407 1075119031772371445 1127358014209683443 421724193003230235 651792992934229647 685208208660525913 966055070991559759 1034355256394997478 789582087075822522 272258412870038167 8344949917758522 1089946022847538927 601666261533729930 88867719406822319 1065067634487858025 11314356802375701 23849604851601209 901253300644673752 333138931984317905 850705744378374541 907785823531777545 500021108082000770 1007973757162660201 816158292246161255 968404962165837689 894206267591958222 160459497502625323 325132724094938370 638954092540746124 872924665655348013 381048971259966054 724565696675482781 669597707707318407 161829792482402830 312536367157356358 472407548328349034 544512014552641664 211859539214698874 851462028198267030 202645008444322492 825952881356171936 34993719936316922 1059340158946909576 93244480923537580 743104574366606950 536977630603868172 806475459587184028 790697376519200620 117856226160065339 760583907913186619 166465902629214938 1103122946178534731 92442150821829852 826969079829723021 1077861794457738648 547355526163735066 558736530106239875 1011222331794685371 1142933497636343582 995682968529890991 67682745301134700 491120238620151980 295309479639101930 132047633838416123 1100313356891854975 89650355068796104 70728127101126334 956930805385177018 607303787052618040 964317407638904280 221579956942692126 745207851351084050 808221501883733497 364002560682183699 919853557981104604 687073597559130898 510185968289868252 901976849055509606 505446255405995285 598144437373860697 543395056085545920 298385262500469411 788259996089848294 865767557750870565 973270516683572287 440454221064472754 572590351707486193 289349822823648691 664693639868251763 541531588674561673 536809115784691904 665771247028198167 868583902465099758 206632069359308174 148456257279865352 897840310825141236 593888796005076161 628645549508382058 473578872130459028 595153160931791703 229348197654874003 533718496090867022 611856799436137408 1055284304688265451 310276855740835443 420239778527188447 708664538584198134 82985254454120434 95785927696466156 141207275292487682 301053382002316072 1144962137553919219 345442138547365955 720287414717163697 1071958136338950096 1101844862175680062 563028744633915507 245018137916308912 1073912290324309064 1119500972749838701 603384646200531077 340170887338617967 149085453219678022 1011190826914162884 762636045594174293 120836238844496265 829963558959768375 1116367256939186467 534955708783039773 542964835579587640 669872768441328026 634412153207118312 735691566513035838 1090944647652716768 534287160272169481 623202764403438839 386327688850866171 879508882305502334 297852345851479765 471728864330290846 193687832000501364 1085872099085634005 308783550861808649 1144297918033106799 885420731181708877 455856373790145207 1123531288886645317 749849904866456705 989205355269833624 690706337372493552 483052766971713574 976921954293008683 1152647113417322480] modulus: 1152921496016388097
