modulus: 1152921500311781377
n: 2048
rootOfUnityTable
[1 147785905723680336 278156871210280990 782411390569081292 1012902607757305499 159028550256695487 242146459523293587 266820015357805686 352026978114664541 668933773028098718 335511515364415390 174093162554996699 44072924444305346 1054254518085551601 70633482538137466 385071888218372057 1003011051340735879 1754270522233067 111872189558779572 739758628147618143 1120593685088182214 1057212734771903093 889869861261841910 20027759589767958 54433857700400703 14678077607814232 438960196827396215 11239843785973543 263808048937005025 490720651059136407 1099327111981228754 587223156515132067 603961378512280669 310363513388713080 689872333031346168 1068575803225747416 676977910025854491 290622117505734802 1100831883866391425 43805553209265571 53026307361840498 828792477985549194 1074917085641860430 761724400021049456 598014569822667684 923496752978692327 319933229296506272 804078272179586715 770873136505611663 1148039774742280744 672433419317292781 664439721489776880 656442312992994614 474947838209119604 648868374720810881 252223772017912074 993472413323682477 563594604970679247 246307265869114495 555844541846491277 1143278158202173091 295086709187781806 863229442331055205 750089219734879548 1113384459183755589 1028728540039074615 1116331107167125678 1133822168064880670 713323191595779157 344420464429857798 676425909863367414 213654102537949266 618791644080368694 630711885444359295 84097430964322242 325287029154218200 363943240707547540 839896931792633109 476727326101549784 850562384452211876 885362166603680382 1001197292668809817 378396445083224379 926517051809788981 448552367265679685 442441587274673034 73028343069211042 908271723356812169 957750995197704771 1151281019220748850 812702627551518988 552312623971590289 1013414526047995975 390834820217131646 363117485129971953 1091140191300639025 1098550579881331601 650564515807276285 757041546659906858 1010228207933459927 814173993220105373 272020621632151802 277028012474771701 241525027999970654 52201267310305573 407129951137328028 1021774223972830598 528531171394117010 666347812954374620 876487611285421435 236715577623639558 193486566691644615 604710256648288724 1056534164332448288 390962516597744114 877558886675224099 692005923204935092 406494182707646058 1149720925191467124 214816841078970671 523637119184759086 410897459271727384 499183578900327561 949673668052100538 524715659519723410 25600620940189004 198055975868735963 728811513727095567 253931169160123841 825646403069744211 540054693890447735 324481684487017630 535250530438383314 204565308278661555 77880955656473869 1025558314772389943 950812036201671500 75344879239173331 716766382930647920 166915973367839656 199672204841665001 1026634614279426218 204884729205598537 725755209104025134 252287164677529863 241475466659533139 923593465066975234 579574310701528882 634324205490715688 194084978400888569 1098995488822867994 513133225650270930 68874696137891224 844345892782468749 790318682547062920 683550693170032150 419519376987423485 479166260969888942 474997159797208470 225600869224500427 42447435501203313 645833420298054310 623187152110182811 363955224072407989 154814146778088733 800969797172944536 267041832098502139 1133073132893753729 280936635467020648 39233019348686573 416543246374679820 221585733993313468 150975074301204097 288308438215618553 1037893701034325371 315542912721017759 420548081704357948 445284974589079025 666005496467320853 950383884129175990 952604469886393375 1053205519741813148 988157637399961346 556012573195250230 81012614233275088 211755396196784179 607891972217233149 391581699782156278 615650502893139056 458484972018077316 349570035351443932 267865453111570120 259461507921454275 348103009991290118 389948541237085639 624998512045345908 809792268964806142 90722917612510548 979609780246433033 506220591172863328 5103763035206383 877208126232041546 514428963035918777 731125343205269756 802214341095172853 118020687112855848 47978565910836029 915379573770547021 714255997608024320 541191013232835166 782827889428044286 797856904339041737 340062446124854803 526881751469917590 254070924231172065 591140703263405569 595406596679845579 1069022364252145207 186596120305423703 425016083563230905 265944333772691983 380542224667150110 226549853748678575 729557588100482202 509794764242078222 582341767690799960 57317296938115480 706738003895327702 588276564538447934 660789638638263287 69169213569454642 88113185432123530 158275450714764259 404677827554824598 263315112095062954 546271089879799564 797860080183725127 261733482221187043 1108145668594323275 994679444588516637 388970555991915708 1147008200157628990 864704159542266474 961142189972428838 424407698291844935 76724290953605944 1097855139611174332 1088731426816201062 33794914622810542 991422371218027363 500114229625164083 173887360031830065 748084004658083301 773674427658029740 3742850423498405 133257768816432298 429114965307503677 87327352323706130 1034042092072231085 195173942360859372 1095699615366008071 1055202391372215568 282565438525399000 476981577040894984 722049168477869705 370846410556690159 1089849017329651790 718238706870880196 4788320414317389 213299354955485789 560091249961193569 348162018119263625 859590784142723859 876615666959464960 905719888244248751 1066695797111217085 242987191636800203 453750465289275478 276090298772041724 803293167704636975 846403653623225571 1137831943242815444 28498726257196185 513065782750602145 525180432025025279 391183186247153116 323115842549982670 484827671954015873 1068963487863056142 982127487262656691 621213213215163080 101293007143522047 284526598324553744 841013072597539017 929964839850740726 131042402270213238 58034605185534394 166736823266612582 235148659164669572 701832106429070113 44713157092143358 554723950560630899 420993966666523005 540472885569947689 401743077587655464 797144758831647705 1055872698325255323 2355262886418714 1017522919926019369 942497175758373719 254884986433809820 1079126047314460357 1020074447607718735 368182077400842252 1021558868667535205 91828002680660947 950497619803660440 774996104122441712 815815795373284811 206168963349173183 687395377744601540 844995148359004644 995280194501177260 615033723507114673 90519436048265554 746712602642912139 20748442934385063 250168613228349676 728888177967799400 49912278648328500 688670568477764961 644299555331143325 1076800232659335330 667411132168754180 1112746945876333883 450432380412365915 3179882829799259 739114062703329675 1074840106124609838 667648693821429449 35527859334233675 472828735597773714 1084584313330514353 896007342689655011 125871626776118846 404642652781681101 204855910121887102 697797930435692304 53166460359657625 818837468123541246 956647064542242969 41822804843812853 580946336475912579 356648920391785408 1042211435927523683 1058375148889956412 872158831666070783 859002677114915731 749038324065127246 318198994403228410 750602670127718251 53538035281203172 101836726918811098 49609952037912052 990896892035091543 559219632642318135 41480695407616724 902561480242198524 442124017376400947 396449320518998030 60420508237316617 587753325665363156 572772153463648270 956261144922601464 149346067911001458 685512058775296359 696136679163792357 521450020398514847 145569694466366106 427828795535459949 757645955132837632 77690836611067375 1021180447801645296 139592126375279003 394862240214062912 607153869354450302 452968723066831972 746099583805800438 406802324567655801 742063611436074929 787641015900245265 1115364127039567844 764813446277575140 891507073770755362 751298674805785029 297649575908301753 890615579014008386 784169314430297885 1086301140120984575 494384117416152403 427333682641081521 921478597386980126 735694636115154624 121435922444363020 1090054472775930309 17402905917382922 206439187068887915 114372545391301768 1144718290018464875 1005759766790583486 1088804427541878579 929472118182846376 529045748403792019 679459963583303160 838255430923379555 97204900630883265 54383923987670268 523526790407009989 244242475507984595 78903899119232361 942698585732917452 1095562850801172532 786128289996557260 9504431439131717 890608045984990500 1111234254321299030 16429193024173431 933765947852635935 30904591349499651 43620011360061509 10562703178443955 927185262473399459 1010369316135665710 653238872045104809 81320943852119710 541993185132484863 466628112616001656 1085218806504943030 105285309885310922 1142214934422516297 919029242518997420 453365473333460501 760148128650210753 147903554019544827 685455596080517020 122528140565566123 154998555908802354 317026684720626559 844640670113190565 481014689858863639 993036823788859870 337810334880758136 538940396914367475 1096376763739592291 839733193836008570 725849996756816627 332765802558339724 805384232239859087 588462139884978155 801115549416935676 1072910941832597899 1137999089395219740 248864473176654134 357401016141906861 94422271237312407 21073395524939166 189551225913430198 616421255129548173 511690515053241614 409259346852248491 522249783310977114 830476831697085876 278992582632535181 968957055144995098 396067039173979637 375095738188153643 509799455004469594 681757294088756277 1075504994120527918 394423513621499636 298540676345602647 837913483173893831 587041048008705790 665183831135479381 1114684250815686588 552015102824425021 1070759673921149545 1079066040963996038 615018347499125557 219520619821192159 632553246864226094 519976321168993374 207975368354785251 925086798638162375 350893893405252384 223724209306081639 767852706867211704 783946510851406236 1097087804722084064 867255126979244112 348752385894879383 555862901969193536 566974543072224590 1008376257309411538 878501691753909640 252319290359924283 125016811091364842 298397787470147039 932558457513102054 129658037567492372 712627487025245491 265434794112589775 765795683609201178 111421263823452305 481104024082879750 955675349374133949 784840274718676031 712811814670790525 250875768233080901 16343532244489953 303743398667351584 713734128359362231 544689053003599648 223353986763005011 880360311746726930 912967128789968520 495008477279865593 518751902896625112 897010463054320380 1013834749080063166 365328149281216465 643398118937453977 970641810220539901 673463034098496159 752615673652755441 197559737228750747 497984563009035687 288817094580627902 891189936139932303 562949136862519806 717043549990464420 593601628514504174 762991049715258686 632338582607155608 650672251022191413 619249162899477669 312703713178312231 365225222554340415 1127306379980728649 1119253341225296016 458645318694394872 1151417413874792210 44645332091612005 406235748055392662 327342143516331692 502881741972189626 377789964543013584 615506546692617997 865136357808793316 1145523548880783153 568933475299098419 47789856628069869 93777501673095063 871984519426201024 460791321699485060 109101136072088155 496021399392417312 291517001772120467 933317149678090415 937247020340353755 860806575991136040 717230516228113339 277200306924532796 430293898590601689 18700015120025501 1052696172202168409 345582945069124461 926639694566922917 797038619852648456 372330507224956220 312123359836080335 925710733526946521 481804962145370247 247423208416925762 236597151927939443 987160191018705517 963191120617491307 875120364866749575 945222966077274398 931092073103357502 992764890684361220 231759943650062254 927877196882554384 18993925944813041 65033577342206237 880094829080331580 947002466954080377 696536199134771772 578068855111053651 855213573069331889 706398039414779885 424821788882266485 236797372944704147 22190906150921387 475763517404514294 941233941860134862 475808211064640170 10187427540460624 908209952364462495 1039565484177411690 106815551511693422 390860855173425321 427462311751757838 397080528873755786 581437600231936343 83117175852595893 876903459184719031 176503953468298432 1048647966393654418 1128555427455310729 24399896251496749 735841100316450453 476324859054592461 417531079841739141 693574290276346477 6290564089231058 209715260819599571 295931027808439524 38158095768675433 994773050293983439 748742234787733752 452935547356295739 61460214992836426 821144694420187366 799992637137669458 1064872143192591971 756463694360717023 112988164781613796 1093519199830884874 168094185776826492 992976443502410936 897904305276812550 87150632794293594 1006700732332033498 1009089442608826897 1099624498538668105 454046440189774059 985479081770221316 578015853765969835 14668289877641449 717490910246898595 812394539732508747 384898313665014182 952244438950226602 940697042851186805 1102766819364994642 156953083930611374 299773289575338199 10387103164288480 411354486312159409 833890712521171289 416269430806141093 416072806374362421 848491371121872922 762900839512192209 1061082921610907329 892604052097558462 286003912164475908 116807487679860661 1054840010306549783 394057701926743663 473149087967218101 839670620467595558 869507590820891027 795122345934974407 148789128469716780 830844166473526576 350341760374207463 959864623074554452 1092142082109971341 917784614829325422 306893914923076633 139247724502250741 1139745452273812237 494348699321337500 777588073066398647 975551612060843782 688429378703523965 1042609247053743319 560992160163889530 7239770105314151 1014955303285202817 54520870835758286 268056164236859636 438035508727482968 890080048698143345 222605976226332743 704418233891872624 20413357130464094 165370470897270073 1124981935037243429 1024121492757783583 1033996657625136516 626281236194575189 18404712173994350 579760876935782098 620375798017657439 675258160238044757 316371544608806847 828287725711516254 995763047241780385 788954607695090097 119517073235730173 391026144955990206 451049204724666309 580360752853891894 559532230608982887 690498708207974477 1023471894394742137 68197266740890806 775904918174203870 46655521827372947 770742731615122950 424416521161814179 1082998085059598864 881340623244038641 887102400238476184 612544699052637303 737587426027094856 956726821184842030 928428791151626547 190583905142591501 586941578291028041 114400871882070586 215270087245421908 587738430794439651 378888421760089526 104256696491420913 884083584356697376 946263555449780942 635530698012140167 352642361455516576 244304490984346877 1044046745029942370 4659885895837329 400162302008787254 140813380284993658 368109737118624533 960450090380383259 724417354859655107 897144506963469204 812416822270211399 713002004820644033 297004415893273060 142608714301934790 513874166906982176 110653333447178314 491524580961868748 382221284301948087 856039950531094658 793289083050330308 316955751396721671 658306688420310490 291450460908383124 71240789761610653 557939300629712825 942242919529031272 1028270190884946827 795958719356340576 1100522351184825387 875996672809628389 1010185108909818512 1152700388072492645 92172524343469138 80395739874765917 427610122606974837 510333310347935173 438082085327528404 527580627527569317 56975599289266827 404231904904743731 655160729341806960 79446293492367662 549316392054929352 115469475468459232 484697899537783195 578194946173625755 422813366343841682 242376857641716571 1101598063208099351 200402366754837968 786440214265685024 155351160633607651 266904284757521189 563207990179304116 935298464881113159 849854282882751376 836374956715313644 288349810050167321 458882864895241468 876971695203278985 877872682610565626 357964182163511629 891609216352567383 186358887257363146 505165234539053043 295137219677874882 512172310134016142 254826944330907776 699503691886885690 1090285741050449738 757409134294151400 1039176678016382944 729210240398226453 1026977977651000183 78365147684866758 533355566972803798 39970223124675725 84578073151946827 712856744686039342 771884641464388448 815373472930170596 234828446262937358 191771928807314461 360214287892482552 620001154020057201 649197612002558031 1075030235364215038 810960576378707355 435785088366045268 508925370207982589 435748339477653423 10403536200116205 807122413585207783 262177310179238262 733292510682291784 775096009114337598 782352030669567095 600811375854470829 436139029643485413 323386910372609448 1038036409942605445 447022443222662191 654110539665605079 24010356457548595 389725812608097422 904622488747092113 295200186424386417 1111015829583980459 258901505562645055 250414124644962183 194315302765821816 824796690849813032 562477940282043640 50937518208869978 503806754894838718 186101373559946543 963025416883992842 209476817545299251 8783093147481656 694984863002736474 582511592384144481 223628154118759883 655691547112166127 229370126563033490 1135727867734265420 523067936929230971 129787882353018419 607391511984024942 1070346782658315139 1106986055691590030 946524755798346948 170391092527924578 832332883432661834 346391351152307245 651672542453700261 908106875075342315 1150734594618169435 1135162438752004900 437284849474232907 170140831158784851 491443460401608914 908145486524714604 448077149064299413 239129859318574029 989697441895580479 934615190037078357 252548267959595650 307356304586135534 609308060753833701 380535460207824985 1097954287373819822 1085641564338454349 511207146785300391 808668431477872692 260568889538562665 85348909277649388 585779516904615700 301183500573330997 883401832601821768 463334170071901902 736055508263528975 777234419281720659 1044560522253724677 903730742614314883 699436005027200373 1003583400173807868 480711593724941214 564148268967664031 842373035429416660 314532714806447006 347763885631618490 1095005598135963255 169301164460867905 14091057182052932 533649982470407634 153776957654369917 610287676004879085 504437134999166628 861704289797344652 453524158460576098 690121678702367008 937924584464801568 972346949606921129 84831725525579151 847750355375566841 205664068213508247 998601997196452643 340032026532309337 242500245834836846 211339273524447973 276181487370866658 135879065157452078 1080314531518676725 135459412961115759 14341062707756322 249273911600959802 337406583767935493 689198709083453281 222128888082937092 603956297108281173 482520506540783414 1000048894616743050 307009283169460933 683371381605940221 611281138384249262 426398027396070758 443763387691604121 677819179738269954 863643475940421225 330136173309024989 437681884116202868 26912885073196617 879859943333253239 946230131705979095 895260539835037102 236502286728707714 1123895455821463416 815576933053583294 968821054406416752 270747334010282659 867471988105304918 444546495789221534 382912072333489703 141737089078989977 545192540428679244 823216926163579873 359697403918519859 504676619870753870 1069933927513567419 568868599994147390 631315074411826193 150468479229255261 410160830035208887 497866179591858005 866752120777616163 419191040036542807 431378353532950547 938373387326981907 108605963844336391 670405010673537615 71796371309918375 163716972162993484 988965277401201446 1021485660807387378 778369030514779646 898484015198375506 401590167337196349 59836391871050730 243024704016461173 999934288002790833 1035687833781519056 1136281071380434001 341363410885677013 1150728611990555877 880719506079137680 658376823518306884 125603993772420565 468060218295121557 743514172893407799 270509484462806260 220771981686156990 477597921956288985 92110706248621476 151701597161315798 781662357791285955 153418893197902185 780687066613405278 312875689163280369 58911551711574608 505837744985131987 5654112416829722 249848202794128542 804254903807026117 487798015881035611 963545038260507425 494092206304800842 1027393541704961825 941744800955730140 226550982569922367 209378960227448492 908721527298215711 266290013256017134 1126689360647338040 60295369218742666 632234807899207723 135662870049529469 466254192551102150 25284425822482544 663027645870250710 1102238074489456600 1130383014590804357 991154485624384557 572624821164944344 549286575087874855 264430994093555047 958672868494389187 273552888857240545 567336720234799103 466598439200393647 645864943791388242 272747344392287276 200556089624846672 226229350269918661 942961424326181479 236286733981828053 597180124682569278 359888801818301719 945649637606690278 425938634245783647 1045633344338512990 967451167289330745 471890983602641597 612737958711191970 205547283372035938 1147669196494312065 205318497575312552 430747911734035374 915230121189782325 154312305116233670 188748573434257485 193061658416058168 699967539375801493 1029967609496047236 166634006164122650 531880550606823113 422071594807650040 239271994311967548 1066344063813457007 141492485280302635 1089022482966857155 7777164903358362 483182282159552602 861628825194647685 1004565176487369642 34297774316941878 608940656947521631 831582311882522054 820523633340777667 803880423727164731 211893124565571942 621718121720555644 957743575843217511 923496888562225146 891384295567880437 939500347529079728 281604147014003091 287201771386492788 966103178464994565 908636127398437690 772185051025463197 445177645787279556 32685336563230712 1132688188974547427 1152392822085516132 664831378928530140 654398042441759325 989932519758951703 336861154204338831 581665264433782280 1115981079881488135 750246886838941444 537415217669898697 361044972273871885 285680392710340072 311464654198101822 749198176936970066 252375511714191587 933787579741899101 131443046615157429 611291452338743097 704634433990931085 689271213621546267 371296837936257287 201908938081339908 405867883832579485 855326825568632382 832264870732662864 202595943795732190 875391085888492961 803805867791132137 58963179110714361 572074039498677926 1122088528157085557 1090769218752106066 491961783177824211 56816717903561788 508175031924081797 50966246432010684 1063976018746888920 560796510142239624 583949905476418317 178451757997476078 1043633247032640238 401530741204453504 928395183001355695 340549453667444457 337936641403671572 1109888289410565510 415040909430481110 505431843333639853 171069014019739970 305159581784398663 206168981144632512 158574127886904067 573875306481722155 683947976387313796 620317505966765318 1012087660919755564 873888326185955342 383112428322820205 693002547939650656 1119583640854397724 687975093869820334 647164134554919480 721656741540435865 483177584308867741 616831158913166178 885236590924959603 138056406140531916 1123468306224752745 735354748540683740 312399032463325959 884456379438588982 732129782923524087 537789886158012964 909902606492698067 982521779711864285 512912963174548466 146215411502550875 718712610613459886 279670770846166485 509781431803314558 922934954684556454 79206972772875282 563774681160829821 1083518712033245803 571426244816994722 112480554399997400 1120850215187928925 1110672755447392032 284714604338135336 932980385752912865 335160285668477976 115490412383987795 228916007840642708 942341646353990027 214013453801607385 85805844581613697 656904990542879471 1017822550870521435 480820922107068343 194116343358492415 211892386538869920 972273888105200265 805091407410894398 1124078750638010297 1070874219726952672 305694782218554720 51308082106720651 1120842289885837657 50005952801374477 690087833810335784 1027522879023621267 653760740020271103 211158249480786522 601664560919886222 348826578062113790 42990643338058632 845078227469205754 1120074691141444724 787859619466155036 1011417349908478942 766081940321581215 801802787031907151 266523704488814003 496100554745467280 20879745637364241 87278131374944797 476363457082453980 835124025734747868 894239040191835357 606689738970936105 11653964108640381 638286908458424720 382844236540657056 139631519096347712 538184636715254069 537299219712496810 191315623600560223 811225620918830192 666918331552538277 389435022303073722 465490405450990676 857851344870244344 139659421648186978 406168437060247525 394536428829973004 685963943355987810 117353101026804963 495753497917326676 586191313369141800 1059634337260125939 805035679134394364 118040816564127244 670165582101037058 830389807100336972 965255804796388487 618719983293205339 744384773231212293 136582965829078006 335120497509703498 673926901070006001 850629153533327964 684031746631666927 709526927904754752 565600136823815631 1083367716141119025 33233800977127528 694410116448335690 582456913804325915 17616609082316439 511259755804830331 1099531201315026752 676950416200623524 344658097961954189 175991267719975817 750746142883754372 1104016421203500393 1121760906715542257 263599719081779472 53828589074996845 454808336464260293 457209397444245906 389681118739585260 163482842728918136 981398730238590600 585239981752836047 623501656644570444 22253422259897410 278818320353971793 388589124798304827 485898817668525676 385333549916219246 1035880126877526041 586216292282331728 24322660521637908 603482165936347760 974553275169449029 50838062267520203 1011731870017971808 666646604350408439 1099910432533788987 735784798215956808 150724205956775426 776347986416987221 680578666324349903 738261492254039927 438628169475252448 381289044420506017 647334062880764763 856497642830041150 542108697735365931 75469241841734864 644306364519339775 659748257931733767 122448448480639933 875822241437734682 468665857955034279 574340690854477172 341278247523131572 712955923800622274 699236250257183874 946398448898002000 1052122253557855005 902710962721038621 936979788313758700 434617983075145205 492393718060840649 1132284694824363020 460086851029664931 864271950967572586 40085751539652947 421359421303502232 961405911109966049 1082900837534755183 846629514896775768 663951369556388040 471127549154622474 1018717452049244078 249240783476154579 382948423298415583 736020891489414444 926760982497891934 947381033759651670 88268100075020552 408614232984461425 902481741114331370 75652321686075428 949034359863691411 915578138810154980 100101457532686013 459759742876536948 976608584887027145 574661610104522136 209538523890439657 356238770055214940 300824533881470175 1131255457678032193 877398080190507454 74203137355579279 133245898464571302 125462327586392538 452856048247388074 854559858399343540 200942255939488413 578683171759405970 1078393060145436000 17328176192886456 599550710996828191 1138253547047045842 873255797633770167 791350316451150294 521191578410462502 1009187277399611078 738674610979661912 872053344930999378 665141537369325964 327138106590977979 334020980400988601 865691751862052329 411928529499332305 917627343678900115 121475012704249944 917181027477499482 708453139239212790 748598748019091549 288329960571682294 763804900708206931 395066655194061471 31049402298631729 729852071069121 216257913950472575 52535358475872642 920936771226141487 753074814903691701 30813531712655374 932453022420546861 1059940317532373840 678270104395758359 212889370400280534 998756510791260223 168484646192204663 311401700188845805 73786125541575387 973624755167785771 683007309394477778 174108683617489013 20199830545143661 983899881442736584 717756389683646172 711743503960383097 532541740893360603 310802548028666896 324554870963866226 613096477849400962 388665188991974866 192210629764344865 423685419810860704 695815552805432257 682065129841030415 9610687251879140 245528037511280979 235380356241266512 1086218441836572178 195337161025381302 659982984300301978 1027312310340533460 880281673066475100 708338329327462502 58399690603643364 1048553260449004027 927173931567028484 756454807337634807 465373466671381215 943335280391314188 1086874165536019047 1052218681312180463 24664499712844925 698324973585745728 634050640599199742 664371411391840045 353217989222702468 397962273118691392 410697475477802627 968129815020095392 1058722377899608187 58162220944380944 25737613379039448 896070589311971583 966829646471273606 949389956758679581 595143957636495275 421926894963546105 318889073692516568 770856794727899027 36008205006863307 28505209108433919 559168046593043973 302278678608948209 862689719702191414 391777086490811808 107981191515702183 228042327494361534 686076411906548652 1037252418513164015 1096869110952356911 685229539829900019 1146039534074925355 672265664273362487 210935054892459623 126875290789809887 756667443597545705 375536992260459552 393900030555694211 630634745286075381 327624944865414735 662191734958727187 51826830275849110 829565974888974224 1020725330008976170 248843533978293474 97661071630551501 495416247903545249 1000035770431577378 571986334171711755 976754462751429859 1130190601978019029 237389042039825763 342384167202816729 6659154662030264 945443252876598466 608270789572531582 1045606417197038570 272173250437494003 355360621434870032 716114471312081489 435088472409545939 127529126999445965 1136511925046097604 147239045296043982 1016870343879523582 1108916149124893973 787911517445223994 42766424092220900 1109557836861019812 90134562451135116 834326927579453161 152833537211721310 960088028294270795 642749462652904619 655325374005380768 1030571924217901120 51356990335858611 830717535207767090 1099655080815580504 70910523942639649 321587217035986353 960424724074054978 933268820835698681 584192482644390206 915052800314034791 825828803302096032 913730239090551029 470896640169401444 463273082484471539 769199517120990645 81753531990114281 953124008152985665 737256081933510339 451267767118877497 539900894290193869 174653237318718077 893011438805814945 1086761009434280798 738164602965412603 1139324419958254479 236404610666448568 862762281515481366 1030391157149812778 338703112592596039 335748359629542686 607963433300718266 553175717136511946 614786710990826446 124664882292191705 1062210225396010928 752951202960194761 1071733335735424758 87301553662180415 970382241672237933 866507321672318916 11775335133080933 997382028793426463 374470093870601890 649717809938061196 881330689434587924 686416583322117845 371363964730971494 885108057500063690 634641105726379745 574057667028496897 955612126735952037 147784224786623547 5522694950971971 201589401562376441 1027010621641906413 19105572686963389 239244550997895130 813990742117928774 587007296553646940 877882820765214939 655356683475236405 113109316173827281 786944183659870087 668260996176602652 599520493571430435 481081330467720318 975001699319245338 320457137933752934 217459354744297109 545637459031228260 1022172213004565569 788185076639877780 79421569859452631 815040937412718810 627239518502035671 738364272783910254 479118577911872930 597069073411745288 15845728125602304 106960652953106513 995692866161958361 723856436227464107 407226444984193892 967119566883032252 453272479192747355 375959712182407429 834775194469144522 171559751778611437 6573178084445270 1142971953718505927 741746867638399436 136952863351116712 904898989159300010 1087527280897952061 238269220410068743 231751389981802913 957436160604129776 660541864244964638 213906778007867270 646894962877439005 512365636609425168 817139388270413728 941996947119416736 206585657214723317 1123842931406490913 1042759279774845497 908393387271257763 275805418904717234 1006873666402886266 989134155318035798 33259817969959988 179102952856853854 678673587015196554 361068815430178044 128355560313219792 34199793533274332 91951221953090013 264072008942753972 642877662055798185 441744738747802753 950558970615993726 946983358408272218 885862695384295838 1020911218399289534 383180081888830290 621368711103596386 146824138202718152 564393778276620050 168576660925010739 487502924426677529 702875298839107391 127680289283933878 343354018928621890 382311349146281392 936134954630621112 634675182271877832 939879376413445939 472981388618664838 192648309955411438 379859806089653664 778387242329031058 807892643003921160 556331424383072930 759673670831114498 855609316617533309 403914342251699561 766852609284524280 114849786999673484 946184922080720757 170032528041172358 902143827896644539 446766851505327542 573272582235530945 943191862797381546 1063725948519583472 445962630168054271 728491613911989687 616811016315090684 498303698654337326 922827641016629838 808205181573556238 203591222693103725 690027845205656942 1105225711526526866 137579408240564429 343534429342770490 823417701961365616 877288654322379616 1082899278173398607 286132680726008358 55964121594319155 600994939879077076 58479311798942371 235969890333321916 313054809252287868 554451964949151973 676022687144227909 521476766919363847 1098835796253776739 484812591243890036 430468258673034567 108885689438330819 874786803766330778 779292555177707598 342597462718747782 957829893053712839 527101823950052728 660354368414508383 423972854331630410 222586159278726450 422936348293350267 963896463302017894 588070543838054412 579226527164382209 455331511996622358 55271280423653301 249459603191183655 1100319143316760189 490547408221605154 378444870431098860 566783924226539952 346564551921290418 409370461932329764 891866923394881174 616843053708871210 628395674993371976 1035840145207590631 1127312096396716989 789827196664908258 365567284184659386 391997364003682357 1121699629865417685 117391291039643688 860550872730760589 801035917870450814 973513482308111742 834043960892779137 404380441563235671 979925972182307666 662000333349641557 902271329497417090 160442288887774071 94685245161502358 953066746663821503 856268555543348887 92786146372481744 15878432823574657 183666210159557958 490566923858468823 271364132123200659 965246510085787327 84570259235704890 122606661278189361 921129212823402590 571461036859594178 129870083753927262 94867623660662697 361697030655945995 1084172790425599936 888442486651434162 215683405621665807 314712576338799102 417473191420525075 353864581183144204 487727558074268278 866029340870310859 976384774675141859 902555339322748948 14606363351704230 1049496602380854431 976208337968611338 352895310628717870 283575058253437350 354527076287392300 436251659575404487 1128912804913906630 126324347524898866 836701612931129198 492349597921559878 523007316641896827 103060664504243034 236997842821165932 837793138244638033 184793780673012482 492887104472062630 1045508281548749994 85443035555890573 477324630064564079 137306932692654540 1008293908765427236 581907598043997570 269333560925768963 285872896280408402 46707309365525445 985878621505187619 883608157168908896 984131145455622389 538476057356437614 24905624410050845 934015354760802020 768811462787580080 241650764500913743 970984703081697442 418079569830837776 412900067812793117 813877034727523966 739300232673987657 72949741419704826 682304894120779825 530927435261633009 200243072309689781 660172529273549930 631815316775966650 760242120786243195 33118774125904042 1060217084099220772 1139853852648823032 43914386690202306 1124962583196792272 631201549159343253 1089609514212265970 494642273471963916 424977614918724763 1114368614074377898 749658370353138248 541814542982629561 749427738927206486 359004145770694857 1533769613266180 325874475214654424 994320162248995009 553201808141175641 491745040771757903 903554537659686285 642370807501709628 790955526539371886 620352711301694292 464725756929403116 710364951657169587 548728824777431880 801891877679485331 1088126002522211564 401906178794663998 841028277293522761 665656452800726304 399179820445902676 38044643417221536 1145138695744258459 142393211030273377 455874704172120521 309647073153774645 1003950570324580004 456377090213337380 664990449738212691 948493881165130320 734922134828629186 808640630070840448 797673903760577477 646309322467459169 654031204645196434 730327985381683576 875947428811836852 771922129017225787 392764479438361135 174217155590155309 809230575452399022 412412478172612127 211305417802087212 240276019151565143 76964035328578958 401942279967868259 1111813514558300906 235500886645873926 605540533393166178 395029997759644194 222510985225093063 1059568764338288535 799121871619965096 1009694103594161334 748177140755798338 645884487467855933 273879427534273457 19458524634130084 309819252740887019 128971870690587171 258316991142448280 136578831385116770 1139528454587696529 1040168610850404000 600251661386864365 449508504536735954 1031203141151328173 581592260269650200 997554394162926757 489630166073733586 62867865278815675 864081895324192894 26872556943756688 740438332908453860 416092262016398720 287261785738004792 698624034900915986 363061584538382972 1100140391079695917 213398416892359413 496624400655461861 850856260719982825 569935059845953842 843323318917669257 382554575498808747 1031096167386941853 387346478336936835 242115420293999805 992399605019668891 264274531057120147 1064628121992150145 434942536969677257 391891283463051020 968138614897384150 384376264099787610 816686172605442284 64459608651802725 441120523458233516 1135397793271250196 899318883915993070 968587337449919971 893526750982847906 461243607934863605 737894695422559641 608925182915595746 304561956339434504 678810616756908774 705349411172985355 842969975137048258 979027880434261746 1048116015610687956 560291902447102993 1061881847153675974 16460285044788883 885490793443764261 534543221576043952 179860660670201801 676363405724204455 185409478865670678 280121210435026346 201358319345978900 100027655182346432 859662938060819159 820812974675982764 533429810103100340 600213253782682625 380178596549082148 316165664309118738 774430418632368057 661045640597725357 572074021002557614 842935237617025197 1134358738434213255 117532673917780582 901600411662749702 678023027229471056 326113308855497616 555736277999774394 171804533867211359 390357517580839176 599785041332523124 376673194029153043 959241684085687668 87300310051110004 91109672822206438 1128023392168374752 265686636304587677 750266137694287249 983478624399946658 605932338477519168 60009346731225792 654587514316367637 1094793800986377835 928918835289154904 59331171549851396 31641431304479531 898806707483167834 55361162396733916 542436314491883999 726092247027697185 622761936384932961 1134782157363618467 182989389141501966 105553498410751158 1135849386133467723 196542692420709261 482307056265851809 963897271790789345 386681941554989345 717185547694856297 545198750074012097 460929666178927088 867070135697665748 148811608827333666 123995623095221625 323370229240741142 20579871213123201 1041487769924412219 577805472891462450 691205014553636998 1010967531677600078 609415368036219685 825099867695012048 300576461113896616 1040065096305260874 637207172262671124 34124850935527551 1008251471144673362 366358973724934860 19381960778551442 148810038241827530 567484553758923501 245797876308658751 804571957260182961 525446279938409551 363232407876252122 614771342209907458 1045782171092608610 798927471694449862 124586234382095926 1147927309779613611 886531500466958215 915131338579174850 255999532871790338 933642515894382635 1096960755723774293 274488696014965724 1143984704339787695 143152886238186324 946499866145192118 598985507400944329 1117682848297842146 480072321877194982 708516616033108472 438399418669793416 141496996884280597 398113530912064819 318495560613894621 422462866087777075 253420314913819425 465406151330090567 348273195726723181 912266587867798785 182405310787999232 435046265518037270 816228804279773222 1010266571246583857 178510185392629549 330119374533072107 612282580457086240 2015501780994715 222181059983911019 147213036527441655 76174891399011421 272750659265492875 172340568473664050 1131522595577507321 181585777396460273 1079962943022756157 269568202644556497 1152553134098413179] modulus: 1152921500311781377
