n, towers, ave_time_usec, sd_time_usec, th, bal, nvalid
1024,2,60.764,4.87648,1,1,1000
1024,2,57.848,3.06043,2,1,1000
1024,2,52.689,2.65958,4,1,1000
1024,2,52.802,3.34664,8,1,1000
1024,2,52.4,2.26078,16,1,1000
1024,2,52.592,3.17862,32,1,1000
1024,2,52.145,2.23986,64,1,1000
1024,2,52.097,2.08661,128,1,1000
1024,2,52.42,2.53299,256,1,1000
1024,2,52.19,2.04746,512,1,1000
1024,2,52.191,2.12816,1024,1,1000
