n, towers, ave_time_usec, sd_time_usec, th, bal, nvalid
16384,1,335.191,8.57286,1,1,1000
16384,1,221.306,6.4243,2,1,1000
16384,1,163.465,6.0839,4,1,1000
16384,1,134.908,5.97974,8,1,1000
16384,1,120.024,5.01064,16,1,1000
16384,1,113.065,4.8962,32,1,1000
16384,1,112.844,4.85811,64,1,1000
16384,1,113.328,6.0358,128,1,1000
16384,1,113.299,4.76826,256,1,1000
16384,1,113.106,4.68088,512,1,1000
16384,1,112.975,4.49651,1024,1,1000
