n, towers, ave_time_usec, sd_time_usec, th, bal, nvalid
1024,1,91.992,11.1465,1,1,1000
1024,1,75.211,10.9628,2,1,1000
1024,1,74.211,11.6827,4,1,1000
1024,1,74.174,12.1248,8,1,1000
1024,1,74.117,12.0988,16,1,1000
1024,1,73.9,12.4645,32,1,1000
1024,1,73.325,9.58777,64,1,1000
1024,1,73.323,9.79983,128,1,1000
1024,1,73.33,10.611,256,1,1000
1024,1,73.419,10.0405,512,1,1000
1024,1,72.891,10.2908,1024,1,1000
