n, towers, ave_time_usec, sd_time_usec, th, bal, nvalid
8192,2,122.63,4.38136,1,1,1000
8192,2,100.319,128.64,2,1,1000
8192,2,75.875,3.11723,4,1,1000
8192,2,75.568,3.0765,8,1,1000
8192,2,58.533,3.1867,16,1,1000
8192,2,57.994,2.18741,32,1,1000
8192,2,58.385,3.33615,64,1,1000
8192,2,58.046,2.16439,128,1,1000
8192,2,57.917,1.98596,256,1,1000
8192,2,57.897,2.16912,512,1,1000
8192,2,58.12,2.41608,1024,1,1000
