n, towers, ave_time_usec, sd_time_usec, th, bal, nvalid
32768,16,463.205,1.31708,1,1,1000
32768,16,242.379,56.8185,2,1,1000
32768,16,129.919,1.20078,4,1,1000
32768,16,74.874,1.65918,8,1,1000
32768,16,62.594,1.71526,16,1,1000
32768,16,63.594,1.87635,32,1,1000
32768,16,63.746,1.7924,64,1,1000
32768,16,63.584,2.02065,128,1,1000
32768,16,63.714,1.95398,256,1,1000
32768,16,63.587,1.78539,512,1,1000
32768,16,63.557,1.82211,1024,1,1000
