n, towers, ave_time_usec, sd_time_usec, th, bal, nvalid
8192,2,167.619,4.11786,1,1,1000
8192,2,110.645,3.35145,2,1,1000
8192,2,96.872,5.09643,4,1,1000
8192,2,77.071,3.2389,8,1,1000
8192,2,76.541,3.56385,16,1,1000
8192,2,59.558,3.86155,32,1,1000
8192,2,59.466,3.14814,64,1,1000
8192,2,59.303,3.00803,128,1,1000
8192,2,59.267,2.8938,256,1,1000
8192,2,59.569,3.28024,512,1,1000
8192,2,59.325,3.05429,1024,1,1000
