n, towers, ave_time_usec, sd_time_usec, th, bal, nvalid
32768,16,253.899,1.46866,1,1,1000
32768,16,136.026,1.47631,2,1,1000
32768,16,79.899,1.53465,4,1,1000
32768,16,64.53,1.64067,8,1,1000
32768,16,65.003,1.81612,16,1,1000
32768,16,66.134,1.74788,32,1,1000
32768,16,66.188,1.80829,64,1,1000
32768,16,66.186,1.77498,128,1,1000
32768,16,66.185,1.80167,256,1,1000
32768,16,65.941,1.81406,512,1,1000
32768,16,65.978,1.8512,1024,1,1000
