n, towers, ave_time_usec, sd_time_usec, th, bal, nvalid
8192,1,157.874,10.9919,1,1,1000
8192,1,126.747,8.26652,2,1,1000
8192,1,104.394,5.79865,4,1,1000
8192,1,98.129,4.42515,8,1,1000
8192,1,95.41,8.35642,16,1,1000
8192,1,92.621,11.4115,32,1,1000
8192,1,97.65,4.61419,64,1,1000
8192,1,97.688,4.29548,128,1,1000
8192,1,98.089,5.54597,256,1,1000
8192,1,97.816,4.83938,512,1,1000
8192,1,97.92,5.24415,1024,1,1000
